PCBNEW-LibModule-V1  dim. 24 juil. 2011 19:27:26 CEST
# encoding utf-8
$INDEX
AC1005
$EndINDEX
$MODULE AC1005
Po 0 0 0 15 4E2C55F1 00000000 ~~
Li AC1005
Sc 00000000
AR 
Op 0 0 0
T0 0 -400 600 600 0 120 N V 21 N "AC1005"
T1 0 500 600 600 0 120 N V 21 N "VAL**"
DS -4700 -2200 -4700 2200 150 21
DS -4700 2200 4700 2200 150 21
DS 4700 2200 4700 -2200 150 21
DS 4700 -2200 -4700 -2200 150 21
$PAD
Sh "1" C 600 600 0 0 0
Dr 320 0 0
At STD N 00E0FFFF
Ne 0 ""
Po -3000 -1500
$EndPAD
$PAD
Sh "2" C 600 600 0 0 0
Dr 320 0 0
At STD N 00E0FFFF
Ne 0 ""
Po 3000 -1500
$EndPAD
$PAD
Sh "3" C 600 600 0 0 0
Dr 320 0 0
At STD N 00E0FFFF
Ne 0 ""
Po 0 1500
$EndPAD
$EndMODULE  AC1005
$EndLIBRARY
