%!PS-Adobe-3.0
%%Creator: PCBNEW-PS
%%CreationDate: Mon Oct 17 18:45:20 2011
%%Title: /home/alex/codaz/DuinoPlug/kicad/duinoplug-Sérigr_Dessous.ps
%%Pages: 1
%%PageOrder: Ascend
%%BoundingBox: 0 0 596 843
%%DocumentMedia: A4 595 842 0 () ()
%%Orientation: Landscape
%%EndComments
%%Page: 1 1
/line {
    newpath
    moveto
    lineto
    stroke
} bind def
/cir0 { newpath 0 360 arc stroke } bind def
/cir1 { newpath 0 360 arc gsave fill grestore stroke } bind def
/cir2 { newpath 0 360 arc gsave fill grestore stroke } bind def
/arc0 { newpath arc stroke } bind def
/arc1 { newpath 4 index 4 index moveto arc closepath gsave fill grestore stroke } bind def
/arc2 { newpath 4 index 4 index moveto arc closepath gsave fill grestore stroke } bind def
/poly0 { stroke } bind def
/poly1 { closepath gsave fill grestore stroke } bind def
/poly2 { closepath gsave fill grestore stroke } bind def
/rect0 { rectstroke } bind def
/rect1 { rectfill } bind def
/rect2 { rectfill } bind def
/linemode0 { 0 setlinecap 0 setlinejoin 0 setlinewidth } bind def
/linemode1 { 1 setlinecap 1 setlinejoin } bind def
/dashedline { [50 50] 0 setdash } bind def
/solidline { [] 0 setdash } bind def
gsave
0.0072 0.0072 scale
linemode1
82670 0 translate 90 rotate
60 setlinewidth
150 setlinewidth
newpath
104000 12670 moveto
104000 14670 lineto
stroke
newpath
103500 12670 moveto
104000 12670 lineto
stroke
newpath
15000 12670 moveto
103500 12670 lineto
stroke
newpath
15000 14670 moveto
15000 12670 lineto
stroke
newpath
104000 14670 moveto
104000 22670 lineto
stroke
newpath
15000 22670 moveto
15000 14670 lineto
stroke
newpath
15000 68170 moveto
104000 68170 lineto
stroke
newpath
15000 22670 moveto
15000 68170 lineto
stroke
newpath
104000 68170 moveto
104000 22670 lineto
stroke
showpage
grestore
%%EOF
