%!PS-Adobe-3.0
%%Creator: PCBNEW
%%CreationDate: Mon Oct 17 18:45:18 2011
%%Title: /home/alex/codaz/DuinoPlug/kicad/duinoplug-drl.ps
%%Pages: 1
%%PageOrder: Ascend
%%BoundingBox: 0 0 596 843
%%DocumentMedia: A4 595 842 0 () ()
%%Orientation: Landscape
%%EndComments
%%Page: 1 1
/line {
    newpath
    moveto
    lineto
    stroke
} bind def
/cir0 { newpath 0 360 arc stroke } bind def
/cir1 { newpath 0 360 arc gsave fill grestore stroke } bind def
/cir2 { newpath 0 360 arc gsave fill grestore stroke } bind def
/arc0 { newpath arc stroke } bind def
/arc1 { newpath 4 index 4 index moveto arc closepath gsave fill grestore stroke } bind def
/arc2 { newpath 4 index 4 index moveto arc closepath gsave fill grestore stroke } bind def
/poly0 { stroke } bind def
/poly1 { closepath gsave fill grestore stroke } bind def
/poly2 { closepath gsave fill grestore stroke } bind def
/rect0 { rectstroke } bind def
/rect1 { rectfill } bind def
/rect2 { rectfill } bind def
/linemode0 { 0 setlinecap 0 setlinejoin 0 setlinewidth } bind def
/linemode1 { 1 setlinecap 1 setlinejoin } bind def
/dashedline { [50 50] 0 setdash } bind def
/solidline { [] 0 setdash } bind def
gsave
0.0072 0.0072 scale
linemode1
82670 0 translate 90 rotate
8.40285 setlinewidth
126.043 setlinewidth
newpath
98384 25344 moveto
98384 27024 lineto
stroke
newpath
97964 25344 moveto
98384 25344 lineto
stroke
newpath
23599 25344 moveto
97964 25344 lineto
stroke
newpath
23599 27024 moveto
23599 25344 lineto
stroke
newpath
98384 27024 moveto
98384 33746 lineto
stroke
newpath
23599 33746 moveto
23599 27024 lineto
stroke
newpath
23599 71979 moveto
98384 71979 lineto
stroke
newpath
23599 33746 moveto
23599 71979 lineto
stroke
newpath
98384 71979 moveto
98384 33746 lineto
stroke
8.40285 setlinewidth
newpath
30323 53912 moveto
30488 53747 lineto
30488 53912 moveto
30323 53747 lineto
stroke
newpath
34356 53912 moveto
34521 53747 lineto
34521 53912 moveto
34356 53747 lineto
stroke
newpath
38726 53912 moveto
38890 53747 lineto
38890 53912 moveto
38726 53747 lineto
stroke
newpath
42759 53912 moveto
42924 53747 lineto
42924 53912 moveto
42759 53747 lineto
stroke
newpath
47129 53912 moveto
47293 53747 lineto
47293 53912 moveto
47129 53747 lineto
stroke
newpath
51162 53912 moveto
51327 53747 lineto
51327 53912 moveto
51162 53747 lineto
stroke
newpath
55531 53912 moveto
55696 53747 lineto
55696 53912 moveto
55531 53747 lineto
stroke
newpath
59565 53912 moveto
59729 53747 lineto
59729 53912 moveto
59565 53747 lineto
stroke
newpath
63934 53912 moveto
64099 53747 lineto
64099 53912 moveto
63934 53747 lineto
stroke
newpath
67968 53912 moveto
68132 53747 lineto
68132 53912 moveto
67968 53747 lineto
stroke
newpath
72337 53912 moveto
72502 53747 lineto
72502 53912 moveto
72337 53747 lineto
stroke
newpath
76370 53912 moveto
76535 53747 lineto
76535 53912 moveto
76370 53747 lineto
stroke
newpath
80740 53912 moveto
80905 53747 lineto
80905 53912 moveto
80740 53747 lineto
stroke
newpath
84773 53912 moveto
84938 53747 lineto
84938 53912 moveto
84773 53747 lineto
stroke
newpath
89143 53912 moveto
89307 53747 lineto
89307 53912 moveto
89143 53747 lineto
stroke
newpath
93176 53912 moveto
93341 53747 lineto
93341 53912 moveto
93176 53747 lineto
stroke
31161 59795 130.244 cir0
31161 58955 130.244 cir0
31582 59375 130.244 cir0
39564 59795 130.244 cir0
39564 58955 130.244 cir0
39984 59375 130.244 cir0
47967 59795 130.244 cir0
47967 58955 130.244 cir0
48387 59375 130.244 cir0
56370 59795 130.244 cir0
56370 58955 130.244 cir0
56790 59375 130.244 cir0
64773 59795 130.244 cir0
64773 58955 130.244 cir0
65193 59375 130.244 cir0
73176 59795 130.244 cir0
73176 58955 130.244 cir0
73596 59375 130.244 cir0
81579 59795 130.244 cir0
81579 58955 130.244 cir0
81999 59375 130.244 cir0
89981 59795 130.244 cir0
89981 58955 130.244 cir0
90402 59375 130.244 cir0
newpath
25700 65812 moveto
25700 65543 lineto
25834 65677 moveto
25565 65677 lineto
stroke
newpath
25700 64551 moveto
25700 64282 lineto
25834 64417 moveto
25565 64417 lineto
stroke
newpath
26540 67492 moveto
26540 67223 lineto
26674 67358 moveto
26405 67358 lineto
stroke
newpath
26960 62030 moveto
26960 61762 lineto
27094 61896 moveto
26826 61896 lineto
stroke
newpath
26960 61190 moveto
26960 60921 lineto
27094 61056 moveto
26826 61056 lineto
stroke
newpath
27380 67492 moveto
27380 67223 lineto
27515 67358 moveto
27246 67358 lineto
stroke
newpath
28220 65812 moveto
28220 65543 lineto
28355 65677 moveto
28086 65677 lineto
stroke
newpath
28220 64551 moveto
28220 64282 lineto
28355 64417 moveto
28086 64417 lineto
stroke
newpath
28220 59510 moveto
28220 59241 lineto
28355 59375 moveto
28086 59375 lineto
stroke
newpath
28641 62030 moveto
28641 61762 lineto
28775 61896 moveto
28506 61896 lineto
stroke
newpath
29061 59510 moveto
29061 59241 lineto
29195 59375 moveto
28926 59375 lineto
stroke
newpath
29901 32200 moveto
29901 31931 lineto
30035 32066 moveto
29767 32066 lineto
stroke
newpath
31161 62030 moveto
31161 61762 lineto
31296 61896 moveto
31027 61896 lineto
stroke
newpath
31161 57409 moveto
31161 57140 lineto
31296 57274 moveto
31027 57274 lineto
stroke
newpath
31161 56148 moveto
31161 55880 lineto
31296 56014 moveto
31027 56014 lineto
stroke
newpath
31161 27999 moveto
31161 27730 lineto
31296 27864 moveto
31027 27864 lineto
stroke
newpath
32422 29679 moveto
32422 29411 lineto
32556 29545 moveto
32287 29545 lineto
stroke
newpath
33262 63291 moveto
33262 63022 lineto
33397 63156 moveto
33128 63156 lineto
stroke
newpath
33262 60770 moveto
33262 60501 lineto
33397 60636 moveto
33128 60636 lineto
stroke
newpath
33682 57409 moveto
33682 57140 lineto
33817 57274 moveto
33548 57274 lineto
stroke
newpath
33682 56148 moveto
33682 55880 lineto
33817 56014 moveto
33548 56014 lineto
stroke
newpath
33682 27999 moveto
33682 27730 lineto
33817 27864 moveto
33548 27864 lineto
stroke
newpath
34943 32200 moveto
34943 31931 lineto
35077 32066 moveto
34808 32066 lineto
stroke
newpath
36623 59510 moveto
36623 59241 lineto
36758 59375 moveto
36489 59375 lineto
stroke
newpath
37043 62030 moveto
37043 61762 lineto
37178 61896 moveto
36909 61896 lineto
stroke
newpath
37464 59510 moveto
37464 59241 lineto
37598 59375 moveto
37329 59375 lineto
stroke
newpath
38304 32200 moveto
38304 31931 lineto
38438 32066 moveto
38169 32066 lineto
stroke
newpath
39564 62030 moveto
39564 61762 lineto
39699 61896 moveto
39430 61896 lineto
stroke
newpath
39564 57409 moveto
39564 57140 lineto
39699 57274 moveto
39430 57274 lineto
stroke
newpath
39564 56148 moveto
39564 55880 lineto
39699 56014 moveto
39430 56014 lineto
stroke
newpath
39564 27999 moveto
39564 27730 lineto
39699 27864 moveto
39430 27864 lineto
stroke
newpath
40825 29679 moveto
40825 29411 lineto
40959 29545 moveto
40690 29545 lineto
stroke
newpath
42085 63291 moveto
42085 63022 lineto
42220 63156 moveto
41951 63156 lineto
stroke
newpath
42085 60770 moveto
42085 60501 lineto
42220 60636 moveto
41951 60636 lineto
stroke
newpath
42085 57409 moveto
42085 57140 lineto
42220 57274 moveto
41951 57274 lineto
stroke
newpath
42085 56148 moveto
42085 55880 lineto
42220 56014 moveto
41951 56014 lineto
stroke
newpath
42085 27999 moveto
42085 27730 lineto
42220 27864 moveto
41951 27864 lineto
stroke
newpath
43346 32200 moveto
43346 31931 lineto
43480 32066 moveto
43211 32066 lineto
stroke
newpath
45026 59510 moveto
45026 59241 lineto
45161 59375 moveto
44892 59375 lineto
stroke
newpath
45446 62030 moveto
45446 61762 lineto
45581 61896 moveto
45312 61896 lineto
stroke
newpath
45866 59510 moveto
45866 59241 lineto
46001 59375 moveto
45732 59375 lineto
stroke
newpath
46707 32200 moveto
46707 31931 lineto
46841 32066 moveto
46572 32066 lineto
stroke
newpath
47967 62030 moveto
47967 61762 lineto
48102 61896 moveto
47833 61896 lineto
stroke
newpath
47967 57409 moveto
47967 57140 lineto
48102 57274 moveto
47833 57274 lineto
stroke
newpath
47967 56148 moveto
47967 55880 lineto
48102 56014 moveto
47833 56014 lineto
stroke
newpath
47967 27999 moveto
47967 27730 lineto
48102 27864 moveto
47833 27864 lineto
stroke
newpath
49228 29679 moveto
49228 29411 lineto
49362 29545 moveto
49093 29545 lineto
stroke
newpath
50488 63291 moveto
50488 63022 lineto
50622 63156 moveto
50354 63156 lineto
stroke
newpath
50488 60770 moveto
50488 60501 lineto
50622 60636 moveto
50354 60636 lineto
stroke
newpath
50488 57409 moveto
50488 57140 lineto
50622 57274 moveto
50354 57274 lineto
stroke
newpath
50488 56148 moveto
50488 55880 lineto
50622 56014 moveto
50354 56014 lineto
stroke
newpath
50488 27999 moveto
50488 27730 lineto
50622 27864 moveto
50354 27864 lineto
stroke
newpath
51748 32200 moveto
51748 31931 lineto
51883 32066 moveto
51614 32066 lineto
stroke
newpath
53429 59510 moveto
53429 59241 lineto
53563 59375 moveto
53295 59375 lineto
stroke
newpath
53849 62030 moveto
53849 61762 lineto
53984 61896 moveto
53715 61896 lineto
stroke
newpath
54269 59510 moveto
54269 59241 lineto
54404 59375 moveto
54135 59375 lineto
stroke
newpath
55110 32200 moveto
55110 31931 lineto
55244 32066 moveto
54975 32066 lineto
stroke
newpath
56370 62030 moveto
56370 61762 lineto
56504 61896 moveto
56236 61896 lineto
stroke
newpath
56370 57409 moveto
56370 57140 lineto
56504 57274 moveto
56236 57274 lineto
stroke
newpath
56370 56148 moveto
56370 55880 lineto
56504 56014 moveto
56236 56014 lineto
stroke
newpath
56370 27999 moveto
56370 27730 lineto
56504 27864 moveto
56236 27864 lineto
stroke
newpath
57630 29679 moveto
57630 29411 lineto
57765 29545 moveto
57496 29545 lineto
stroke
newpath
58891 63291 moveto
58891 63022 lineto
59025 63156 moveto
58756 63156 lineto
stroke
newpath
58891 60770 moveto
58891 60501 lineto
59025 60636 moveto
58756 60636 lineto
stroke
newpath
58891 57409 moveto
58891 57140 lineto
59025 57274 moveto
58756 57274 lineto
stroke
newpath
58891 56148 moveto
58891 55880 lineto
59025 56014 moveto
58756 56014 lineto
stroke
newpath
58891 27999 moveto
58891 27730 lineto
59025 27864 moveto
58756 27864 lineto
stroke
newpath
60151 32200 moveto
60151 31931 lineto
60286 32066 moveto
60017 32066 lineto
stroke
newpath
61832 67072 moveto
61832 66803 lineto
61966 66938 moveto
61697 66938 lineto
stroke
newpath
61832 65812 moveto
61832 65543 lineto
61966 65677 moveto
61697 65677 lineto
stroke
newpath
61832 59510 moveto
61832 59241 lineto
61966 59375 moveto
61697 59375 lineto
stroke
newpath
62252 62030 moveto
62252 61762 lineto
62386 61896 moveto
62118 61896 lineto
stroke
newpath
62672 67072 moveto
62672 66803 lineto
62807 66938 moveto
62538 66938 lineto
stroke
newpath
62672 65812 moveto
62672 65543 lineto
62807 65677 moveto
62538 65677 lineto
stroke
newpath
62672 59510 moveto
62672 59241 lineto
62807 59375 moveto
62538 59375 lineto
stroke
newpath
63512 67072 moveto
63512 66803 lineto
63647 66938 moveto
63378 66938 lineto
stroke
newpath
63512 65812 moveto
63512 65543 lineto
63647 65677 moveto
63378 65677 lineto
stroke
newpath
63512 32200 moveto
63512 31931 lineto
63647 32066 moveto
63378 32066 lineto
stroke
newpath
64353 67072 moveto
64353 66803 lineto
64487 66938 moveto
64218 66938 lineto
stroke
newpath
64353 65812 moveto
64353 65543 lineto
64487 65677 moveto
64218 65677 lineto
stroke
newpath
64773 62030 moveto
64773 61762 lineto
64907 61896 moveto
64638 61896 lineto
stroke
newpath
64773 57409 moveto
64773 57140 lineto
64907 57274 moveto
64638 57274 lineto
stroke
newpath
64773 56148 moveto
64773 55880 lineto
64907 56014 moveto
64638 56014 lineto
stroke
newpath
64773 27999 moveto
64773 27730 lineto
64907 27864 moveto
64638 27864 lineto
stroke
newpath
65193 67072 moveto
65193 66803 lineto
65327 66938 moveto
65059 66938 lineto
stroke
newpath
65193 65812 moveto
65193 65543 lineto
65327 65677 moveto
65059 65677 lineto
stroke
newpath
66033 67072 moveto
66033 66803 lineto
66168 66938 moveto
65899 66938 lineto
stroke
newpath
66033 65812 moveto
66033 65543 lineto
66168 65677 moveto
65899 65677 lineto
stroke
newpath
66033 29679 moveto
66033 29411 lineto
66168 29545 moveto
65899 29545 lineto
stroke
newpath
66874 67072 moveto
66874 66803 lineto
67008 66938 moveto
66739 66938 lineto
stroke
newpath
66874 65812 moveto
66874 65543 lineto
67008 65677 moveto
66739 65677 lineto
stroke
newpath
67294 63291 moveto
67294 63022 lineto
67428 63156 moveto
67159 63156 lineto
stroke
newpath
67294 60770 moveto
67294 60501 lineto
67428 60636 moveto
67159 60636 lineto
stroke
newpath
67294 57409 moveto
67294 57140 lineto
67428 57274 moveto
67159 57274 lineto
stroke
newpath
67294 56148 moveto
67294 55880 lineto
67428 56014 moveto
67159 56014 lineto
stroke
newpath
67294 27999 moveto
67294 27730 lineto
67428 27864 moveto
67159 27864 lineto
stroke
newpath
67714 67072 moveto
67714 66803 lineto
67848 66938 moveto
67579 66938 lineto
stroke
newpath
67714 65812 moveto
67714 65543 lineto
67848 65677 moveto
67579 65677 lineto
stroke
newpath
68554 32200 moveto
68554 31931 lineto
68689 32066 moveto
68420 32066 lineto
stroke
newpath
70235 59510 moveto
70235 59241 lineto
70369 59375 moveto
70100 59375 lineto
stroke
newpath
70655 62030 moveto
70655 61762 lineto
70789 61896 moveto
70520 61896 lineto
stroke
newpath
71075 59510 moveto
71075 59241 lineto
71209 59375 moveto
70941 59375 lineto
stroke
newpath
71915 32200 moveto
71915 31931 lineto
72050 32066 moveto
71781 32066 lineto
stroke
newpath
73176 62030 moveto
73176 61762 lineto
73310 61896 moveto
73041 61896 lineto
stroke
newpath
73176 57409 moveto
73176 57140 lineto
73310 57274 moveto
73041 57274 lineto
stroke
newpath
73176 56148 moveto
73176 55880 lineto
73310 56014 moveto
73041 56014 lineto
stroke
newpath
73176 27999 moveto
73176 27730 lineto
73310 27864 moveto
73041 27864 lineto
stroke
newpath
74436 29679 moveto
74436 29411 lineto
74571 29545 moveto
74302 29545 lineto
stroke
newpath
75276 63291 moveto
75276 63022 lineto
75411 63156 moveto
75142 63156 lineto
stroke
newpath
75276 60770 moveto
75276 60501 lineto
75411 60636 moveto
75142 60636 lineto
stroke
newpath
75697 57409 moveto
75697 57140 lineto
75831 57274 moveto
75562 57274 lineto
stroke
newpath
75697 56148 moveto
75697 55880 lineto
75831 56014 moveto
75562 56014 lineto
stroke
newpath
75697 27999 moveto
75697 27730 lineto
75831 27864 moveto
75562 27864 lineto
stroke
newpath
76957 32200 moveto
76957 31931 lineto
77091 32066 moveto
76823 32066 lineto
stroke
newpath
78638 59510 moveto
78638 59241 lineto
78772 59375 moveto
78503 59375 lineto
stroke
newpath
79058 62030 moveto
79058 61762 lineto
79192 61896 moveto
78923 61896 lineto
stroke
newpath
79478 59510 moveto
79478 59241 lineto
79612 59375 moveto
79343 59375 lineto
stroke
newpath
80318 32200 moveto
80318 31931 lineto
80453 32066 moveto
80184 32066 lineto
stroke
newpath
81579 62030 moveto
81579 61762 lineto
81713 61896 moveto
81444 61896 lineto
stroke
newpath
81579 57409 moveto
81579 57140 lineto
81713 57274 moveto
81444 57274 lineto
stroke
newpath
81579 56148 moveto
81579 55880 lineto
81713 56014 moveto
81444 56014 lineto
stroke
newpath
81579 27999 moveto
81579 27730 lineto
81713 27864 moveto
81444 27864 lineto
stroke
newpath
82839 29679 moveto
82839 29411 lineto
82973 29545 moveto
82705 29545 lineto
stroke
newpath
84099 63291 moveto
84099 63022 lineto
84234 63156 moveto
83965 63156 lineto
stroke
newpath
84099 60770 moveto
84099 60501 lineto
84234 60636 moveto
83965 60636 lineto
stroke
newpath
84099 57409 moveto
84099 57140 lineto
84234 57274 moveto
83965 57274 lineto
stroke
newpath
84099 56148 moveto
84099 55880 lineto
84234 56014 moveto
83965 56014 lineto
stroke
newpath
84099 27999 moveto
84099 27730 lineto
84234 27864 moveto
83965 27864 lineto
stroke
newpath
85360 32200 moveto
85360 31931 lineto
85494 32066 moveto
85225 32066 lineto
stroke
newpath
87040 59510 moveto
87040 59241 lineto
87175 59375 moveto
86906 59375 lineto
stroke
newpath
87461 62030 moveto
87461 61762 lineto
87595 61896 moveto
87326 61896 lineto
stroke
newpath
87881 59510 moveto
87881 59241 lineto
88015 59375 moveto
87746 59375 lineto
stroke
newpath
88721 32200 moveto
88721 31931 lineto
88855 32066 moveto
88587 32066 lineto
stroke
newpath
89981 62030 moveto
89981 61762 lineto
90116 61896 moveto
89847 61896 lineto
stroke
newpath
89981 57409 moveto
89981 57140 lineto
90116 57274 moveto
89847 57274 lineto
stroke
newpath
89981 56148 moveto
89981 55880 lineto
90116 56014 moveto
89847 56014 lineto
stroke
newpath
89981 27999 moveto
89981 27730 lineto
90116 27864 moveto
89847 27864 lineto
stroke
newpath
91242 29679 moveto
91242 29411 lineto
91376 29545 moveto
91107 29545 lineto
stroke
newpath
92502 63291 moveto
92502 63022 lineto
92637 63156 moveto
92368 63156 lineto
stroke
newpath
92502 60770 moveto
92502 60501 lineto
92637 60636 moveto
92368 60636 lineto
stroke
newpath
92502 57409 moveto
92502 57140 lineto
92637 57274 moveto
92368 57274 lineto
stroke
newpath
92502 56148 moveto
92502 55880 lineto
92637 56014 moveto
92368 56014 lineto
stroke
newpath
92502 27999 moveto
92502 27730 lineto
92637 27864 moveto
92368 27864 lineto
stroke
newpath
93763 32200 moveto
93763 31931 lineto
93897 32066 moveto
93628 32066 lineto
stroke
26120 48031 252.085 cir0
newpath
25868 48283 moveto
26372 47779 lineto
26372 48283 moveto
25868 47779 lineto
stroke
26120 46351 252.085 cir0
newpath
25868 46603 moveto
26372 46099 lineto
26372 46603 moveto
25868 46099 lineto
stroke
26120 44670 252.085 cir0
newpath
25868 44922 moveto
26372 44418 lineto
26372 44922 moveto
25868 44418 lineto
stroke
30741 45510 252.085 cir0
newpath
30489 45763 moveto
30993 45258 lineto
30993 45763 moveto
30489 45258 lineto
stroke
32422 45510 252.085 cir0
newpath
32170 45763 moveto
32674 45258 lineto
32674 45763 moveto
32170 45258 lineto
stroke
34102 45510 252.085 cir0
newpath
33850 45763 moveto
34355 45258 lineto
34355 45763 moveto
33850 45258 lineto
stroke
39144 45510 252.085 cir0
newpath
38892 45763 moveto
39396 45258 lineto
39396 45763 moveto
38892 45258 lineto
stroke
40825 45510 252.085 cir0
newpath
40573 45763 moveto
41077 45258 lineto
41077 45763 moveto
40573 45258 lineto
stroke
42505 45510 252.085 cir0
newpath
42253 45763 moveto
42757 45258 lineto
42757 45763 moveto
42253 45258 lineto
stroke
47547 45510 252.085 cir0
newpath
47295 45763 moveto
47799 45258 lineto
47799 45763 moveto
47295 45258 lineto
stroke
49228 45510 252.085 cir0
newpath
48975 45763 moveto
49480 45258 lineto
49480 45763 moveto
48975 45258 lineto
stroke
50908 45510 252.085 cir0
newpath
50656 45763 moveto
51160 45258 lineto
51160 45763 moveto
50656 45258 lineto
stroke
55950 45510 252.085 cir0
newpath
55698 45763 moveto
56202 45258 lineto
56202 45763 moveto
55698 45258 lineto
stroke
57630 45510 252.085 cir0
newpath
57378 45763 moveto
57883 45258 lineto
57883 45763 moveto
57378 45258 lineto
stroke
59311 45510 252.085 cir0
newpath
59059 45763 moveto
59563 45258 lineto
59563 45763 moveto
59059 45258 lineto
stroke
64353 45510 252.085 cir0
newpath
64101 45763 moveto
64605 45258 lineto
64605 45763 moveto
64101 45258 lineto
stroke
66033 45510 252.085 cir0
newpath
65781 45763 moveto
66285 45258 lineto
66285 45763 moveto
65781 45258 lineto
stroke
67714 45510 252.085 cir0
newpath
67462 45763 moveto
67966 45258 lineto
67966 45763 moveto
67462 45258 lineto
stroke
72756 45510 252.085 cir0
newpath
72503 45763 moveto
73008 45258 lineto
73008 45763 moveto
72503 45258 lineto
stroke
74436 45510 252.085 cir0
newpath
74184 45763 moveto
74688 45258 lineto
74688 45763 moveto
74184 45258 lineto
stroke
76117 45510 252.085 cir0
newpath
75865 45763 moveto
76369 45258 lineto
76369 45763 moveto
75865 45258 lineto
stroke
81158 45510 252.085 cir0
newpath
80906 45763 moveto
81410 45258 lineto
81410 45763 moveto
80906 45258 lineto
stroke
82839 45510 252.085 cir0
newpath
82587 45763 moveto
83091 45258 lineto
83091 45763 moveto
82587 45258 lineto
stroke
84520 45510 252.085 cir0
newpath
84267 45763 moveto
84772 45258 lineto
84772 45763 moveto
84267 45258 lineto
stroke
89561 45510 252.085 cir0
newpath
89309 45763 moveto
89813 45258 lineto
89813 45763 moveto
89309 45258 lineto
stroke
91242 45510 252.085 cir0
newpath
90990 45763 moveto
91494 45258 lineto
91494 45763 moveto
90990 45258 lineto
stroke
92922 45510 252.085 cir0
newpath
92670 45763 moveto
93174 45258 lineto
93174 45763 moveto
92670 45258 lineto
stroke
32422 54501 281.075 cir0
newpath
32141 54501 moveto
32703 54501 lineto
stroke
34439 49796 281.075 cir0
newpath
34158 49796 moveto
34719 49796 lineto
stroke
40825 54501 281.075 cir0
newpath
40544 54501 moveto
41105 54501 lineto
stroke
42841 49796 281.075 cir0
newpath
42561 49796 moveto
43122 49796 lineto
stroke
49228 54501 281.075 cir0
newpath
48947 54501 moveto
49508 54501 lineto
stroke
51244 49796 281.075 cir0
newpath
50964 49796 moveto
51525 49796 lineto
stroke
57630 54501 281.075 cir0
newpath
57350 54501 moveto
57911 54501 lineto
stroke
59647 49796 281.075 cir0
newpath
59366 49796 moveto
59928 49796 lineto
stroke
66033 54501 281.075 cir0
newpath
65753 54501 moveto
66314 54501 lineto
stroke
68050 49796 281.075 cir0
newpath
67769 49796 moveto
68331 49796 lineto
stroke
74436 54501 281.075 cir0
newpath
74155 54501 moveto
74717 54501 lineto
stroke
76453 49796 281.075 cir0
newpath
76172 49796 moveto
76733 49796 lineto
stroke
82839 54501 281.075 cir0
newpath
82558 54501 moveto
83120 54501 lineto
stroke
84856 49796 281.075 cir0
newpath
84575 49796 moveto
85136 49796 lineto
stroke
91242 54501 281.075 cir0
newpath
90961 54501 moveto
91522 54501 lineto
stroke
93258 49796 281.075 cir0
newpath
92978 49796 moveto
93539 49796 lineto
stroke
30405 49796 281.495 cir0
newpath
30405 50077 moveto
30405 49514 lineto
stroke
38808 49796 281.495 cir0
newpath
38808 50077 moveto
38808 49514 lineto
stroke
47211 49796 281.495 cir0
newpath
47211 50077 moveto
47211 49514 lineto
stroke
55614 49796 281.495 cir0
newpath
55614 50077 moveto
55614 49514 lineto
stroke
64017 49796 281.495 cir0
newpath
64017 50077 moveto
64017 49514 lineto
stroke
72419 49796 281.495 cir0
newpath
72419 50077 moveto
72419 49514 lineto
stroke
80822 49796 281.495 cir0
newpath
80822 50077 moveto
80822 49514 lineto
stroke
89225 49796 281.495 cir0
newpath
89225 50077 moveto
89225 49514 lineto
stroke
79.827 setlinewidth
0 0 0 setrgbcolor
newpath
18878 24013 moveto
18878 24813 lineto
19068 24813 lineto
19182 24775 lineto
19259 24699 lineto
19297 24623 lineto
19335 24471 lineto
19335 24356 lineto
19297 24203 lineto
19259 24128 lineto
19182 24051 lineto
19068 24013 lineto
18878 24013 lineto
stroke
newpath
19678 24013 moveto
19678 24546 lineto
stroke
newpath
19678 24394 moveto
19716 24471 lineto
19754 24508 lineto
19830 24546 lineto
19907 24546 lineto
stroke
newpath
20173 24013 moveto
20173 24546 lineto
stroke
newpath
20173 24813 moveto
20134 24775 lineto
20173 24737 lineto
20211 24775 lineto
20173 24813 lineto
20173 24737 lineto
stroke
newpath
20668 24013 moveto
20592 24051 lineto
20554 24128 lineto
20554 24813 lineto
stroke
newpath
21087 24013 moveto
21011 24051 lineto
20973 24128 lineto
20973 24813 lineto
stroke
newpath
22002 24013 moveto
22002 24813 lineto
22268 24242 lineto
22534 24813 lineto
22534 24013 lineto
stroke
newpath
23259 24013 moveto
23259 24432 lineto
23220 24508 lineto
23144 24546 lineto
22991 24546 lineto
22916 24508 lineto
stroke
newpath
23259 24051 moveto
23182 24013 lineto
22991 24013 lineto
22916 24051 lineto
22877 24128 lineto
22877 24203 lineto
22916 24280 lineto
22991 24318 lineto
23182 24318 lineto
23259 24356 lineto
stroke
newpath
23639 24546 moveto
23639 23746 lineto
stroke
newpath
23639 24508 moveto
23715 24546 lineto
23868 24546 lineto
23943 24508 lineto
23982 24471 lineto
24020 24394 lineto
24020 24166 lineto
23982 24089 lineto
23943 24051 lineto
23868 24013 lineto
23715 24013 lineto
23639 24051 lineto
stroke
newpath
24363 24089 moveto
24401 24051 lineto
24363 24013 lineto
24324 24051 lineto
24363 24089 lineto
24363 24013 lineto
stroke
newpath
24363 24508 moveto
24401 24471 lineto
24363 24432 lineto
24324 24471 lineto
24363 24508 lineto
24363 24432 lineto
stroke
newpath
18322 22740 moveto
18487 22575 lineto
18487 22740 moveto
18322 22575 lineto
stroke
0 0 0 setrgbcolor
newpath
19030 23134 moveto
19107 23134 lineto
19182 23095 lineto
19221 23057 lineto
19259 22981 lineto
19297 22829 lineto
19297 22638 lineto
19259 22486 lineto
19221 22409 lineto
19182 22372 lineto
19107 22334 lineto
19030 22334 lineto
18954 22372 lineto
18916 22409 lineto
18878 22486 lineto
18840 22638 lineto
18840 22829 lineto
18878 22981 lineto
18916 23057 lineto
18954 23095 lineto
19030 23134 lineto
stroke
newpath
19640 22409 moveto
19678 22372 lineto
19640 22334 lineto
19602 22372 lineto
19640 22409 lineto
19640 22334 lineto
stroke
newpath
20402 23134 moveto
20021 23134 lineto
19982 22752 lineto
20021 22791 lineto
20097 22829 lineto
20287 22829 lineto
20364 22791 lineto
20402 22752 lineto
20439 22677 lineto
20439 22486 lineto
20402 22409 lineto
20364 22372 lineto
20287 22334 lineto
20097 22334 lineto
20021 22372 lineto
19982 22409 lineto
stroke
newpath
20935 23134 moveto
21012 23134 lineto
21087 23095 lineto
21126 23057 lineto
21164 22981 lineto
21202 22829 lineto
21202 22638 lineto
21164 22486 lineto
21126 22409 lineto
21087 22372 lineto
21012 22334 lineto
20935 22334 lineto
20859 22372 lineto
20821 22409 lineto
20783 22486 lineto
20744 22638 lineto
20744 22829 lineto
20783 22981 lineto
20821 23057 lineto
20859 23095 lineto
20935 23134 lineto
stroke
newpath
21545 22334 moveto
21545 22866 lineto
stroke
newpath
21545 22791 moveto
21583 22829 lineto
21660 22866 lineto
21774 22866 lineto
21849 22829 lineto
21888 22752 lineto
21888 22334 lineto
stroke
newpath
21888 22752 moveto
21926 22829 lineto
22002 22866 lineto
22117 22866 lineto
22192 22829 lineto
22231 22752 lineto
22231 22334 lineto
stroke
newpath
22612 22334 moveto
22612 22866 lineto
stroke
newpath
22612 22791 moveto
22649 22829 lineto
22726 22866 lineto
22840 22866 lineto
22916 22829 lineto
22954 22752 lineto
22954 22334 lineto
stroke
newpath
22954 22752 moveto
22992 22829 lineto
23069 22866 lineto
23183 22866 lineto
23259 22829 lineto
23297 22752 lineto
23297 22334 lineto
stroke
newpath
24858 23171 moveto
24173 22143 lineto
stroke
newpath
25886 23134 moveto
25963 23134 lineto
26038 23095 lineto
26077 23057 lineto
26115 22981 lineto
26153 22829 lineto
26153 22638 lineto
26115 22486 lineto
26077 22409 lineto
26038 22372 lineto
25963 22334 lineto
25886 22334 lineto
25810 22372 lineto
25772 22409 lineto
25734 22486 lineto
25695 22638 lineto
25695 22829 lineto
25734 22981 lineto
25772 23057 lineto
25810 23095 lineto
25886 23134 lineto
stroke
newpath
26496 22409 moveto
26534 22372 lineto
26496 22334 lineto
26458 22372 lineto
26496 22409 lineto
26496 22334 lineto
stroke
newpath
27029 23134 moveto
27105 23134 lineto
27181 23095 lineto
27220 23057 lineto
27257 22981 lineto
27295 22829 lineto
27295 22638 lineto
27257 22486 lineto
27220 22409 lineto
27181 22372 lineto
27105 22334 lineto
27029 22334 lineto
26952 22372 lineto
26915 22409 lineto
26877 22486 lineto
26838 22638 lineto
26838 22829 lineto
26877 22981 lineto
26915 23057 lineto
26952 23095 lineto
27029 23134 lineto
stroke
newpath
27600 23057 moveto
27639 23095 lineto
27715 23134 lineto
27905 23134 lineto
27982 23095 lineto
28020 23057 lineto
28057 22981 lineto
28057 22905 lineto
28020 22791 lineto
27563 22334 lineto
28057 22334 lineto
stroke
newpath
28553 23134 moveto
28630 23134 lineto
28705 23095 lineto
28744 23057 lineto
28782 22981 lineto
28820 22829 lineto
28820 22638 lineto
28782 22486 lineto
28744 22409 lineto
28705 22372 lineto
28630 22334 lineto
28553 22334 lineto
28477 22372 lineto
28439 22409 lineto
28401 22486 lineto
28362 22638 lineto
28362 22829 lineto
28401 22981 lineto
28439 23057 lineto
28477 23095 lineto
28553 23134 lineto
stroke
newpath
29125 23134 moveto
29125 22981 lineto
stroke
newpath
29430 23134 moveto
29430 22981 lineto
stroke
newpath
30610 22029 moveto
30572 22066 lineto
30496 22181 lineto
30457 22257 lineto
30419 22372 lineto
30382 22562 lineto
30382 22714 lineto
30419 22905 lineto
30457 23019 lineto
30496 23095 lineto
30572 23209 lineto
30610 23248 lineto
stroke
newpath
31334 22334 moveto
30877 22334 lineto
stroke
newpath
31105 22334 moveto
31105 23134 lineto
31030 23019 lineto
30953 22943 lineto
30877 22905 lineto
stroke
newpath
32020 23134 moveto
31867 23134 lineto
31792 23095 lineto
31753 23057 lineto
31677 22943 lineto
31639 22791 lineto
31639 22486 lineto
31677 22409 lineto
31715 22372 lineto
31792 22334 lineto
31944 22334 lineto
32020 22372 lineto
32058 22409 lineto
32096 22486 lineto
32096 22677 lineto
32058 22752 lineto
32020 22791 lineto
31944 22829 lineto
31792 22829 lineto
31715 22791 lineto
31677 22752 lineto
31639 22677 lineto
stroke
newpath
33049 22334 moveto
33049 23134 lineto
stroke
newpath
33392 22334 moveto
33392 22752 lineto
33353 22829 lineto
33277 22866 lineto
33163 22866 lineto
33087 22829 lineto
33049 22791 lineto
stroke
newpath
33886 22334 moveto
33810 22372 lineto
33772 22409 lineto
33734 22486 lineto
33734 22714 lineto
33772 22791 lineto
33810 22829 lineto
33886 22866 lineto
34001 22866 lineto
34076 22829 lineto
34115 22791 lineto
34153 22714 lineto
34153 22486 lineto
34115 22409 lineto
34076 22372 lineto
34001 22334 lineto
33886 22334 lineto
stroke
newpath
34610 22334 moveto
34534 22372 lineto
34496 22448 lineto
34496 23134 lineto
stroke
newpath
35219 22372 moveto
35144 22334 lineto
34991 22334 lineto
34915 22372 lineto
34876 22448 lineto
34876 22752 lineto
34915 22829 lineto
34991 22866 lineto
35144 22866 lineto
35219 22829 lineto
35258 22752 lineto
35258 22677 lineto
34876 22600 lineto
stroke
newpath
35562 22372 moveto
35638 22334 lineto
35791 22334 lineto
35867 22372 lineto
35905 22448 lineto
35905 22486 lineto
35867 22562 lineto
35791 22600 lineto
35676 22600 lineto
35601 22638 lineto
35562 22714 lineto
35562 22752 lineto
35601 22829 lineto
35676 22866 lineto
35791 22866 lineto
35867 22829 lineto
stroke
newpath
36172 22029 moveto
36210 22066 lineto
36286 22181 lineto
36324 22257 lineto
36363 22372 lineto
36401 22562 lineto
36401 22714 lineto
36363 22905 lineto
36324 23019 lineto
36286 23095 lineto
36210 23209 lineto
36172 23248 lineto
stroke
8.40285 setlinewidth
18356 21602 130.244 cir0
79.827 setlinewidth
0 0 0 setrgbcolor
newpath
19030 22078 moveto
19107 22078 lineto
19182 22040 lineto
19221 22002 lineto
19259 21925 lineto
19297 21773 lineto
19297 21582 lineto
19259 21430 lineto
19221 21354 lineto
19182 21316 lineto
19107 21278 lineto
19030 21278 lineto
18954 21316 lineto
18916 21354 lineto
18878 21430 lineto
18840 21582 lineto
18840 21773 lineto
18878 21925 lineto
18916 22002 lineto
18954 22040 lineto
19030 22078 lineto
stroke
newpath
19640 21354 moveto
19678 21316 lineto
19640 21278 lineto
19602 21316 lineto
19640 21354 lineto
19640 21278 lineto
stroke
newpath
19944 22078 moveto
20478 22078 lineto
20135 21278 lineto
stroke
newpath
20821 21278 moveto
20973 21278 lineto
21049 21316 lineto
21087 21354 lineto
21164 21468 lineto
21202 21621 lineto
21202 21925 lineto
21164 22002 lineto
21126 22040 lineto
21049 22078 lineto
20897 22078 lineto
20821 22040 lineto
20783 22002 lineto
20744 21925 lineto
20744 21735 lineto
20783 21659 lineto
20821 21621 lineto
20897 21582 lineto
21049 21582 lineto
21126 21621 lineto
21164 21659 lineto
21202 21735 lineto
stroke
newpath
21545 21278 moveto
21545 21811 lineto
stroke
newpath
21545 21735 moveto
21583 21773 lineto
21660 21811 lineto
21774 21811 lineto
21849 21773 lineto
21888 21697 lineto
21888 21278 lineto
stroke
newpath
21888 21697 moveto
21926 21773 lineto
22002 21811 lineto
22117 21811 lineto
22192 21773 lineto
22231 21697 lineto
22231 21278 lineto
stroke
newpath
22612 21278 moveto
22612 21811 lineto
stroke
newpath
22612 21735 moveto
22649 21773 lineto
22726 21811 lineto
22840 21811 lineto
22916 21773 lineto
22954 21697 lineto
22954 21278 lineto
stroke
newpath
22954 21697 moveto
22992 21773 lineto
23069 21811 lineto
23183 21811 lineto
23259 21773 lineto
23297 21697 lineto
23297 21278 lineto
stroke
newpath
24858 22116 moveto
24173 21088 lineto
stroke
newpath
25886 22078 moveto
25963 22078 lineto
26038 22040 lineto
26077 22002 lineto
26115 21925 lineto
26153 21773 lineto
26153 21582 lineto
26115 21430 lineto
26077 21354 lineto
26038 21316 lineto
25963 21278 lineto
25886 21278 lineto
25810 21316 lineto
25772 21354 lineto
25734 21430 lineto
25695 21582 lineto
25695 21773 lineto
25734 21925 lineto
25772 22002 lineto
25810 22040 lineto
25886 22078 lineto
stroke
newpath
26496 21354 moveto
26534 21316 lineto
26496 21278 lineto
26458 21316 lineto
26496 21354 lineto
26496 21278 lineto
stroke
newpath
27029 22078 moveto
27105 22078 lineto
27181 22040 lineto
27220 22002 lineto
27257 21925 lineto
27295 21773 lineto
27295 21582 lineto
27257 21430 lineto
27220 21354 lineto
27181 21316 lineto
27105 21278 lineto
27029 21278 lineto
26952 21316 lineto
26915 21354 lineto
26877 21430 lineto
26838 21582 lineto
26838 21773 lineto
26877 21925 lineto
26915 22002 lineto
26952 22040 lineto
27029 22078 lineto
stroke
newpath
27563 22078 moveto
28057 22078 lineto
27791 21773 lineto
27905 21773 lineto
27982 21735 lineto
28020 21697 lineto
28057 21621 lineto
28057 21430 lineto
28020 21354 lineto
27982 21316 lineto
27905 21278 lineto
27677 21278 lineto
27600 21316 lineto
27563 21354 lineto
stroke
newpath
28820 21278 moveto
28362 21278 lineto
stroke
newpath
28591 21278 moveto
28591 22078 lineto
28515 21964 lineto
28439 21888 lineto
28362 21850 lineto
stroke
newpath
29125 22078 moveto
29125 21925 lineto
stroke
newpath
29430 22078 moveto
29430 21925 lineto
stroke
newpath
30610 20973 moveto
30572 21011 lineto
30496 21125 lineto
30457 21202 lineto
30419 21316 lineto
30382 21507 lineto
30382 21659 lineto
30419 21850 lineto
30457 21964 lineto
30496 22040 lineto
30572 22154 lineto
30610 22193 lineto
stroke
newpath
30877 22002 moveto
30915 22040 lineto
30991 22078 lineto
31182 22078 lineto
31258 22040 lineto
31296 22002 lineto
31334 21925 lineto
31334 21850 lineto
31296 21735 lineto
30839 21278 lineto
31334 21278 lineto
stroke
newpath
32020 21811 moveto
32020 21278 lineto
stroke
newpath
31829 22116 moveto
31639 21545 lineto
32135 21545 lineto
stroke
newpath
33049 21278 moveto
33049 22078 lineto
stroke
newpath
33392 21278 moveto
33392 21697 lineto
33353 21773 lineto
33277 21811 lineto
33163 21811 lineto
33087 21773 lineto
33049 21735 lineto
stroke
newpath
33886 21278 moveto
33810 21316 lineto
33772 21354 lineto
33734 21430 lineto
33734 21659 lineto
33772 21735 lineto
33810 21773 lineto
33886 21811 lineto
34001 21811 lineto
34076 21773 lineto
34115 21735 lineto
34153 21659 lineto
34153 21430 lineto
34115 21354 lineto
34076 21316 lineto
34001 21278 lineto
33886 21278 lineto
stroke
newpath
34610 21278 moveto
34534 21316 lineto
34496 21393 lineto
34496 22078 lineto
stroke
newpath
35219 21316 moveto
35144 21278 lineto
34991 21278 lineto
34915 21316 lineto
34876 21393 lineto
34876 21697 lineto
34915 21773 lineto
34991 21811 lineto
35144 21811 lineto
35219 21773 lineto
35258 21697 lineto
35258 21621 lineto
34876 21545 lineto
stroke
newpath
35562 21316 moveto
35638 21278 lineto
35791 21278 lineto
35867 21316 lineto
35905 21393 lineto
35905 21430 lineto
35867 21507 lineto
35791 21545 lineto
35676 21545 lineto
35601 21582 lineto
35562 21659 lineto
35562 21697 lineto
35601 21773 lineto
35676 21811 lineto
35791 21811 lineto
35867 21773 lineto
stroke
newpath
36172 20973 moveto
36210 21011 lineto
36286 21125 lineto
36324 21202 lineto
36363 21316 lineto
36401 21507 lineto
36401 21659 lineto
36363 21850 lineto
36324 21964 lineto
36286 22040 lineto
36210 22154 lineto
36172 22193 lineto
stroke
newpath
18352 20681 moveto
18352 20412 lineto
18487 20546 moveto
18218 20546 lineto
stroke
0 0 0 setrgbcolor
newpath
19030 21023 moveto
19107 21023 lineto
19182 20984 lineto
19221 20946 lineto
19259 20870 lineto
19297 20718 lineto
19297 20527 lineto
19259 20375 lineto
19221 20299 lineto
19182 20261 lineto
19107 20223 lineto
19030 20223 lineto
18954 20261 lineto
18916 20299 lineto
18878 20375 lineto
18840 20527 lineto
18840 20718 lineto
18878 20870 lineto
18916 20946 lineto
18954 20984 lineto
19030 21023 lineto
stroke
newpath
19640 20299 moveto
19678 20261 lineto
19640 20223 lineto
19602 20261 lineto
19640 20299 lineto
19640 20223 lineto
stroke
newpath
20135 20680 moveto
20059 20718 lineto
20021 20756 lineto
19982 20832 lineto
19982 20870 lineto
20021 20946 lineto
20059 20984 lineto
20135 21023 lineto
20287 21023 lineto
20364 20984 lineto
20402 20946 lineto
20439 20870 lineto
20439 20832 lineto
20402 20756 lineto
20364 20718 lineto
20287 20680 lineto
20135 20680 lineto
20059 20641 lineto
20021 20604 lineto
19982 20527 lineto
19982 20375 lineto
20021 20299 lineto
20059 20261 lineto
20135 20223 lineto
20287 20223 lineto
20364 20261 lineto
20402 20299 lineto
20439 20375 lineto
20439 20527 lineto
20402 20604 lineto
20364 20641 lineto
20287 20680 lineto
stroke
newpath
21202 20223 moveto
20744 20223 lineto
stroke
newpath
20973 20223 moveto
20973 21023 lineto
20897 20909 lineto
20821 20832 lineto
20744 20794 lineto
stroke
newpath
21545 20223 moveto
21545 20756 lineto
stroke
newpath
21545 20680 moveto
21583 20718 lineto
21660 20756 lineto
21774 20756 lineto
21849 20718 lineto
21888 20641 lineto
21888 20223 lineto
stroke
newpath
21888 20641 moveto
21926 20718 lineto
22002 20756 lineto
22117 20756 lineto
22192 20718 lineto
22231 20641 lineto
22231 20223 lineto
stroke
newpath
22612 20223 moveto
22612 20756 lineto
stroke
newpath
22612 20680 moveto
22649 20718 lineto
22726 20756 lineto
22840 20756 lineto
22916 20718 lineto
22954 20641 lineto
22954 20223 lineto
stroke
newpath
22954 20641 moveto
22992 20718 lineto
23069 20756 lineto
23183 20756 lineto
23259 20718 lineto
23297 20641 lineto
23297 20223 lineto
stroke
newpath
24858 21061 moveto
24173 20032 lineto
stroke
newpath
25886 21023 moveto
25963 21023 lineto
26038 20984 lineto
26077 20946 lineto
26115 20870 lineto
26153 20718 lineto
26153 20527 lineto
26115 20375 lineto
26077 20299 lineto
26038 20261 lineto
25963 20223 lineto
25886 20223 lineto
25810 20261 lineto
25772 20299 lineto
25734 20375 lineto
25695 20527 lineto
25695 20718 lineto
25734 20870 lineto
25772 20946 lineto
25810 20984 lineto
25886 21023 lineto
stroke
newpath
26496 20299 moveto
26534 20261 lineto
26496 20223 lineto
26458 20261 lineto
26496 20299 lineto
26496 20223 lineto
stroke
newpath
27029 21023 moveto
27105 21023 lineto
27181 20984 lineto
27220 20946 lineto
27257 20870 lineto
27295 20718 lineto
27295 20527 lineto
27257 20375 lineto
27220 20299 lineto
27181 20261 lineto
27105 20223 lineto
27029 20223 lineto
26952 20261 lineto
26915 20299 lineto
26877 20375 lineto
26838 20527 lineto
26838 20718 lineto
26877 20870 lineto
26915 20946 lineto
26952 20984 lineto
27029 21023 lineto
stroke
newpath
27563 21023 moveto
28057 21023 lineto
27791 20718 lineto
27905 20718 lineto
27982 20680 lineto
28020 20641 lineto
28057 20566 lineto
28057 20375 lineto
28020 20299 lineto
27982 20261 lineto
27905 20223 lineto
27677 20223 lineto
27600 20261 lineto
27563 20299 lineto
stroke
newpath
28362 20946 moveto
28401 20984 lineto
28477 21023 lineto
28667 21023 lineto
28744 20984 lineto
28782 20946 lineto
28820 20870 lineto
28820 20794 lineto
28782 20680 lineto
28325 20223 lineto
28820 20223 lineto
stroke
newpath
29125 21023 moveto
29125 20870 lineto
stroke
newpath
29430 21023 moveto
29430 20870 lineto
stroke
newpath
30610 19918 moveto
30572 19956 lineto
30496 20070 lineto
30457 20146 lineto
30419 20261 lineto
30382 20451 lineto
30382 20604 lineto
30419 20794 lineto
30457 20909 lineto
30496 20984 lineto
30572 21098 lineto
30610 21137 lineto
stroke
newpath
31334 20223 moveto
30877 20223 lineto
stroke
newpath
31105 20223 moveto
31105 21023 lineto
31030 20909 lineto
30953 20832 lineto
30877 20794 lineto
stroke
newpath
32020 20756 moveto
32020 20223 lineto
stroke
newpath
31829 21061 moveto
31639 20489 lineto
32135 20489 lineto
stroke
newpath
32782 20756 moveto
32782 20223 lineto
stroke
newpath
32592 21061 moveto
32401 20489 lineto
32897 20489 lineto
stroke
newpath
33811 20223 moveto
33811 21023 lineto
stroke
newpath
34154 20223 moveto
34154 20641 lineto
34115 20718 lineto
34039 20756 lineto
33925 20756 lineto
33849 20718 lineto
33811 20680 lineto
stroke
newpath
34649 20223 moveto
34572 20261 lineto
34534 20299 lineto
34496 20375 lineto
34496 20604 lineto
34534 20680 lineto
34572 20718 lineto
34649 20756 lineto
34763 20756 lineto
34839 20718 lineto
34877 20680 lineto
34915 20604 lineto
34915 20375 lineto
34877 20299 lineto
34839 20261 lineto
34763 20223 lineto
34649 20223 lineto
stroke
newpath
35372 20223 moveto
35296 20261 lineto
35258 20337 lineto
35258 21023 lineto
stroke
newpath
35981 20261 moveto
35906 20223 lineto
35753 20223 lineto
35677 20261 lineto
35638 20337 lineto
35638 20641 lineto
35677 20718 lineto
35753 20756 lineto
35906 20756 lineto
35981 20718 lineto
36020 20641 lineto
36020 20566 lineto
35638 20489 lineto
stroke
newpath
36324 20261 moveto
36401 20223 lineto
36553 20223 lineto
36629 20261 lineto
36667 20337 lineto
36667 20375 lineto
36629 20451 lineto
36553 20489 lineto
36438 20489 lineto
36363 20527 lineto
36324 20604 lineto
36324 20641 lineto
36363 20718 lineto
36438 20756 lineto
36553 20756 lineto
36629 20718 lineto
stroke
newpath
36934 19918 moveto
36972 19956 lineto
37048 20070 lineto
37086 20146 lineto
37125 20261 lineto
37163 20451 lineto
37163 20604 lineto
37125 20794 lineto
37086 20909 lineto
37048 20984 lineto
36972 21098 lineto
36934 21137 lineto
stroke
8.40285 setlinewidth
18235 19491 252.085 cir0
newpath
17982 19743 moveto
18487 19239 lineto
18487 19743 moveto
17982 19239 lineto
stroke
79.827 setlinewidth
0 0 0 setrgbcolor
newpath
19297 19168 moveto
18840 19168 lineto
stroke
newpath
19068 19168 moveto
19068 19967 lineto
18992 19853 lineto
18916 19777 lineto
18840 19739 lineto
stroke
newpath
19640 19243 moveto
19678 19205 lineto
19640 19168 lineto
19602 19205 lineto
19640 19243 lineto
19640 19168 lineto
stroke
newpath
20402 19967 moveto
20021 19967 lineto
19982 19586 lineto
20021 19625 lineto
20097 19662 lineto
20287 19662 lineto
20364 19625 lineto
20402 19586 lineto
20439 19510 lineto
20439 19320 lineto
20402 19243 lineto
20364 19205 lineto
20287 19168 lineto
20097 19168 lineto
20021 19205 lineto
19982 19243 lineto
stroke
newpath
20744 19891 moveto
20783 19929 lineto
20859 19967 lineto
21049 19967 lineto
21126 19929 lineto
21164 19891 lineto
21202 19815 lineto
21202 19739 lineto
21164 19625 lineto
20707 19168 lineto
21202 19168 lineto
stroke
newpath
21545 19168 moveto
21545 19700 lineto
stroke
newpath
21545 19625 moveto
21583 19662 lineto
21660 19700 lineto
21774 19700 lineto
21849 19662 lineto
21888 19586 lineto
21888 19168 lineto
stroke
newpath
21888 19586 moveto
21926 19662 lineto
22002 19700 lineto
22117 19700 lineto
22192 19662 lineto
22231 19586 lineto
22231 19168 lineto
stroke
newpath
22612 19168 moveto
22612 19700 lineto
stroke
newpath
22612 19625 moveto
22649 19662 lineto
22726 19700 lineto
22840 19700 lineto
22916 19662 lineto
22954 19586 lineto
22954 19168 lineto
stroke
newpath
22954 19586 moveto
22992 19662 lineto
23069 19700 lineto
23183 19700 lineto
23259 19662 lineto
23297 19586 lineto
23297 19168 lineto
stroke
newpath
24858 20005 moveto
24173 18977 lineto
stroke
newpath
25886 19967 moveto
25963 19967 lineto
26038 19929 lineto
26077 19891 lineto
26115 19815 lineto
26153 19662 lineto
26153 19472 lineto
26115 19320 lineto
26077 19243 lineto
26038 19205 lineto
25963 19168 lineto
25886 19168 lineto
25810 19205 lineto
25772 19243 lineto
25734 19320 lineto
25695 19472 lineto
25695 19662 lineto
25734 19815 lineto
25772 19891 lineto
25810 19929 lineto
25886 19967 lineto
stroke
newpath
26496 19243 moveto
26534 19205 lineto
26496 19168 lineto
26458 19205 lineto
26496 19243 lineto
26496 19168 lineto
stroke
newpath
27029 19967 moveto
27105 19967 lineto
27181 19929 lineto
27220 19891 lineto
27257 19815 lineto
27295 19662 lineto
27295 19472 lineto
27257 19320 lineto
27220 19243 lineto
27181 19205 lineto
27105 19168 lineto
27029 19168 lineto
26952 19205 lineto
26915 19243 lineto
26877 19320 lineto
26838 19472 lineto
26838 19662 lineto
26877 19815 lineto
26915 19891 lineto
26952 19929 lineto
27029 19967 lineto
stroke
newpath
27982 19967 moveto
27829 19967 lineto
27753 19929 lineto
27715 19891 lineto
27639 19777 lineto
27600 19625 lineto
27600 19320 lineto
27639 19243 lineto
27677 19205 lineto
27753 19168 lineto
27905 19168 lineto
27982 19205 lineto
28020 19243 lineto
28057 19320 lineto
28057 19510 lineto
28020 19586 lineto
27982 19625 lineto
27905 19662 lineto
27753 19662 lineto
27677 19625 lineto
27639 19586 lineto
27600 19510 lineto
stroke
newpath
28553 19967 moveto
28630 19967 lineto
28705 19929 lineto
28744 19891 lineto
28782 19815 lineto
28820 19662 lineto
28820 19472 lineto
28782 19320 lineto
28744 19243 lineto
28705 19205 lineto
28630 19168 lineto
28553 19168 lineto
28477 19205 lineto
28439 19243 lineto
28401 19320 lineto
28362 19472 lineto
28362 19662 lineto
28401 19815 lineto
28439 19891 lineto
28477 19929 lineto
28553 19967 lineto
stroke
newpath
29125 19967 moveto
29125 19815 lineto
stroke
newpath
29430 19967 moveto
29430 19815 lineto
stroke
newpath
30610 18862 moveto
30572 18900 lineto
30496 19015 lineto
30457 19091 lineto
30419 19205 lineto
30382 19396 lineto
30382 19548 lineto
30419 19739 lineto
30457 19853 lineto
30496 19929 lineto
30572 20043 lineto
30610 20082 lineto
stroke
newpath
30877 19891 moveto
30915 19929 lineto
30991 19967 lineto
31182 19967 lineto
31258 19929 lineto
31296 19891 lineto
31334 19815 lineto
31334 19739 lineto
31296 19625 lineto
30839 19168 lineto
31334 19168 lineto
stroke
newpath
31601 19967 moveto
32135 19967 lineto
31792 19168 lineto
stroke
newpath
33049 19168 moveto
33049 19967 lineto
stroke
newpath
33392 19168 moveto
33392 19586 lineto
33353 19662 lineto
33277 19700 lineto
33163 19700 lineto
33087 19662 lineto
33049 19625 lineto
stroke
newpath
33886 19168 moveto
33810 19205 lineto
33772 19243 lineto
33734 19320 lineto
33734 19548 lineto
33772 19625 lineto
33810 19662 lineto
33886 19700 lineto
34001 19700 lineto
34076 19662 lineto
34115 19625 lineto
34153 19548 lineto
34153 19320 lineto
34115 19243 lineto
34076 19205 lineto
34001 19168 lineto
33886 19168 lineto
stroke
newpath
34610 19168 moveto
34534 19205 lineto
34496 19282 lineto
34496 19967 lineto
stroke
newpath
35219 19205 moveto
35144 19168 lineto
34991 19168 lineto
34915 19205 lineto
34876 19282 lineto
34876 19586 lineto
34915 19662 lineto
34991 19700 lineto
35144 19700 lineto
35219 19662 lineto
35258 19586 lineto
35258 19510 lineto
34876 19434 lineto
stroke
newpath
35562 19205 moveto
35638 19168 lineto
35791 19168 lineto
35867 19205 lineto
35905 19282 lineto
35905 19320 lineto
35867 19396 lineto
35791 19434 lineto
35676 19434 lineto
35601 19472 lineto
35562 19548 lineto
35562 19586 lineto
35601 19662 lineto
35676 19700 lineto
35791 19700 lineto
35867 19662 lineto
stroke
newpath
36172 18862 moveto
36210 18900 lineto
36286 19015 lineto
36324 19091 lineto
36363 19205 lineto
36401 19396 lineto
36401 19548 lineto
36363 19739 lineto
36324 19853 lineto
36286 19929 lineto
36210 20043 lineto
36172 20082 lineto
stroke
8.40285 setlinewidth
18206 18436 281.075 cir0
newpath
17925 18436 moveto
18487 18436 lineto
stroke
79.827 setlinewidth
0 0 0 setrgbcolor
newpath
19297 18112 moveto
18840 18112 lineto
stroke
newpath
19068 18112 moveto
19068 18912 lineto
18992 18798 lineto
18916 18721 lineto
18840 18684 lineto
stroke
newpath
19640 18188 moveto
19678 18150 lineto
19640 18112 lineto
19602 18150 lineto
19640 18188 lineto
19640 18112 lineto
stroke
newpath
19944 18912 moveto
20478 18912 lineto
20135 18112 lineto
stroke
newpath
20935 18912 moveto
21012 18912 lineto
21087 18873 lineto
21126 18836 lineto
21164 18759 lineto
21202 18607 lineto
21202 18416 lineto
21164 18264 lineto
21126 18188 lineto
21087 18150 lineto
21012 18112 lineto
20935 18112 lineto
20859 18150 lineto
20821 18188 lineto
20783 18264 lineto
20744 18416 lineto
20744 18607 lineto
20783 18759 lineto
20821 18836 lineto
20859 18873 lineto
20935 18912 lineto
stroke
newpath
21545 18112 moveto
21545 18645 lineto
stroke
newpath
21545 18569 moveto
21583 18607 lineto
21660 18645 lineto
21774 18645 lineto
21849 18607 lineto
21888 18531 lineto
21888 18112 lineto
stroke
newpath
21888 18531 moveto
21926 18607 lineto
22002 18645 lineto
22117 18645 lineto
22192 18607 lineto
22231 18531 lineto
22231 18112 lineto
stroke
newpath
22612 18112 moveto
22612 18645 lineto
stroke
newpath
22612 18569 moveto
22649 18607 lineto
22726 18645 lineto
22840 18645 lineto
22916 18607 lineto
22954 18531 lineto
22954 18112 lineto
stroke
newpath
22954 18531 moveto
22992 18607 lineto
23069 18645 lineto
23183 18645 lineto
23259 18607 lineto
23297 18531 lineto
23297 18112 lineto
stroke
newpath
24858 18950 moveto
24173 17921 lineto
stroke
newpath
25886 18912 moveto
25963 18912 lineto
26038 18873 lineto
26077 18836 lineto
26115 18759 lineto
26153 18607 lineto
26153 18416 lineto
26115 18264 lineto
26077 18188 lineto
26038 18150 lineto
25963 18112 lineto
25886 18112 lineto
25810 18150 lineto
25772 18188 lineto
25734 18264 lineto
25695 18416 lineto
25695 18607 lineto
25734 18759 lineto
25772 18836 lineto
25810 18873 lineto
25886 18912 lineto
stroke
newpath
26496 18188 moveto
26534 18150 lineto
26496 18112 lineto
26458 18150 lineto
26496 18188 lineto
26496 18112 lineto
stroke
newpath
27029 18912 moveto
27105 18912 lineto
27181 18873 lineto
27220 18836 lineto
27257 18759 lineto
27295 18607 lineto
27295 18416 lineto
27257 18264 lineto
27220 18188 lineto
27181 18150 lineto
27105 18112 lineto
27029 18112 lineto
26952 18150 lineto
26915 18188 lineto
26877 18264 lineto
26838 18416 lineto
26838 18607 lineto
26877 18759 lineto
26915 18836 lineto
26952 18873 lineto
27029 18912 lineto
stroke
newpath
27982 18912 moveto
27829 18912 lineto
27753 18873 lineto
27715 18836 lineto
27639 18721 lineto
27600 18569 lineto
27600 18264 lineto
27639 18188 lineto
27677 18150 lineto
27753 18112 lineto
27905 18112 lineto
27982 18150 lineto
28020 18188 lineto
28057 18264 lineto
28057 18455 lineto
28020 18531 lineto
27982 18569 lineto
27905 18607 lineto
27753 18607 lineto
27677 18569 lineto
27639 18531 lineto
27600 18455 lineto
stroke
newpath
28325 18912 moveto
28858 18912 lineto
28515 18112 lineto
stroke
newpath
29125 18912 moveto
29125 18759 lineto
stroke
newpath
29430 18912 moveto
29430 18759 lineto
stroke
newpath
30610 17807 moveto
30572 17845 lineto
30496 17959 lineto
30457 18036 lineto
30419 18150 lineto
30382 18341 lineto
30382 18493 lineto
30419 18684 lineto
30457 18798 lineto
30496 18873 lineto
30572 18988 lineto
30610 19026 lineto
stroke
newpath
31334 18112 moveto
30877 18112 lineto
stroke
newpath
31105 18112 moveto
31105 18912 lineto
31030 18798 lineto
30953 18721 lineto
30877 18684 lineto
stroke
newpath
32020 18912 moveto
31867 18912 lineto
31792 18873 lineto
31753 18836 lineto
31677 18721 lineto
31639 18569 lineto
31639 18264 lineto
31677 18188 lineto
31715 18150 lineto
31792 18112 lineto
31944 18112 lineto
32020 18150 lineto
32058 18188 lineto
32096 18264 lineto
32096 18455 lineto
32058 18531 lineto
32020 18569 lineto
31944 18607 lineto
31792 18607 lineto
31715 18569 lineto
31677 18531 lineto
31639 18455 lineto
stroke
newpath
33049 18112 moveto
33049 18912 lineto
stroke
newpath
33392 18112 moveto
33392 18531 lineto
33353 18607 lineto
33277 18645 lineto
33163 18645 lineto
33087 18607 lineto
33049 18569 lineto
stroke
newpath
33886 18112 moveto
33810 18150 lineto
33772 18188 lineto
33734 18264 lineto
33734 18493 lineto
33772 18569 lineto
33810 18607 lineto
33886 18645 lineto
34001 18645 lineto
34076 18607 lineto
34115 18569 lineto
34153 18493 lineto
34153 18264 lineto
34115 18188 lineto
34076 18150 lineto
34001 18112 lineto
33886 18112 lineto
stroke
newpath
34610 18112 moveto
34534 18150 lineto
34496 18226 lineto
34496 18912 lineto
stroke
newpath
35219 18150 moveto
35144 18112 lineto
34991 18112 lineto
34915 18150 lineto
34876 18226 lineto
34876 18531 lineto
34915 18607 lineto
34991 18645 lineto
35144 18645 lineto
35219 18607 lineto
35258 18531 lineto
35258 18455 lineto
34876 18378 lineto
stroke
newpath
35562 18150 moveto
35638 18112 lineto
35791 18112 lineto
35867 18150 lineto
35905 18226 lineto
35905 18264 lineto
35867 18341 lineto
35791 18378 lineto
35676 18378 lineto
35601 18416 lineto
35562 18493 lineto
35562 18531 lineto
35601 18607 lineto
35676 18645 lineto
35791 18645 lineto
35867 18607 lineto
stroke
newpath
36172 17807 moveto
36210 17845 lineto
36286 17959 lineto
36324 18036 lineto
36363 18150 lineto
36401 18341 lineto
36401 18493 lineto
36363 18684 lineto
36324 18798 lineto
36286 18873 lineto
36210 18988 lineto
36172 19026 lineto
stroke
8.40285 setlinewidth
18205 17380 281.495 cir0
newpath
18205 17662 moveto
18205 17099 lineto
stroke
79.827 setlinewidth
0 0 0 setrgbcolor
newpath
19297 17057 moveto
18840 17057 lineto
stroke
newpath
19068 17057 moveto
19068 17857 lineto
18992 17742 lineto
18916 17666 lineto
18840 17628 lineto
stroke
newpath
19640 17132 moveto
19678 17095 lineto
19640 17057 lineto
19602 17095 lineto
19640 17132 lineto
19640 17057 lineto
stroke
newpath
19944 17857 moveto
20478 17857 lineto
20135 17057 lineto
stroke
newpath
20935 17857 moveto
21012 17857 lineto
21087 17818 lineto
21126 17780 lineto
21164 17704 lineto
21202 17552 lineto
21202 17361 lineto
21164 17209 lineto
21126 17132 lineto
21087 17095 lineto
21012 17057 lineto
20935 17057 lineto
20859 17095 lineto
20821 17132 lineto
20783 17209 lineto
20744 17361 lineto
20744 17552 lineto
20783 17704 lineto
20821 17780 lineto
20859 17818 lineto
20935 17857 lineto
stroke
newpath
21545 17057 moveto
21545 17589 lineto
stroke
newpath
21545 17514 moveto
21583 17552 lineto
21660 17589 lineto
21774 17589 lineto
21849 17552 lineto
21888 17475 lineto
21888 17057 lineto
stroke
newpath
21888 17475 moveto
21926 17552 lineto
22002 17589 lineto
22117 17589 lineto
22192 17552 lineto
22231 17475 lineto
22231 17057 lineto
stroke
newpath
22612 17057 moveto
22612 17589 lineto
stroke
newpath
22612 17514 moveto
22649 17552 lineto
22726 17589 lineto
22840 17589 lineto
22916 17552 lineto
22954 17475 lineto
22954 17057 lineto
stroke
newpath
22954 17475 moveto
22992 17552 lineto
23069 17589 lineto
23183 17589 lineto
23259 17552 lineto
23297 17475 lineto
23297 17057 lineto
stroke
newpath
24858 17894 moveto
24173 16866 lineto
stroke
newpath
25886 17857 moveto
25963 17857 lineto
26038 17818 lineto
26077 17780 lineto
26115 17704 lineto
26153 17552 lineto
26153 17361 lineto
26115 17209 lineto
26077 17132 lineto
26038 17095 lineto
25963 17057 lineto
25886 17057 lineto
25810 17095 lineto
25772 17132 lineto
25734 17209 lineto
25695 17361 lineto
25695 17552 lineto
25734 17704 lineto
25772 17780 lineto
25810 17818 lineto
25886 17857 lineto
stroke
newpath
26496 17132 moveto
26534 17095 lineto
26496 17057 lineto
26458 17095 lineto
26496 17132 lineto
26496 17057 lineto
stroke
newpath
27029 17857 moveto
27105 17857 lineto
27181 17818 lineto
27220 17780 lineto
27257 17704 lineto
27295 17552 lineto
27295 17361 lineto
27257 17209 lineto
27220 17132 lineto
27181 17095 lineto
27105 17057 lineto
27029 17057 lineto
26952 17095 lineto
26915 17132 lineto
26877 17209 lineto
26838 17361 lineto
26838 17552 lineto
26877 17704 lineto
26915 17780 lineto
26952 17818 lineto
27029 17857 lineto
stroke
newpath
27982 17857 moveto
27829 17857 lineto
27753 17818 lineto
27715 17780 lineto
27639 17666 lineto
27600 17514 lineto
27600 17209 lineto
27639 17132 lineto
27677 17095 lineto
27753 17057 lineto
27905 17057 lineto
27982 17095 lineto
28020 17132 lineto
28057 17209 lineto
28057 17400 lineto
28020 17475 lineto
27982 17514 lineto
27905 17552 lineto
27753 17552 lineto
27677 17514 lineto
27639 17475 lineto
27600 17400 lineto
stroke
newpath
28325 17857 moveto
28858 17857 lineto
28515 17057 lineto
stroke
newpath
29125 17857 moveto
29125 17704 lineto
stroke
newpath
29430 17857 moveto
29430 17704 lineto
stroke
newpath
30610 16752 moveto
30572 16790 lineto
30496 16904 lineto
30457 16980 lineto
30419 17095 lineto
30382 17285 lineto
30382 17437 lineto
30419 17628 lineto
30457 17742 lineto
30496 17818 lineto
30572 17932 lineto
30610 17971 lineto
stroke
newpath
31030 17514 moveto
30953 17552 lineto
30915 17589 lineto
30877 17666 lineto
30877 17704 lineto
30915 17780 lineto
30953 17818 lineto
31030 17857 lineto
31182 17857 lineto
31258 17818 lineto
31296 17780 lineto
31334 17704 lineto
31334 17666 lineto
31296 17589 lineto
31258 17552 lineto
31182 17514 lineto
31030 17514 lineto
30953 17475 lineto
30915 17437 lineto
30877 17361 lineto
30877 17209 lineto
30915 17132 lineto
30953 17095 lineto
31030 17057 lineto
31182 17057 lineto
31258 17095 lineto
31296 17132 lineto
31334 17209 lineto
31334 17361 lineto
31296 17437 lineto
31258 17475 lineto
31182 17514 lineto
stroke
newpath
32287 17057 moveto
32287 17857 lineto
stroke
newpath
32629 17057 moveto
32629 17475 lineto
32591 17552 lineto
32515 17589 lineto
32401 17589 lineto
32324 17552 lineto
32287 17514 lineto
stroke
newpath
33124 17057 moveto
33048 17095 lineto
33010 17132 lineto
32971 17209 lineto
32971 17437 lineto
33010 17514 lineto
33048 17552 lineto
33124 17589 lineto
33239 17589 lineto
33314 17552 lineto
33353 17514 lineto
33391 17437 lineto
33391 17209 lineto
33353 17132 lineto
33314 17095 lineto
33239 17057 lineto
33124 17057 lineto
stroke
newpath
33848 17057 moveto
33771 17095 lineto
33734 17171 lineto
33734 17857 lineto
stroke
newpath
34457 17095 moveto
34381 17057 lineto
34228 17057 lineto
34153 17095 lineto
34114 17171 lineto
34114 17475 lineto
34153 17552 lineto
34228 17589 lineto
34381 17589 lineto
34457 17552 lineto
34496 17475 lineto
34496 17400 lineto
34114 17323 lineto
stroke
newpath
34800 17095 moveto
34876 17057 lineto
35028 17057 lineto
35105 17095 lineto
35143 17171 lineto
35143 17209 lineto
35105 17285 lineto
35028 17323 lineto
34914 17323 lineto
34839 17361 lineto
34800 17437 lineto
34800 17475 lineto
34839 17552 lineto
34914 17589 lineto
35028 17589 lineto
35105 17552 lineto
stroke
newpath
35410 16752 moveto
35448 16790 lineto
35524 16904 lineto
35562 16980 lineto
35601 17095 lineto
35638 17285 lineto
35638 17437 lineto
35601 17628 lineto
35562 17742 lineto
35524 17818 lineto
35448 17932 lineto
35410 17971 lineto
stroke
showpage
grestore
%%EOF
