%!PS-Adobe-3.0
%%Creator: PCBNEW-PS
%%CreationDate: Mon Oct 17 18:45:20 2011
%%Title: /home/alex/codaz/DuinoPlug/kicad/duinoplug-Commentaires.ps
%%Pages: 1
%%PageOrder: Ascend
%%BoundingBox: 0 0 596 843
%%DocumentMedia: A4 595 842 0 () ()
%%Orientation: Landscape
%%EndComments
%%Page: 1 1
/line {
    newpath
    moveto
    lineto
    stroke
} bind def
/cir0 { newpath 0 360 arc stroke } bind def
/cir1 { newpath 0 360 arc gsave fill grestore stroke } bind def
/cir2 { newpath 0 360 arc gsave fill grestore stroke } bind def
/arc0 { newpath arc stroke } bind def
/arc1 { newpath 4 index 4 index moveto arc closepath gsave fill grestore stroke } bind def
/arc2 { newpath 4 index 4 index moveto arc closepath gsave fill grestore stroke } bind def
/poly0 { stroke } bind def
/poly1 { closepath gsave fill grestore stroke } bind def
/poly2 { closepath gsave fill grestore stroke } bind def
/rect0 { rectstroke } bind def
/rect1 { rectfill } bind def
/rect2 { rectfill } bind def
/linemode0 { 0 setlinecap 0 setlinejoin 0 setlinewidth } bind def
/linemode1 { 1 setlinecap 1 setlinejoin } bind def
/dashedline { [50 50] 0 setdash } bind def
/solidline { [] 0 setdash } bind def
gsave
0.0072 0.0072 scale
linemode1
82670 0 translate 90 rotate
60 setlinewidth
120 setlinewidth
0 0 0 setrgbcolor
newpath
11533 42846 moveto
11532 43189 lineto
stroke
newpath
11532 43017 moveto
12332 43019 lineto
12218 43076 lineto
12142 43133 lineto
12104 43190 lineto
stroke
newpath
12068 42333 moveto
11534 42332 lineto
stroke
newpath
12371 42477 moveto
11800 42619 lineto
11801 42247 lineto
stroke
newpath
12334 41906 moveto
12335 41849 lineto
12297 41792 lineto
12259 41763 lineto
12183 41734 lineto
12030 41705 lineto
11840 41705 lineto
11688 41733 lineto
11611 41762 lineto
11573 41790 lineto
11535 41847 lineto
11534 41904 lineto
11572 41961 lineto
11610 41991 lineto
11687 42019 lineto
11839 42048 lineto
12029 42048 lineto
12182 42020 lineto
12258 41992 lineto
12296 41963 lineto
12334 41906 lineto
stroke
newpath
11573 41419 moveto
11535 41419 lineto
11459 41447 lineto
11421 41476 lineto
stroke
newpath
11536 41133 moveto
11536 41018 lineto
11574 40962 lineto
11612 40934 lineto
11727 40876 lineto
11879 40848 lineto
12184 40849 lineto
12260 40877 lineto
12298 40906 lineto
12336 40963 lineto
12336 41077 lineto
12298 41135 lineto
12260 41163 lineto
12184 41192 lineto
11993 41191 lineto
11917 41162 lineto
11879 41134 lineto
11841 41076 lineto
11841 40962 lineto
11879 40905 lineto
11917 40876 lineto
11993 40848 lineto
stroke
newpath
12337 40649 moveto
12337 40249 lineto
11537 40504 lineto
stroke
newpath
12338 39907 moveto
12338 39850 lineto
12300 39793 lineto
12262 39764 lineto
12186 39735 lineto
12033 39706 lineto
11843 39706 lineto
11691 39734 lineto
11614 39763 lineto
11576 39792 lineto
11538 39848 lineto
11538 39905 lineto
11576 39963 lineto
11614 39992 lineto
11691 40020 lineto
11843 40049 lineto
12033 40049 lineto
12186 40021 lineto
12262 39993 lineto
12300 39964 lineto
12338 39907 lineto
stroke
newpath
11539 38991 moveto
12073 38992 lineto
stroke
newpath
11996 38992 moveto
12035 38964 lineto
12074 38906 lineto
12074 38821 lineto
12035 38764 lineto
11959 38735 lineto
11540 38734 lineto
stroke
newpath
11959 38735 moveto
12035 38706 lineto
12074 38649 lineto
12074 38564 lineto
12035 38506 lineto
11959 38478 lineto
11540 38477 lineto
stroke
newpath
11541 38191 moveto
12075 38192 lineto
stroke
newpath
11998 38192 moveto
12036 38164 lineto
12075 38106 lineto
12075 38021 lineto
12036 37964 lineto
11960 37935 lineto
11541 37934 lineto
stroke
newpath
11960 37935 moveto
12036 37906 lineto
12075 37849 lineto
12076 37764 lineto
12037 37706 lineto
11961 37678 lineto
11542 37677 lineto
stroke
newpath
12501 68170 moveto
12501 12670 lineto
stroke
newpath
15000 68170 moveto
11221 68170 lineto
stroke
newpath
15000 12670 moveto
11221 12670 lineto
stroke
newpath
12501 12670 moveto
12271 13113 lineto
stroke
newpath
12501 12670 moveto
12731 13113 lineto
stroke
newpath
12501 68170 moveto
12271 67727 lineto
stroke
newpath
12501 68170 moveto
12731 67727 lineto
stroke
150 setlinewidth
newpath
104000 12670 moveto
104000 14670 lineto
stroke
newpath
103500 12670 moveto
104000 12670 lineto
stroke
newpath
15000 12670 moveto
103500 12670 lineto
stroke
newpath
15000 14670 moveto
15000 12670 lineto
stroke
newpath
104000 14670 moveto
104000 22670 lineto
stroke
newpath
15000 22670 moveto
15000 14670 lineto
stroke
120 setlinewidth
0 0 0 setrgbcolor
newpath
56729 71204 moveto
56758 71242 lineto
56815 71280 lineto
56958 71281 lineto
57015 71243 lineto
57044 71205 lineto
57072 71129 lineto
57073 71053 lineto
57045 70938 lineto
56703 70480 lineto
57074 70481 lineto
stroke
newpath
57300 71205 moveto
57329 71243 lineto
57386 71281 lineto
57529 71282 lineto
57586 71244 lineto
57615 71206 lineto
57643 71130 lineto
57644 71054 lineto
57616 70939 lineto
57274 70481 lineto
57645 70482 lineto
stroke
newpath
58157 71283 moveto
58043 71282 lineto
57986 71244 lineto
57957 71206 lineto
57901 71092 lineto
57872 70939 lineto
57872 70635 lineto
57901 70558 lineto
57930 70520 lineto
57988 70482 lineto
58102 70483 lineto
58159 70521 lineto
58187 70559 lineto
58215 70636 lineto
58215 70826 lineto
58187 70902 lineto
58158 70940 lineto
58101 70978 lineto
57987 70977 lineto
57929 70939 lineto
57901 70901 lineto
57872 70825 lineto
stroke
newpath
58501 70521 moveto
58501 70483 lineto
58473 70407 lineto
58444 70369 lineto
stroke
newpath
58871 71284 moveto
58928 71284 lineto
58985 71246 lineto
59014 71208 lineto
59043 71132 lineto
59072 70979 lineto
59072 70789 lineto
59044 70637 lineto
59015 70560 lineto
58986 70522 lineto
58930 70484 lineto
58873 70484 lineto
58816 70522 lineto
58786 70560 lineto
58758 70637 lineto
58729 70789 lineto
58729 70979 lineto
58757 71132 lineto
58785 71208 lineto
58814 71246 lineto
58871 71284 lineto
stroke
newpath
59585 71285 moveto
59471 71285 lineto
59414 71247 lineto
59385 71209 lineto
59329 71095 lineto
59300 70942 lineto
59300 70638 lineto
59329 70561 lineto
59357 70523 lineto
59416 70485 lineto
59530 70485 lineto
59586 70523 lineto
59615 70561 lineto
59643 70638 lineto
59643 70828 lineto
59615 70904 lineto
59586 70942 lineto
59529 70980 lineto
59415 70980 lineto
59357 70942 lineto
59329 70904 lineto
59300 70828 lineto
stroke
newpath
60013 71286 moveto
60070 71286 lineto
60127 71248 lineto
60156 71210 lineto
60185 71134 lineto
60214 70981 lineto
60214 70791 lineto
60186 70639 lineto
60157 70562 lineto
60128 70524 lineto
60072 70486 lineto
60015 70486 lineto
59957 70524 lineto
59928 70562 lineto
59900 70639 lineto
59871 70791 lineto
59871 70981 lineto
59899 71134 lineto
59927 71210 lineto
59956 71248 lineto
60013 71286 lineto
stroke
newpath
60929 70487 moveto
60928 71021 lineto
stroke
newpath
60928 70944 moveto
60956 70983 lineto
61014 71022 lineto
61099 71022 lineto
61156 70983 lineto
61185 70907 lineto
61186 70488 lineto
stroke
newpath
61185 70907 moveto
61214 70983 lineto
61271 71022 lineto
61356 71022 lineto
61414 70983 lineto
61442 70907 lineto
61443 70488 lineto
stroke
newpath
61729 70489 moveto
61728 71023 lineto
stroke
newpath
61728 70946 moveto
61756 70984 lineto
61814 71023 lineto
61899 71023 lineto
61956 70984 lineto
61985 70908 lineto
61986 70489 lineto
stroke
newpath
61985 70908 moveto
62014 70984 lineto
62071 71023 lineto
62156 71024 lineto
62214 70985 lineto
62242 70909 lineto
62243 70490 lineto
stroke
newpath
104000 70169 moveto
15000 70169 lineto
stroke
newpath
104000 67670 moveto
104000 71449 lineto
stroke
newpath
15000 67670 moveto
15000 71449 lineto
stroke
newpath
15000 70169 moveto
15443 70399 lineto
stroke
newpath
15000 70169 moveto
15443 69939 lineto
stroke
newpath
104000 70169 moveto
103557 70399 lineto
stroke
newpath
104000 70169 moveto
103557 69939 lineto
stroke
150 setlinewidth
newpath
15000 68170 moveto
104000 68170 lineto
stroke
newpath
15000 22670 moveto
15000 68170 lineto
stroke
newpath
104000 68170 moveto
104000 22670 lineto
stroke
showpage
grestore
%%EOF
