%!PS-Adobe-3.0
%%Creator: PCBNEW-PS
%%CreationDate: Mon Oct 17 18:45:20 2011
%%Title: /home/alex/codaz/DuinoPlug/kicad/duinoplug-Dessus.ps
%%Pages: 1
%%PageOrder: Ascend
%%BoundingBox: 0 0 596 843
%%DocumentMedia: A4 595 842 0 () ()
%%Orientation: Landscape
%%EndComments
%%Page: 1 1
/line {
    newpath
    moveto
    lineto
    stroke
} bind def
/cir0 { newpath 0 360 arc stroke } bind def
/cir1 { newpath 0 360 arc gsave fill grestore stroke } bind def
/cir2 { newpath 0 360 arc gsave fill grestore stroke } bind def
/arc0 { newpath arc stroke } bind def
/arc1 { newpath 4 index 4 index moveto arc closepath gsave fill grestore stroke } bind def
/arc2 { newpath 4 index 4 index moveto arc closepath gsave fill grestore stroke } bind def
/poly0 { stroke } bind def
/poly1 { closepath gsave fill grestore stroke } bind def
/poly2 { closepath gsave fill grestore stroke } bind def
/rect0 { rectstroke } bind def
/rect1 { rectfill } bind def
/rect2 { rectfill } bind def
/linemode0 { 0 setlinecap 0 setlinejoin 0 setlinewidth } bind def
/linemode1 { 1 setlinecap 1 setlinejoin } bind def
/dashedline { [50 50] 0 setdash } bind def
/solidline { [] 0 setdash } bind def
gsave
0.0072 0.0072 scale
linemode1
82670 0 translate 90 rotate
60 setlinewidth
150 setlinewidth
newpath
104000 12670 moveto
104000 14670 lineto
stroke
newpath
103500 12670 moveto
104000 12670 lineto
stroke
newpath
15000 12670 moveto
103500 12670 lineto
stroke
newpath
15000 14670 moveto
15000 12670 lineto
stroke
newpath
104000 14670 moveto
104000 22670 lineto
stroke
newpath
15000 22670 moveto
15000 14670 lineto
stroke
newpath
15000 68170 moveto
104000 68170 lineto
stroke
newpath
15000 22670 moveto
15000 68170 lineto
stroke
newpath
104000 68170 moveto
104000 22670 lineto
stroke
60 setlinewidth
57900 46570 270 cir1
53100 46570 270 cir1
57900 41770 521 cir1
53100 41770 521 cir1
55500 47370 521 cir1
47900 46570 270 cir1
43100 46570 270 cir1
47900 41770 521 cir1
43100 41770 521 cir1
45500 47370 521 cir1
37900 46570 270 cir1
33100 46570 270 cir1
37900 41770 521 cir1
33100 41770 521 cir1
35500 47370 521 cir1
newpath
18755 56415 moveto
19245 56415 lineto
19245 55925 lineto
18755 55925 lineto
18755 56415 lineto
poly1
19000 55170 245 cir1
newpath
60255 60425 moveto
60255 60915 lineto
60745 60915 lineto
60745 60425 lineto
60255 60425 lineto
poly1
61500 60670 245 cir1
62500 60670 245 cir1
63500 60670 245 cir1
64500 60670 245 cir1
65500 60670 245 cir1
66500 60670 245 cir1
67500 60670 245 cir1
newpath
67745 62415 moveto
67745 61925 lineto
67255 61925 lineto
67255 62415 lineto
67745 62415 lineto
poly1
66500 62170 245 cir1
65500 62170 245 cir1
64500 62170 245 cir1
63500 62170 245 cir1
62500 62170 245 cir1
61500 62170 245 cir1
60500 62170 245 cir1
22500 20670 270 cir1
28500 20670 270 cir1
25500 17670 270 cir1
32500 20670 270 cir1
38500 20670 270 cir1
35500 17670 270 cir1
42500 20670 270 cir1
48500 20670 270 cir1
45500 17670 270 cir1
52500 20670 270 cir1
58500 20670 270 cir1
55500 17670 270 cir1
62500 20670 270 cir1
68500 20670 270 cir1
65500 17670 270 cir1
72500 20670 270 cir1
78500 20670 270 cir1
75500 17670 270 cir1
82500 20670 270 cir1
88500 20670 270 cir1
85500 17670 270 cir1
92500 20670 270 cir1
98500 20670 270 cir1
95500 17670 270 cir1
newpath
83030 36200 moveto
83030 37140 lineto
83970 37140 lineto
83970 36200 lineto
83030 36200 lineto
poly1
85500 36670 470 cir1
87500 36670 470 cir1
newpath
93030 36200 moveto
93030 37140 lineto
93970 37140 lineto
93970 36200 lineto
93030 36200 lineto
poly1
95500 36670 470 cir1
97500 36670 470 cir1
newpath
73030 36200 moveto
73030 37140 lineto
73970 37140 lineto
73970 36200 lineto
73030 36200 lineto
poly1
75500 36670 470 cir1
77500 36670 470 cir1
newpath
63030 36200 moveto
63030 37140 lineto
63970 37140 lineto
63970 36200 lineto
63030 36200 lineto
poly1
65500 36670 470 cir1
67500 36670 470 cir1
newpath
53030 36200 moveto
53030 37140 lineto
53970 37140 lineto
53970 36200 lineto
53030 36200 lineto
poly1
55500 36670 470 cir1
57500 36670 470 cir1
newpath
43030 36200 moveto
43030 37140 lineto
43970 37140 lineto
43970 36200 lineto
43030 36200 lineto
poly1
45500 36670 470 cir1
47500 36670 470 cir1
newpath
33030 36200 moveto
33030 37140 lineto
33970 37140 lineto
33970 36200 lineto
33030 36200 lineto
poly1
35500 36670 470 cir1
37500 36670 470 cir1
newpath
23030 36200 moveto
23030 37140 lineto
23970 37140 lineto
23970 36200 lineto
23030 36200 lineto
poly1
25500 36670 470 cir1
27500 36670 470 cir1
newpath
18470 35200 moveto
17530 35200 lineto
17530 36140 lineto
18470 36140 lineto
18470 35200 lineto
poly1
18000 37670 470 cir1
18000 39670 470 cir1
newpath
18255 62425 moveto
18255 62915 lineto
18745 62915 lineto
18745 62425 lineto
18255 62425 lineto
poly1
19500 62670 245 cir1
newpath
96755 50425 moveto
96755 50915 lineto
97245 50915 lineto
97245 50425 lineto
96755 50425 lineto
poly1
94000 50670 245 cir1
newpath
26755 50425 moveto
26755 50915 lineto
27245 50915 lineto
27245 50425 lineto
26755 50425 lineto
poly1
24000 50670 245 cir1
newpath
86755 50425 moveto
86755 50915 lineto
87245 50915 lineto
87245 50425 lineto
86755 50425 lineto
poly1
84000 50670 245 cir1
newpath
36755 50425 moveto
36755 50915 lineto
37245 50915 lineto
37245 50425 lineto
36755 50425 lineto
poly1
34000 50670 245 cir1
newpath
76755 50425 moveto
76755 50915 lineto
77245 50915 lineto
77245 50425 lineto
76755 50425 lineto
poly1
74000 50670 245 cir1
newpath
46755 50425 moveto
46755 50915 lineto
47245 50915 lineto
47245 50425 lineto
46755 50425 lineto
poly1
44000 50670 245 cir1
newpath
66755 50425 moveto
66755 50915 lineto
67245 50915 lineto
67245 50425 lineto
66755 50425 lineto
poly1
64000 50670 245 cir1
newpath
56755 50425 moveto
56755 50915 lineto
57245 50915 lineto
57245 50425 lineto
56755 50425 lineto
poly1
54000 50670 245 cir1
67900 46570 270 cir1
63100 46570 270 cir1
67900 41770 521 cir1
63100 41770 521 cir1
65500 47370 521 cir1
77900 46570 270 cir1
73100 46570 270 cir1
77900 41770 521 cir1
73100 41770 521 cir1
75500 47370 521 cir1
87900 46570 270 cir1
83100 46570 270 cir1
87900 41770 521 cir1
83100 41770 521 cir1
85500 47370 521 cir1
97900 46570 270 cir1
93100 46570 270 cir1
97900 41770 521 cir1
93100 41770 521 cir1
95500 47370 521 cir1
20500 53170 300 cir1
21500 53170 300 cir1
90500 53170 300 cir1
91500 53170 300 cir1
30500 53170 300 cir1
31500 53170 300 cir1
80500 53170 300 cir1
81500 53170 300 cir1
40500 53170 300 cir1
41500 53170 300 cir1
70500 53170 300 cir1
71500 53170 300 cir1
50500 53170 300 cir1
51500 53170 300 cir1
60500 53170 300 cir1
61500 53170 300 cir1
76500 57670 245 cir1
76500 54670 245 cir1
81000 56170 245 cir1
84000 56170 245 cir1
87000 49170 245 cir1
84000 49170 245 cir1
77000 15670 245 cir1
74000 15670 245 cir1
87000 15670 245 cir1
84000 15670 245 cir1
87000 57670 245 cir1
87000 54670 245 cir1
91000 56170 245 cir1
94000 56170 245 cir1
77000 49170 245 cir1
74000 49170 245 cir1
97000 49170 245 cir1
94000 49170 245 cir1
97000 15670 245 cir1
94000 15670 245 cir1
97000 57670 245 cir1
97000 54670 245 cir1
37000 15670 245 cir1
34000 15670 245 cir1
37000 49170 245 cir1
34000 49170 245 cir1
31000 56170 245 cir1
34000 56170 245 cir1
26500 57670 245 cir1
26500 54670 245 cir1
27000 15670 245 cir1
24000 15670 245 cir1
27000 49170 245 cir1
24000 49170 245 cir1
21000 56170 245 cir1
24000 56170 245 cir1
17500 60670 245 cir1
20500 60670 245 cir1
20500 59170 245 cir1
17500 59170 245 cir1
37000 57670 245 cir1
37000 54670 245 cir1
41000 56170 245 cir1
44000 56170 245 cir1
67000 57670 245 cir1
67000 54670 245 cir1
67000 15670 245 cir1
64000 15670 245 cir1
67000 49170 245 cir1
64000 49170 245 cir1
61000 56170 245 cir1
64000 56170 245 cir1
57000 57670 245 cir1
57000 54670 245 cir1
57000 15670 245 cir1
54000 15670 245 cir1
57000 49170 245 cir1
54000 49170 245 cir1
51000 56170 245 cir1
54000 56170 245 cir1
47000 57670 245 cir1
47000 54670 245 cir1
47000 15670 245 cir1
44000 15670 245 cir1
71000 56170 245 cir1
74000 56170 245 cir1
47000 49170 245 cir1
44000 49170 245 cir1
94500 53170 270 cir1
94000 53670 270 cir1
94000 52670 270 cir1
84500 53170 270 cir1
84000 53670 270 cir1
84000 52670 270 cir1
74500 53170 270 cir1
74000 53670 270 cir1
74000 52670 270 cir1
64500 53170 270 cir1
64000 53670 270 cir1
64000 52670 270 cir1
54500 53170 270 cir1
54000 53670 270 cir1
54000 52670 270 cir1
44500 53170 270 cir1
44000 53670 270 cir1
44000 52670 270 cir1
34500 53170 270 cir1
34000 53670 270 cir1
34000 52670 270 cir1
24500 53170 270 cir1
24000 53670 270 cir1
24000 52670 270 cir1
27900 46570 270 cir1
23100 46570 270 cir1
27900 41770 521 cir1
23100 41770 521 cir1
25500 47370 521 cir1
1 1 1 setrgbcolor
57900 46570 45 cir1
53100 46570 45 cir1
57900 41770 45 cir1
53100 41770 45 cir1
55500 47370 45 cir1
47900 46570 45 cir1
43100 46570 45 cir1
47900 41770 45 cir1
43100 41770 45 cir1
45500 47370 45 cir1
37900 46570 45 cir1
33100 46570 45 cir1
37900 41770 45 cir1
33100 41770 45 cir1
35500 47370 45 cir1
19000 56170 45 cir1
19000 55170 45 cir1
60500 60670 45 cir1
61500 60670 45 cir1
62500 60670 45 cir1
63500 60670 45 cir1
64500 60670 45 cir1
65500 60670 45 cir1
66500 60670 45 cir1
67500 60670 45 cir1
67500 62170 45 cir1
66500 62170 45 cir1
65500 62170 45 cir1
64500 62170 45 cir1
63500 62170 45 cir1
62500 62170 45 cir1
61500 62170 45 cir1
60500 62170 45 cir1
22500 20670 45 cir1
28500 20670 45 cir1
25500 17670 45 cir1
32500 20670 45 cir1
38500 20670 45 cir1
35500 17670 45 cir1
42500 20670 45 cir1
48500 20670 45 cir1
45500 17670 45 cir1
52500 20670 45 cir1
58500 20670 45 cir1
55500 17670 45 cir1
62500 20670 45 cir1
68500 20670 45 cir1
65500 17670 45 cir1
72500 20670 45 cir1
78500 20670 45 cir1
75500 17670 45 cir1
82500 20670 45 cir1
88500 20670 45 cir1
85500 17670 45 cir1
92500 20670 45 cir1
98500 20670 45 cir1
95500 17670 45 cir1
83500 36670 45 cir1
85500 36670 45 cir1
87500 36670 45 cir1
93500 36670 45 cir1
95500 36670 45 cir1
97500 36670 45 cir1
73500 36670 45 cir1
75500 36670 45 cir1
77500 36670 45 cir1
63500 36670 45 cir1
65500 36670 45 cir1
67500 36670 45 cir1
53500 36670 45 cir1
55500 36670 45 cir1
57500 36670 45 cir1
43500 36670 45 cir1
45500 36670 45 cir1
47500 36670 45 cir1
33500 36670 45 cir1
35500 36670 45 cir1
37500 36670 45 cir1
23500 36670 45 cir1
25500 36670 45 cir1
27500 36670 45 cir1
18000 35670 45 cir1
18000 37670 45 cir1
18000 39670 45 cir1
18500 62670 45 cir1
19500 62670 45 cir1
97000 50670 45 cir1
94000 50670 45 cir1
27000 50670 45 cir1
24000 50670 45 cir1
87000 50670 45 cir1
84000 50670 45 cir1
37000 50670 45 cir1
34000 50670 45 cir1
77000 50670 45 cir1
74000 50670 45 cir1
47000 50670 45 cir1
44000 50670 45 cir1
67000 50670 45 cir1
64000 50670 45 cir1
57000 50670 45 cir1
54000 50670 45 cir1
67900 46570 45 cir1
63100 46570 45 cir1
67900 41770 45 cir1
63100 41770 45 cir1
65500 47370 45 cir1
77900 46570 45 cir1
73100 46570 45 cir1
77900 41770 45 cir1
73100 41770 45 cir1
75500 47370 45 cir1
87900 46570 45 cir1
83100 46570 45 cir1
87900 41770 45 cir1
83100 41770 45 cir1
85500 47370 45 cir1
97900 46570 45 cir1
93100 46570 45 cir1
97900 41770 45 cir1
93100 41770 45 cir1
95500 47370 45 cir1
20500 53170 45 cir1
21500 53170 45 cir1
90500 53170 45 cir1
91500 53170 45 cir1
30500 53170 45 cir1
31500 53170 45 cir1
80500 53170 45 cir1
81500 53170 45 cir1
40500 53170 45 cir1
41500 53170 45 cir1
70500 53170 45 cir1
71500 53170 45 cir1
50500 53170 45 cir1
51500 53170 45 cir1
60500 53170 45 cir1
61500 53170 45 cir1
76500 57670 45 cir1
76500 54670 45 cir1
81000 56170 45 cir1
84000 56170 45 cir1
87000 49170 45 cir1
84000 49170 45 cir1
77000 15670 45 cir1
74000 15670 45 cir1
87000 15670 45 cir1
84000 15670 45 cir1
87000 57670 45 cir1
87000 54670 45 cir1
91000 56170 45 cir1
94000 56170 45 cir1
77000 49170 45 cir1
74000 49170 45 cir1
97000 49170 45 cir1
94000 49170 45 cir1
97000 15670 45 cir1
94000 15670 45 cir1
97000 57670 45 cir1
97000 54670 45 cir1
37000 15670 45 cir1
34000 15670 45 cir1
37000 49170 45 cir1
34000 49170 45 cir1
31000 56170 45 cir1
34000 56170 45 cir1
26500 57670 45 cir1
26500 54670 45 cir1
27000 15670 45 cir1
24000 15670 45 cir1
27000 49170 45 cir1
24000 49170 45 cir1
21000 56170 45 cir1
24000 56170 45 cir1
17500 60670 45 cir1
20500 60670 45 cir1
20500 59170 45 cir1
17500 59170 45 cir1
37000 57670 45 cir1
37000 54670 45 cir1
41000 56170 45 cir1
44000 56170 45 cir1
67000 57670 45 cir1
67000 54670 45 cir1
67000 15670 45 cir1
64000 15670 45 cir1
67000 49170 45 cir1
64000 49170 45 cir1
61000 56170 45 cir1
64000 56170 45 cir1
57000 57670 45 cir1
57000 54670 45 cir1
57000 15670 45 cir1
54000 15670 45 cir1
57000 49170 45 cir1
54000 49170 45 cir1
51000 56170 45 cir1
54000 56170 45 cir1
47000 57670 45 cir1
47000 54670 45 cir1
47000 15670 45 cir1
44000 15670 45 cir1
71000 56170 45 cir1
74000 56170 45 cir1
47000 49170 45 cir1
44000 49170 45 cir1
94500 53170 45 cir1
94000 53670 45 cir1
94000 52670 45 cir1
84500 53170 45 cir1
84000 53670 45 cir1
84000 52670 45 cir1
74500 53170 45 cir1
74000 53670 45 cir1
74000 52670 45 cir1
64500 53170 45 cir1
64000 53670 45 cir1
64000 52670 45 cir1
54500 53170 45 cir1
54000 53670 45 cir1
54000 52670 45 cir1
44500 53170 45 cir1
44000 53670 45 cir1
44000 52670 45 cir1
34500 53170 45 cir1
34000 53670 45 cir1
34000 52670 45 cir1
24500 53170 45 cir1
24000 53670 45 cir1
24000 52670 45 cir1
27900 46570 45 cir1
23100 46570 45 cir1
27900 41770 45 cir1
23100 41770 45 cir1
25500 47370 45 cir1
0 0 0 setrgbcolor
showpage
grestore
%%EOF
