%!PS-Adobe-3.0
%%Creator: PCBNEW-PS
%%CreationDate: Mon Oct 17 18:45:20 2011
%%Title: /home/alex/codaz/DuinoPlug/kicad/duinoplug-Dessous.ps
%%Pages: 1
%%PageOrder: Ascend
%%BoundingBox: 0 0 596 843
%%DocumentMedia: A4 595 842 0 () ()
%%Orientation: Landscape
%%EndComments
%%Page: 1 1
/line {
    newpath
    moveto
    lineto
    stroke
} bind def
/cir0 { newpath 0 360 arc stroke } bind def
/cir1 { newpath 0 360 arc gsave fill grestore stroke } bind def
/cir2 { newpath 0 360 arc gsave fill grestore stroke } bind def
/arc0 { newpath arc stroke } bind def
/arc1 { newpath 4 index 4 index moveto arc closepath gsave fill grestore stroke } bind def
/arc2 { newpath 4 index 4 index moveto arc closepath gsave fill grestore stroke } bind def
/poly0 { stroke } bind def
/poly1 { closepath gsave fill grestore stroke } bind def
/poly2 { closepath gsave fill grestore stroke } bind def
/rect0 { rectstroke } bind def
/rect1 { rectfill } bind def
/rect2 { rectfill } bind def
/linemode0 { 0 setlinecap 0 setlinejoin 0 setlinewidth } bind def
/linemode1 { 1 setlinecap 1 setlinejoin } bind def
/dashedline { [50 50] 0 setdash } bind def
/solidline { [] 0 setdash } bind def
gsave
0.0072 0.0072 scale
linemode1
82670 0 translate 90 rotate
60 setlinewidth
150 setlinewidth
newpath
104000 12670 moveto
104000 14670 lineto
stroke
newpath
103500 12670 moveto
104000 12670 lineto
stroke
newpath
15000 12670 moveto
103500 12670 lineto
stroke
newpath
15000 14670 moveto
15000 12670 lineto
stroke
newpath
104000 14670 moveto
104000 22670 lineto
stroke
newpath
15000 22670 moveto
15000 14670 lineto
stroke
newpath
15000 68170 moveto
104000 68170 lineto
stroke
newpath
15000 22670 moveto
15000 68170 lineto
stroke
newpath
104000 68170 moveto
104000 22670 lineto
stroke
60 setlinewidth
57900 46570 270 cir1
53100 46570 270 cir1
57900 41770 521 cir1
53100 41770 521 cir1
55500 47370 521 cir1
47900 46570 270 cir1
43100 46570 270 cir1
47900 41770 521 cir1
43100 41770 521 cir1
45500 47370 521 cir1
37900 46570 270 cir1
33100 46570 270 cir1
37900 41770 521 cir1
33100 41770 521 cir1
35500 47370 521 cir1
newpath
18755 56415 moveto
19245 56415 lineto
19245 55925 lineto
18755 55925 lineto
18755 56415 lineto
poly1
19000 55170 245 cir1
newpath
60255 60425 moveto
60255 60915 lineto
60745 60915 lineto
60745 60425 lineto
60255 60425 lineto
poly1
61500 60670 245 cir1
62500 60670 245 cir1
63500 60670 245 cir1
64500 60670 245 cir1
65500 60670 245 cir1
66500 60670 245 cir1
67500 60670 245 cir1
newpath
67745 62415 moveto
67745 61925 lineto
67255 61925 lineto
67255 62415 lineto
67745 62415 lineto
poly1
66500 62170 245 cir1
65500 62170 245 cir1
64500 62170 245 cir1
63500 62170 245 cir1
62500 62170 245 cir1
61500 62170 245 cir1
60500 62170 245 cir1
22500 20670 270 cir1
28500 20670 270 cir1
25500 17670 270 cir1
32500 20670 270 cir1
38500 20670 270 cir1
35500 17670 270 cir1
42500 20670 270 cir1
48500 20670 270 cir1
45500 17670 270 cir1
52500 20670 270 cir1
58500 20670 270 cir1
55500 17670 270 cir1
62500 20670 270 cir1
68500 20670 270 cir1
65500 17670 270 cir1
72500 20670 270 cir1
78500 20670 270 cir1
75500 17670 270 cir1
82500 20670 270 cir1
88500 20670 270 cir1
85500 17670 270 cir1
92500 20670 270 cir1
98500 20670 270 cir1
95500 17670 270 cir1
newpath
83030 36200 moveto
83030 37140 lineto
83970 37140 lineto
83970 36200 lineto
83030 36200 lineto
poly1
85500 36670 470 cir1
87500 36670 470 cir1
newpath
93030 36200 moveto
93030 37140 lineto
93970 37140 lineto
93970 36200 lineto
93030 36200 lineto
poly1
95500 36670 470 cir1
97500 36670 470 cir1
newpath
73030 36200 moveto
73030 37140 lineto
73970 37140 lineto
73970 36200 lineto
73030 36200 lineto
poly1
75500 36670 470 cir1
77500 36670 470 cir1
newpath
63030 36200 moveto
63030 37140 lineto
63970 37140 lineto
63970 36200 lineto
63030 36200 lineto
poly1
65500 36670 470 cir1
67500 36670 470 cir1
newpath
53030 36200 moveto
53030 37140 lineto
53970 37140 lineto
53970 36200 lineto
53030 36200 lineto
poly1
55500 36670 470 cir1
57500 36670 470 cir1
newpath
43030 36200 moveto
43030 37140 lineto
43970 37140 lineto
43970 36200 lineto
43030 36200 lineto
poly1
45500 36670 470 cir1
47500 36670 470 cir1
newpath
33030 36200 moveto
33030 37140 lineto
33970 37140 lineto
33970 36200 lineto
33030 36200 lineto
poly1
35500 36670 470 cir1
37500 36670 470 cir1
newpath
23030 36200 moveto
23030 37140 lineto
23970 37140 lineto
23970 36200 lineto
23030 36200 lineto
poly1
25500 36670 470 cir1
27500 36670 470 cir1
newpath
18470 35200 moveto
17530 35200 lineto
17530 36140 lineto
18470 36140 lineto
18470 35200 lineto
poly1
18000 37670 470 cir1
18000 39670 470 cir1
newpath
18255 62425 moveto
18255 62915 lineto
18745 62915 lineto
18745 62425 lineto
18255 62425 lineto
poly1
19500 62670 245 cir1
newpath
96755 50425 moveto
96755 50915 lineto
97245 50915 lineto
97245 50425 lineto
96755 50425 lineto
poly1
94000 50670 245 cir1
newpath
26755 50425 moveto
26755 50915 lineto
27245 50915 lineto
27245 50425 lineto
26755 50425 lineto
poly1
24000 50670 245 cir1
newpath
86755 50425 moveto
86755 50915 lineto
87245 50915 lineto
87245 50425 lineto
86755 50425 lineto
poly1
84000 50670 245 cir1
newpath
36755 50425 moveto
36755 50915 lineto
37245 50915 lineto
37245 50425 lineto
36755 50425 lineto
poly1
34000 50670 245 cir1
newpath
76755 50425 moveto
76755 50915 lineto
77245 50915 lineto
77245 50425 lineto
76755 50425 lineto
poly1
74000 50670 245 cir1
newpath
46755 50425 moveto
46755 50915 lineto
47245 50915 lineto
47245 50425 lineto
46755 50425 lineto
poly1
44000 50670 245 cir1
newpath
66755 50425 moveto
66755 50915 lineto
67245 50915 lineto
67245 50425 lineto
66755 50425 lineto
poly1
64000 50670 245 cir1
newpath
56755 50425 moveto
56755 50915 lineto
57245 50915 lineto
57245 50425 lineto
56755 50425 lineto
poly1
54000 50670 245 cir1
67900 46570 270 cir1
63100 46570 270 cir1
67900 41770 521 cir1
63100 41770 521 cir1
65500 47370 521 cir1
77900 46570 270 cir1
73100 46570 270 cir1
77900 41770 521 cir1
73100 41770 521 cir1
75500 47370 521 cir1
87900 46570 270 cir1
83100 46570 270 cir1
87900 41770 521 cir1
83100 41770 521 cir1
85500 47370 521 cir1
97900 46570 270 cir1
93100 46570 270 cir1
97900 41770 521 cir1
93100 41770 521 cir1
95500 47370 521 cir1
20500 53170 300 cir1
21500 53170 300 cir1
90500 53170 300 cir1
91500 53170 300 cir1
30500 53170 300 cir1
31500 53170 300 cir1
80500 53170 300 cir1
81500 53170 300 cir1
40500 53170 300 cir1
41500 53170 300 cir1
70500 53170 300 cir1
71500 53170 300 cir1
50500 53170 300 cir1
51500 53170 300 cir1
60500 53170 300 cir1
61500 53170 300 cir1
76500 57670 245 cir1
76500 54670 245 cir1
81000 56170 245 cir1
84000 56170 245 cir1
87000 49170 245 cir1
84000 49170 245 cir1
77000 15670 245 cir1
74000 15670 245 cir1
87000 15670 245 cir1
84000 15670 245 cir1
87000 57670 245 cir1
87000 54670 245 cir1
91000 56170 245 cir1
94000 56170 245 cir1
77000 49170 245 cir1
74000 49170 245 cir1
97000 49170 245 cir1
94000 49170 245 cir1
97000 15670 245 cir1
94000 15670 245 cir1
97000 57670 245 cir1
97000 54670 245 cir1
37000 15670 245 cir1
34000 15670 245 cir1
37000 49170 245 cir1
34000 49170 245 cir1
31000 56170 245 cir1
34000 56170 245 cir1
26500 57670 245 cir1
26500 54670 245 cir1
27000 15670 245 cir1
24000 15670 245 cir1
27000 49170 245 cir1
24000 49170 245 cir1
21000 56170 245 cir1
24000 56170 245 cir1
17500 60670 245 cir1
20500 60670 245 cir1
20500 59170 245 cir1
17500 59170 245 cir1
37000 57670 245 cir1
37000 54670 245 cir1
41000 56170 245 cir1
44000 56170 245 cir1
67000 57670 245 cir1
67000 54670 245 cir1
67000 15670 245 cir1
64000 15670 245 cir1
67000 49170 245 cir1
64000 49170 245 cir1
61000 56170 245 cir1
64000 56170 245 cir1
57000 57670 245 cir1
57000 54670 245 cir1
57000 15670 245 cir1
54000 15670 245 cir1
57000 49170 245 cir1
54000 49170 245 cir1
51000 56170 245 cir1
54000 56170 245 cir1
47000 57670 245 cir1
47000 54670 245 cir1
47000 15670 245 cir1
44000 15670 245 cir1
71000 56170 245 cir1
74000 56170 245 cir1
47000 49170 245 cir1
44000 49170 245 cir1
94500 53170 270 cir1
94000 53670 270 cir1
94000 52670 270 cir1
84500 53170 270 cir1
84000 53670 270 cir1
84000 52670 270 cir1
74500 53170 270 cir1
74000 53670 270 cir1
74000 52670 270 cir1
64500 53170 270 cir1
64000 53670 270 cir1
64000 52670 270 cir1
54500 53170 270 cir1
54000 53670 270 cir1
54000 52670 270 cir1
44500 53170 270 cir1
44000 53670 270 cir1
44000 52670 270 cir1
34500 53170 270 cir1
34000 53670 270 cir1
34000 52670 270 cir1
24500 53170 270 cir1
24000 53670 270 cir1
24000 52670 270 cir1
27900 46570 270 cir1
23100 46570 270 cir1
27900 41770 521 cir1
23100 41770 521 cir1
25500 47370 521 cir1
198 setlinewidth
newpath
16000 34170 moveto
16000 25670 lineto
stroke
newpath
22500 20670 moveto
21000 20670 lineto
stroke
newpath
17500 43670 moveto
16000 42170 lineto
stroke
newpath
17500 43670 moveto
17500 59170 lineto
stroke
newpath
16000 25670 moveto
21000 20670 lineto
stroke
newpath
16000 42170 moveto
16000 34170 lineto
stroke
newpath
54000 15670 moveto
54500 15170 lineto
stroke
newpath
54500 15170 moveto
63500 15170 lineto
stroke
newpath
44000 15670 moveto
44500 15170 lineto
stroke
newpath
44500 15170 moveto
53500 15170 lineto
stroke
newpath
83500 15170 moveto
84000 15670 lineto
stroke
newpath
17500 60670 moveto
17500 59170 lineto
stroke
newpath
34000 15670 moveto
34500 15170 lineto
stroke
newpath
43500 15170 moveto
44000 15670 lineto
stroke
newpath
34500 15170 moveto
43500 15170 lineto
stroke
newpath
24000 15670 moveto
24500 15170 lineto
stroke
newpath
24500 15170 moveto
33500 15170 lineto
stroke
newpath
33500 15170 moveto
34000 15670 lineto
stroke
newpath
24000 15670 moveto
24000 19170 lineto
stroke
newpath
24000 19170 moveto
22500 20670 lineto
stroke
newpath
17500 61670 moveto
18500 62670 lineto
stroke
newpath
44000 15670 moveto
44000 19170 lineto
stroke
newpath
44000 19170 moveto
42500 20670 lineto
stroke
newpath
32500 20670 moveto
34000 19170 lineto
stroke
newpath
34000 19170 moveto
34000 15670 lineto
stroke
newpath
54000 15670 moveto
54000 19170 lineto
stroke
newpath
54000 19170 moveto
52500 20670 lineto
stroke
newpath
64000 15670 moveto
64000 19170 lineto
stroke
newpath
64000 19170 moveto
62500 20670 lineto
stroke
newpath
74000 15670 moveto
74000 19170 lineto
stroke
newpath
74000 19170 moveto
72500 20670 lineto
stroke
newpath
82500 20670 moveto
84000 19170 lineto
stroke
newpath
84000 19170 moveto
84000 15670 lineto
stroke
newpath
53500 15170 moveto
54000 15670 lineto
stroke
newpath
63500 15170 moveto
64000 15670 lineto
stroke
newpath
64000 15670 moveto
64500 15170 lineto
stroke
newpath
64500 15170 moveto
73500 15170 lineto
stroke
newpath
73500 15170 moveto
74000 15670 lineto
stroke
newpath
74000 15670 moveto
74500 15170 lineto
stroke
newpath
74500 15170 moveto
83500 15170 lineto
stroke
newpath
84000 15670 moveto
84500 15170 lineto
stroke
newpath
84500 15170 moveto
93500 15170 lineto
stroke
newpath
93500 15170 moveto
94000 15670 lineto
stroke
newpath
94000 15670 moveto
94000 19170 lineto
stroke
newpath
94000 19170 moveto
92500 20670 lineto
stroke
newpath
17500 61670 moveto
17500 60670 lineto
stroke
newpath
34000 52670 moveto
34000 50670 lineto
stroke
newpath
34000 50670 moveto
34000 49170 lineto
stroke
newpath
54000 50670 moveto
54000 49170 lineto
stroke
newpath
34000 49170 moveto
34000 47670 lineto
stroke
newpath
34000 47670 moveto
33100 46770 lineto
stroke
newpath
33100 46770 moveto
33100 46570 lineto
stroke
newpath
23500 52670 moveto
24000 52670 lineto
stroke
newpath
19000 55170 moveto
19000 52670 lineto
stroke
newpath
19000 52670 moveto
19500 52170 lineto
stroke
newpath
24000 50670 moveto
24000 49170 lineto
stroke
newpath
23100 46570 moveto
23100 46770 lineto
stroke
newpath
23100 46770 moveto
24000 47670 lineto
stroke
newpath
24000 47670 moveto
24000 49170 lineto
stroke
newpath
94000 50670 moveto
94000 49170 lineto
stroke
newpath
94000 49170 moveto
94000 47670 lineto
stroke
newpath
93100 46770 moveto
93100 46570 lineto
stroke
newpath
94000 47670 moveto
93100 46770 lineto
stroke
newpath
94000 52670 moveto
94000 50670 lineto
stroke
newpath
91500 53170 moveto
93000 53170 lineto
stroke
newpath
93500 52670 moveto
94000 52670 lineto
stroke
newpath
93000 53170 moveto
93500 52670 lineto
stroke
newpath
84000 52670 moveto
84500 52170 lineto
stroke
newpath
91500 52670 moveto
91500 53170 lineto
stroke
newpath
91000 52170 moveto
91500 52670 lineto
stroke
newpath
84500 52170 moveto
91000 52170 lineto
stroke
newpath
84000 52670 moveto
84000 50670 lineto
stroke
newpath
84000 50670 moveto
84000 49170 lineto
stroke
newpath
84000 49170 moveto
84000 47670 lineto
stroke
newpath
84000 47670 moveto
83100 46770 lineto
stroke
newpath
83100 46770 moveto
83100 46570 lineto
stroke
newpath
81500 53170 moveto
83000 53170 lineto
stroke
newpath
83500 52670 moveto
84000 52670 lineto
stroke
newpath
83000 53170 moveto
83500 52670 lineto
stroke
newpath
74000 52670 moveto
74500 52170 lineto
stroke
newpath
81500 52670 moveto
81500 53170 lineto
stroke
newpath
81000 52170 moveto
81500 52670 lineto
stroke
newpath
74500 52170 moveto
81000 52170 lineto
stroke
newpath
74000 52670 moveto
74000 50670 lineto
stroke
newpath
74000 50670 moveto
74000 49170 lineto
stroke
newpath
74000 49170 moveto
74000 47670 lineto
stroke
newpath
74000 47670 moveto
73100 46770 lineto
stroke
newpath
73100 46770 moveto
73100 46570 lineto
stroke
newpath
71500 53170 moveto
73000 53170 lineto
stroke
newpath
73500 52670 moveto
74000 52670 lineto
stroke
newpath
73000 53170 moveto
73500 52670 lineto
stroke
newpath
64000 52670 moveto
64500 52170 lineto
stroke
newpath
71500 52670 moveto
71500 53170 lineto
stroke
newpath
71000 52170 moveto
71500 52670 lineto
stroke
newpath
64500 52170 moveto
71000 52170 lineto
stroke
newpath
64000 52670 moveto
64000 50670 lineto
stroke
newpath
64000 50670 moveto
64000 49170 lineto
stroke
newpath
64000 49170 moveto
64000 47670 lineto
stroke
newpath
64000 47670 moveto
63100 46770 lineto
stroke
newpath
63100 46770 moveto
63100 46570 lineto
stroke
newpath
61500 53170 moveto
63000 53170 lineto
stroke
newpath
63500 52670 moveto
64000 52670 lineto
stroke
newpath
63000 53170 moveto
63500 52670 lineto
stroke
newpath
54000 52670 moveto
54500 52170 lineto
stroke
newpath
61500 52670 moveto
61500 53170 lineto
stroke
newpath
61000 52170 moveto
61500 52670 lineto
stroke
newpath
54500 52170 moveto
61000 52170 lineto
stroke
newpath
54000 52670 moveto
54000 50670 lineto
stroke
newpath
54000 49170 moveto
54000 47670 lineto
stroke
newpath
54000 47670 moveto
53100 46770 lineto
stroke
newpath
53100 46770 moveto
53100 46570 lineto
stroke
newpath
51500 53170 moveto
53000 53170 lineto
stroke
newpath
53500 52670 moveto
54000 52670 lineto
stroke
newpath
53000 53170 moveto
53500 52670 lineto
stroke
newpath
44000 50670 moveto
44000 49170 lineto
stroke
newpath
44000 49170 moveto
44000 47670 lineto
stroke
newpath
44000 47670 moveto
43100 46770 lineto
stroke
newpath
43100 46770 moveto
43100 46570 lineto
stroke
newpath
44000 52670 moveto
44000 50670 lineto
stroke
newpath
44000 52670 moveto
44500 52170 lineto
stroke
newpath
51500 52670 moveto
51500 53170 lineto
stroke
newpath
51000 52170 moveto
51500 52670 lineto
stroke
newpath
44500 52170 moveto
51000 52170 lineto
stroke
newpath
41500 53170 moveto
43000 53170 lineto
stroke
newpath
43500 52670 moveto
44000 52670 lineto
stroke
newpath
43000 53170 moveto
43500 52670 lineto
stroke
newpath
34000 52670 moveto
34500 52170 lineto
stroke
newpath
41500 52670 moveto
41500 53170 lineto
stroke
newpath
41000 52170 moveto
41500 52670 lineto
stroke
newpath
34500 52170 moveto
41000 52170 lineto
stroke
newpath
31500 53170 moveto
33000 53170 lineto
stroke
newpath
33500 52670 moveto
34000 52670 lineto
stroke
newpath
33000 53170 moveto
33500 52670 lineto
stroke
newpath
24000 52670 moveto
24500 52170 lineto
stroke
newpath
31500 52670 moveto
31500 53170 lineto
stroke
newpath
31000 52170 moveto
31500 52670 lineto
stroke
newpath
24500 52170 moveto
31000 52170 lineto
stroke
newpath
20500 59170 moveto
21500 59170 lineto
stroke
newpath
21500 59170 moveto
22500 58170 lineto
stroke
newpath
22500 58170 moveto
22500 54670 lineto
stroke
newpath
22500 54670 moveto
21500 53670 lineto
stroke
newpath
24000 50670 moveto
24000 52670 lineto
stroke
newpath
23000 53170 moveto
23500 52670 lineto
stroke
newpath
19500 52170 moveto
21000 52170 lineto
stroke
newpath
23000 53170 moveto
21500 53170 lineto
stroke
newpath
21500 52670 moveto
21500 53170 lineto
stroke
newpath
21000 52170 moveto
21500 52670 lineto
stroke
newpath
21500 53670 moveto
21500 53170 lineto
stroke
800 setlinewidth
newpath
25500 47370 moveto
25500 45170 lineto
stroke
newpath
35500 47370 moveto
35500 45170 lineto
stroke
newpath
45500 47370 moveto
45500 45170 lineto
stroke
newpath
55500 47370 moveto
55500 45170 lineto
stroke
newpath
65500 47370 moveto
65500 45670 lineto
stroke
newpath
65500 45670 moveto
65500 45170 lineto
stroke
newpath
75500 47370 moveto
75500 45170 lineto
stroke
newpath
85500 47370 moveto
85500 45170 lineto
stroke
newpath
18000 39670 moveto
18000 41670 lineto
stroke
newpath
95500 46170 moveto
95500 47370 lineto
stroke
newpath
94500 45170 moveto
95500 46170 lineto
stroke
newpath
21500 45170 moveto
25500 45170 lineto
stroke
newpath
25500 45170 moveto
35500 45170 lineto
stroke
newpath
35500 45170 moveto
45500 45170 lineto
stroke
newpath
45500 45170 moveto
55500 45170 lineto
stroke
newpath
55500 45170 moveto
65500 45170 lineto
stroke
newpath
65500 45170 moveto
75500 45170 lineto
stroke
newpath
75500 45170 moveto
85500 45170 lineto
stroke
newpath
85500 45170 moveto
94500 45170 lineto
stroke
newpath
18000 41670 moveto
21500 45170 lineto
stroke
newpath
23500 36670 moveto
23500 34170 lineto
stroke
newpath
33500 36670 moveto
33500 34170 lineto
stroke
newpath
43500 36670 moveto
43500 34170 lineto
stroke
newpath
53500 36670 moveto
53500 34170 lineto
stroke
newpath
63500 36670 moveto
63500 34170 lineto
stroke
newpath
73500 36670 moveto
73500 34170 lineto
stroke
newpath
83500 36670 moveto
83500 34170 lineto
stroke
newpath
18000 35670 moveto
20000 35670 lineto
stroke
newpath
93500 35170 moveto
93500 36670 lineto
stroke
newpath
83500 34170 moveto
92500 34170 lineto
stroke
newpath
92500 34170 moveto
93500 35170 lineto
stroke
newpath
21500 34170 moveto
23500 34170 lineto
stroke
newpath
23500 34170 moveto
33500 34170 lineto
stroke
newpath
33500 34170 moveto
43500 34170 lineto
stroke
newpath
43500 34170 moveto
53500 34170 lineto
stroke
newpath
53500 34170 moveto
63500 34170 lineto
stroke
newpath
63500 34170 moveto
73500 34170 lineto
stroke
newpath
73500 34170 moveto
83500 34170 lineto
stroke
newpath
20000 35670 moveto
21500 34170 lineto
stroke
newpath
55500 36670 moveto
55500 43170 lineto
stroke
newpath
45500 36670 moveto
45500 43170 lineto
stroke
newpath
35500 36670 moveto
35500 43170 lineto
stroke
newpath
25500 36670 moveto
25500 43170 lineto
stroke
newpath
65500 36670 moveto
65500 43170 lineto
stroke
newpath
75500 36670 moveto
75500 43170 lineto
stroke
newpath
85500 36670 moveto
85500 43170 lineto
stroke
newpath
18000 37670 moveto
19500 37670 lineto
stroke
newpath
95500 41670 moveto
95500 36670 lineto
stroke
newpath
94000 43170 moveto
95500 41670 lineto
stroke
newpath
22000 43170 moveto
25500 43170 lineto
stroke
newpath
25500 43170 moveto
35500 43170 lineto
stroke
newpath
35500 43170 moveto
45500 43170 lineto
stroke
newpath
45500 43170 moveto
55500 43170 lineto
stroke
newpath
55500 43170 moveto
65500 43170 lineto
stroke
newpath
65500 43170 moveto
75500 43170 lineto
stroke
newpath
75500 43170 moveto
85500 43170 lineto
stroke
newpath
85500 43170 moveto
94000 43170 lineto
stroke
newpath
20500 41670 moveto
22000 43170 lineto
stroke
newpath
20500 38670 moveto
20500 41670 lineto
stroke
newpath
19500 37670 moveto
20500 38670 lineto
stroke
198 setlinewidth
newpath
63500 58670 moveto
63500 60670 lineto
stroke
newpath
57000 57670 moveto
57500 58170 lineto
stroke
newpath
57500 58170 moveto
63000 58170 lineto
stroke
newpath
63000 58170 moveto
63500 58670 lineto
stroke
newpath
69000 22670 moveto
101000 22670 lineto
stroke
newpath
68500 22170 moveto
69000 22670 lineto
stroke
newpath
64000 65670 moveto
63500 65170 lineto
stroke
newpath
101000 65670 moveto
64000 65670 lineto
stroke
newpath
63500 62170 moveto
63500 65170 lineto
stroke
newpath
68500 22170 moveto
68500 20670 lineto
stroke
newpath
101500 31670 moveto
101500 64670 lineto
stroke
newpath
101500 64670 moveto
101500 65170 lineto
stroke
newpath
101500 65170 moveto
101000 65670 lineto
stroke
newpath
101500 23170 moveto
101500 31670 lineto
stroke
newpath
101000 22670 moveto
101500 23170 lineto
stroke
newpath
67000 15670 moveto
67000 19170 lineto
stroke
newpath
67000 19170 moveto
68500 20670 lineto
stroke
newpath
61500 59670 moveto
61500 60670 lineto
stroke
newpath
37000 57670 moveto
37000 58670 lineto
stroke
newpath
61000 59170 moveto
61500 59670 lineto
stroke
newpath
37000 58670 moveto
37500 59170 lineto
stroke
newpath
37500 59170 moveto
61000 59170 lineto
stroke
newpath
66000 58670 moveto
76000 58670 lineto
stroke
newpath
65500 59170 moveto
66000 58670 lineto
stroke
newpath
76000 58670 moveto
76500 58170 lineto
stroke
newpath
76500 58170 moveto
76500 57670 lineto
stroke
newpath
65500 60670 moveto
65500 59170 lineto
stroke
newpath
67000 50670 moveto
67000 49170 lineto
stroke
newpath
67000 49170 moveto
67000 47670 lineto
stroke
newpath
67000 47670 moveto
67900 46770 lineto
stroke
newpath
67900 46770 moveto
67900 46570 lineto
stroke
800 setlinewidth
newpath
67500 36670 moveto
67500 39170 lineto
stroke
newpath
67900 39570 moveto
67900 41770 lineto
stroke
newpath
67500 39170 moveto
67900 39570 lineto
stroke
198 setlinewidth
newpath
48500 23170 moveto
49000 23670 lineto
stroke
newpath
48500 20670 moveto
48500 23170 lineto
stroke
newpath
100500 64170 moveto
100000 64670 lineto
stroke
newpath
100500 32670 moveto
100500 64170 lineto
stroke
newpath
100000 64670 moveto
66000 64670 lineto
stroke
newpath
66000 64670 moveto
65500 64170 lineto
stroke
newpath
65500 64170 moveto
65500 62170 lineto
stroke
newpath
100500 24170 moveto
100500 32670 lineto
stroke
newpath
100000 23670 moveto
100500 24170 lineto
stroke
newpath
49000 23670 moveto
100000 23670 lineto
stroke
newpath
47000 15670 moveto
47000 19170 lineto
stroke
newpath
47000 19170 moveto
48500 20670 lineto
stroke
newpath
87000 57670 moveto
87000 58670 lineto
stroke
newpath
67000 59170 moveto
66500 59670 lineto
stroke
newpath
87000 58670 moveto
86500 59170 lineto
stroke
newpath
86500 59170 moveto
67000 59170 lineto
stroke
newpath
66500 59670 moveto
66500 60670 lineto
stroke
newpath
64500 60670 moveto
64500 58670 lineto
stroke
newpath
66500 58170 moveto
67000 57670 lineto
stroke
newpath
65000 58170 moveto
66500 58170 lineto
stroke
newpath
64500 58670 moveto
65000 58170 lineto
stroke
800 setlinewidth
newpath
77500 36670 moveto
77500 39170 lineto
stroke
newpath
77900 39570 moveto
77900 41770 lineto
stroke
newpath
77500 39170 moveto
77900 39570 lineto
stroke
198 setlinewidth
newpath
71000 56170 moveto
70500 55670 lineto
stroke
newpath
70500 55670 moveto
70500 53170 lineto
stroke
newpath
74500 53170 moveto
76000 53170 lineto
stroke
newpath
76500 53670 moveto
76500 54670 lineto
stroke
newpath
76000 53170 moveto
76500 53670 lineto
stroke
newpath
77000 50670 moveto
77000 49170 lineto
stroke
newpath
77000 49170 moveto
77000 47670 lineto
stroke
newpath
77000 47670 moveto
77900 46770 lineto
stroke
newpath
77900 46770 moveto
77900 46570 lineto
stroke
newpath
64500 53170 moveto
66500 53170 lineto
stroke
newpath
67000 53670 moveto
67000 54670 lineto
stroke
newpath
66500 53170 moveto
67000 53670 lineto
stroke
newpath
60500 53170 moveto
60500 55670 lineto
stroke
newpath
60500 55670 moveto
61000 56170 lineto
stroke
800 setlinewidth
newpath
27500 36670 moveto
27500 39170 lineto
stroke
newpath
27900 39570 moveto
27900 41770 lineto
stroke
newpath
27500 39170 moveto
27900 39570 lineto
stroke
198 setlinewidth
newpath
24500 53170 moveto
26000 53170 lineto
stroke
newpath
26500 53670 moveto
26500 54670 lineto
stroke
newpath
26000 53170 moveto
26500 53670 lineto
stroke
newpath
28500 24170 moveto
29000 24670 lineto
stroke
newpath
67500 62170 moveto
67500 63170 lineto
stroke
newpath
68000 63670 moveto
67500 63170 lineto
stroke
newpath
99000 63670 moveto
68000 63670 lineto
stroke
newpath
28500 24170 moveto
28500 20670 lineto
stroke
newpath
99500 33670 moveto
99500 63170 lineto
stroke
newpath
99500 63170 moveto
99000 63670 lineto
stroke
newpath
99500 25170 moveto
99500 33670 lineto
stroke
newpath
99000 24670 moveto
99500 25170 lineto
stroke
newpath
29000 24670 moveto
99000 24670 lineto
stroke
newpath
27000 15670 moveto
27000 19170 lineto
stroke
newpath
27000 19170 moveto
28500 20670 lineto
stroke
newpath
20500 53170 moveto
20500 55670 lineto
stroke
newpath
20500 55670 moveto
21000 56170 lineto
stroke
newpath
27000 50670 moveto
27000 49170 lineto
stroke
newpath
27000 49170 moveto
27000 47670 lineto
stroke
newpath
27000 47670 moveto
27900 46770 lineto
stroke
newpath
27900 46770 moveto
27900 46570 lineto
stroke
newpath
37000 49170 moveto
37000 47670 lineto
stroke
newpath
37000 47670 moveto
37900 46770 lineto
stroke
newpath
37900 46770 moveto
37900 46570 lineto
stroke
newpath
37000 50670 moveto
37000 49170 lineto
stroke
800 setlinewidth
newpath
37500 36670 moveto
37500 39170 lineto
stroke
newpath
37900 39570 moveto
37900 41770 lineto
stroke
newpath
37500 39170 moveto
37900 39570 lineto
stroke
198 setlinewidth
newpath
34500 53170 moveto
35500 53170 lineto
stroke
newpath
35500 53170 moveto
36500 53170 lineto
stroke
newpath
37000 53670 moveto
37000 54670 lineto
stroke
newpath
36500 53170 moveto
37000 53670 lineto
stroke
newpath
30500 55670 moveto
31000 56170 lineto
stroke
newpath
30500 53170 moveto
30500 55670 lineto
stroke
newpath
44500 53170 moveto
46500 53170 lineto
stroke
newpath
47000 53670 moveto
47000 54670 lineto
stroke
newpath
46500 53170 moveto
47000 53670 lineto
stroke
newpath
47000 57670 moveto
47000 58170 lineto
stroke
newpath
47500 58670 moveto
62000 58670 lineto
stroke
newpath
47000 58170 moveto
47500 58670 lineto
stroke
newpath
62000 58670 moveto
62500 59170 lineto
stroke
newpath
62500 59170 moveto
62500 60670 lineto
stroke
newpath
41000 56170 moveto
40500 55670 lineto
stroke
newpath
40500 55670 moveto
40500 53170 lineto
stroke
800 setlinewidth
newpath
47900 41770 moveto
47900 39770 lineto
stroke
newpath
47500 39370 moveto
47500 36670 lineto
stroke
newpath
47900 39770 moveto
47500 39370 lineto
stroke
198 setlinewidth
newpath
26500 57670 moveto
26500 59170 lineto
stroke
newpath
60500 60170 moveto
60500 60670 lineto
stroke
newpath
60000 59670 moveto
60500 60170 lineto
stroke
newpath
26500 59170 moveto
27000 59670 lineto
stroke
newpath
27000 59670 moveto
60000 59670 lineto
stroke
newpath
90500 53170 moveto
90500 55670 lineto
stroke
newpath
90500 55670 moveto
91000 56170 lineto
stroke
newpath
97000 57670 moveto
97000 59170 lineto
stroke
newpath
96500 59670 moveto
68000 59670 lineto
stroke
newpath
97000 59170 moveto
96500 59670 lineto
stroke
newpath
68000 59670 moveto
67500 60170 lineto
stroke
newpath
67500 60170 moveto
67500 60670 lineto
stroke
800 setlinewidth
newpath
87500 36670 moveto
87500 39170 lineto
stroke
newpath
87900 39570 moveto
87900 41770 lineto
stroke
newpath
87500 39170 moveto
87900 39570 lineto
stroke
198 setlinewidth
newpath
94500 53170 moveto
96500 53170 lineto
stroke
newpath
97000 53670 moveto
97000 54670 lineto
stroke
newpath
96500 53170 moveto
97000 53670 lineto
stroke
newpath
80500 53170 moveto
80500 55670 lineto
stroke
newpath
80500 55670 moveto
81000 56170 lineto
stroke
newpath
84500 53170 moveto
86500 53170 lineto
stroke
newpath
87000 53670 moveto
87000 54670 lineto
stroke
newpath
86500 53170 moveto
87000 53670 lineto
stroke
newpath
54500 53170 moveto
56500 53170 lineto
stroke
newpath
57000 53670 moveto
57000 54670 lineto
stroke
newpath
56500 53170 moveto
57000 53670 lineto
stroke
newpath
64000 56170 moveto
69500 56170 lineto
stroke
newpath
74000 56670 moveto
74000 56170 lineto
stroke
newpath
73500 57170 moveto
74000 56670 lineto
stroke
newpath
70500 57170 moveto
73500 57170 lineto
stroke
newpath
69500 56170 moveto
70500 57170 lineto
stroke
newpath
24000 56170 moveto
29000 56170 lineto
stroke
newpath
33500 57170 moveto
34000 56670 lineto
stroke
newpath
34000 56670 moveto
34000 56170 lineto
stroke
newpath
30000 57170 moveto
33500 57170 lineto
stroke
newpath
29000 56170 moveto
30000 57170 lineto
stroke
newpath
24000 56170 moveto
24000 53670 lineto
stroke
newpath
24000 56170 moveto
24000 60170 lineto
stroke
newpath
23500 60670 moveto
20500 60670 lineto
stroke
newpath
24000 60170 moveto
23500 60670 lineto
stroke
newpath
19500 62670 moveto
19500 61670 lineto
stroke
newpath
19000 56170 moveto
19000 61170 lineto
stroke
newpath
19500 61670 moveto
19000 61170 lineto
stroke
newpath
94000 56170 moveto
94000 53670 lineto
stroke
newpath
84000 56170 moveto
89500 56170 lineto
stroke
newpath
89500 56170 moveto
90500 57170 lineto
stroke
newpath
90500 57170 moveto
93500 57170 lineto
stroke
newpath
93500 57170 moveto
94000 56670 lineto
stroke
newpath
94000 56670 moveto
94000 56170 lineto
stroke
newpath
84000 53670 moveto
84000 56170 lineto
stroke
newpath
74000 56170 moveto
79500 56170 lineto
stroke
newpath
79500 56170 moveto
80500 57170 lineto
stroke
newpath
80500 57170 moveto
83500 57170 lineto
stroke
newpath
84000 56670 moveto
84000 56170 lineto
stroke
newpath
83500 57170 moveto
84000 56670 lineto
stroke
newpath
74000 56170 moveto
74000 53670 lineto
stroke
newpath
64000 53670 moveto
64000 56170 lineto
stroke
newpath
54000 56170 moveto
59500 56170 lineto
stroke
newpath
59500 56170 moveto
60500 57170 lineto
stroke
newpath
60500 57170 moveto
63500 57170 lineto
stroke
newpath
64000 56670 moveto
64000 56170 lineto
stroke
newpath
63500 57170 moveto
64000 56670 lineto
stroke
newpath
54000 56170 moveto
54000 53670 lineto
stroke
newpath
54000 56170 moveto
54000 56670 lineto
stroke
newpath
53500 57170 moveto
50500 57170 lineto
stroke
newpath
54000 56670 moveto
53500 57170 lineto
stroke
newpath
44000 56170 moveto
49500 56170 lineto
stroke
newpath
49500 56170 moveto
50500 57170 lineto
stroke
newpath
44000 56170 moveto
44000 53670 lineto
stroke
newpath
34000 56170 moveto
39500 56170 lineto
stroke
newpath
39500 56170 moveto
40500 57170 lineto
stroke
newpath
40500 57170 moveto
43500 57170 lineto
stroke
newpath
43500 57170 moveto
44000 56670 lineto
stroke
newpath
44000 56670 moveto
44000 56170 lineto
stroke
newpath
34000 53670 moveto
34000 56170 lineto
stroke
newpath
19500 62670 moveto
20000 62670 lineto
stroke
newpath
20500 62170 moveto
20500 60670 lineto
stroke
newpath
20000 62670 moveto
20500 62170 lineto
stroke
newpath
50500 55670 moveto
51000 56170 lineto
stroke
newpath
50500 53170 moveto
50500 55670 lineto
stroke
newpath
57000 50670 moveto
57000 49170 lineto
stroke
newpath
57000 49170 moveto
57000 47670 lineto
stroke
newpath
57000 47670 moveto
57900 46770 lineto
stroke
newpath
57900 46770 moveto
57900 46570 lineto
stroke
newpath
47000 50670 moveto
47000 49170 lineto
stroke
newpath
47000 49170 moveto
47000 47670 lineto
stroke
newpath
47000 47670 moveto
47900 46770 lineto
stroke
newpath
47900 46770 moveto
47900 46570 lineto
stroke
newpath
97000 49170 moveto
97000 47670 lineto
stroke
newpath
97900 46770 moveto
97900 46570 lineto
stroke
newpath
97000 47670 moveto
97900 46770 lineto
stroke
newpath
97000 50670 moveto
97000 49170 lineto
stroke
800 setlinewidth
newpath
57500 36670 moveto
57500 39170 lineto
stroke
newpath
57900 39570 moveto
57900 41770 lineto
stroke
newpath
57500 39170 moveto
57900 39570 lineto
stroke
198 setlinewidth
newpath
102000 31170 moveto
102000 22670 lineto
stroke
newpath
78500 21670 moveto
79000 22170 lineto
stroke
newpath
79000 22170 moveto
101500 22170 lineto
stroke
newpath
63000 66170 moveto
62500 65670 lineto
stroke
newpath
101500 66170 moveto
63000 66170 lineto
stroke
newpath
62500 62170 moveto
62500 65670 lineto
stroke
newpath
78500 21670 moveto
78500 20670 lineto
stroke
newpath
102000 31170 moveto
102000 65670 lineto
stroke
newpath
102000 65670 moveto
101500 66170 lineto
stroke
newpath
102000 22670 moveto
101500 22170 lineto
stroke
newpath
77000 15670 moveto
77000 19170 lineto
stroke
newpath
77000 19170 moveto
78500 20670 lineto
stroke
newpath
87000 50670 moveto
87000 49170 lineto
stroke
newpath
87000 49170 moveto
87000 47670 lineto
stroke
newpath
87000 47670 moveto
87900 46770 lineto
stroke
newpath
87900 46770 moveto
87900 46570 lineto
stroke
newpath
102500 30670 moveto
102500 22170 lineto
stroke
newpath
88500 21170 moveto
89000 21670 lineto
stroke
newpath
89000 21670 moveto
102000 21670 lineto
stroke
newpath
62000 66670 moveto
61500 66170 lineto
stroke
newpath
102000 66670 moveto
62000 66670 lineto
stroke
newpath
61500 62170 moveto
61500 66170 lineto
stroke
newpath
88500 21170 moveto
88500 20670 lineto
stroke
newpath
102500 30670 moveto
102500 66170 lineto
stroke
newpath
102500 66170 moveto
102000 66670 lineto
stroke
newpath
102500 22170 moveto
102000 21670 lineto
stroke
newpath
87000 15670 moveto
87000 19170 lineto
stroke
newpath
87000 19170 moveto
88500 20670 lineto
stroke
newpath
58500 22670 moveto
59000 23170 lineto
stroke
newpath
58500 20670 moveto
58500 22670 lineto
stroke
newpath
64500 64670 moveto
64500 62170 lineto
stroke
newpath
100500 65170 moveto
65000 65170 lineto
stroke
newpath
65000 65170 moveto
64500 64670 lineto
stroke
newpath
101000 32170 moveto
101000 64670 lineto
stroke
newpath
101000 64670 moveto
100500 65170 lineto
stroke
newpath
101000 23670 moveto
101000 32170 lineto
stroke
newpath
100500 23170 moveto
101000 23670 lineto
stroke
newpath
59000 23170 moveto
100500 23170 lineto
stroke
newpath
57000 15670 moveto
57000 19170 lineto
stroke
newpath
57000 19170 moveto
58500 20670 lineto
stroke
newpath
38500 23670 moveto
39000 24170 lineto
stroke
newpath
38500 20670 moveto
38500 23670 lineto
stroke
newpath
66500 63670 moveto
66500 62170 lineto
stroke
newpath
67000 64170 moveto
66500 63670 lineto
stroke
newpath
99500 64170 moveto
67000 64170 lineto
stroke
newpath
100000 33170 moveto
100000 63670 lineto
stroke
newpath
100000 63670 moveto
99500 64170 lineto
stroke
newpath
100000 24670 moveto
100000 33170 lineto
stroke
newpath
99500 24170 moveto
100000 24670 lineto
stroke
newpath
39000 24170 moveto
99500 24170 lineto
stroke
newpath
37000 15670 moveto
37000 19170 lineto
stroke
newpath
37000 19170 moveto
38500 20670 lineto
stroke
800 setlinewidth
newpath
97500 36670 moveto
97500 39170 lineto
stroke
newpath
97900 39570 moveto
97900 41770 lineto
stroke
newpath
97500 39170 moveto
97900 39570 lineto
stroke
198 setlinewidth
newpath
102500 21170 moveto
103000 21670 lineto
stroke
newpath
99000 21170 moveto
102500 21170 lineto
stroke
newpath
98500 20670 moveto
99000 21170 lineto
stroke
newpath
103000 21670 moveto
103000 30170 lineto
stroke
newpath
103000 66670 moveto
102500 67170 lineto
stroke
newpath
102500 67170 moveto
61000 67170 lineto
stroke
newpath
61000 67170 moveto
60500 66670 lineto
stroke
newpath
60500 66670 moveto
60500 62170 lineto
stroke
newpath
103000 30170 moveto
103000 66670 lineto
stroke
newpath
97000 15670 moveto
97000 19170 lineto
stroke
newpath
97000 19170 moveto
98500 20670 lineto
stroke
80 setlinewidth
newpath
97000 19170 moveto
98500 20670 lineto
stroke
1 1 1 setrgbcolor
60 setlinewidth
57900 46570 45 cir1
53100 46570 45 cir1
57900 41770 45 cir1
53100 41770 45 cir1
55500 47370 45 cir1
47900 46570 45 cir1
43100 46570 45 cir1
47900 41770 45 cir1
43100 41770 45 cir1
45500 47370 45 cir1
37900 46570 45 cir1
33100 46570 45 cir1
37900 41770 45 cir1
33100 41770 45 cir1
35500 47370 45 cir1
19000 56170 45 cir1
19000 55170 45 cir1
60500 60670 45 cir1
61500 60670 45 cir1
62500 60670 45 cir1
63500 60670 45 cir1
64500 60670 45 cir1
65500 60670 45 cir1
66500 60670 45 cir1
67500 60670 45 cir1
67500 62170 45 cir1
66500 62170 45 cir1
65500 62170 45 cir1
64500 62170 45 cir1
63500 62170 45 cir1
62500 62170 45 cir1
61500 62170 45 cir1
60500 62170 45 cir1
22500 20670 45 cir1
28500 20670 45 cir1
25500 17670 45 cir1
32500 20670 45 cir1
38500 20670 45 cir1
35500 17670 45 cir1
42500 20670 45 cir1
48500 20670 45 cir1
45500 17670 45 cir1
52500 20670 45 cir1
58500 20670 45 cir1
55500 17670 45 cir1
62500 20670 45 cir1
68500 20670 45 cir1
65500 17670 45 cir1
72500 20670 45 cir1
78500 20670 45 cir1
75500 17670 45 cir1
82500 20670 45 cir1
88500 20670 45 cir1
85500 17670 45 cir1
92500 20670 45 cir1
98500 20670 45 cir1
95500 17670 45 cir1
83500 36670 45 cir1
85500 36670 45 cir1
87500 36670 45 cir1
93500 36670 45 cir1
95500 36670 45 cir1
97500 36670 45 cir1
73500 36670 45 cir1
75500 36670 45 cir1
77500 36670 45 cir1
63500 36670 45 cir1
65500 36670 45 cir1
67500 36670 45 cir1
53500 36670 45 cir1
55500 36670 45 cir1
57500 36670 45 cir1
43500 36670 45 cir1
45500 36670 45 cir1
47500 36670 45 cir1
33500 36670 45 cir1
35500 36670 45 cir1
37500 36670 45 cir1
23500 36670 45 cir1
25500 36670 45 cir1
27500 36670 45 cir1
18000 35670 45 cir1
18000 37670 45 cir1
18000 39670 45 cir1
18500 62670 45 cir1
19500 62670 45 cir1
97000 50670 45 cir1
94000 50670 45 cir1
27000 50670 45 cir1
24000 50670 45 cir1
87000 50670 45 cir1
84000 50670 45 cir1
37000 50670 45 cir1
34000 50670 45 cir1
77000 50670 45 cir1
74000 50670 45 cir1
47000 50670 45 cir1
44000 50670 45 cir1
67000 50670 45 cir1
64000 50670 45 cir1
57000 50670 45 cir1
54000 50670 45 cir1
67900 46570 45 cir1
63100 46570 45 cir1
67900 41770 45 cir1
63100 41770 45 cir1
65500 47370 45 cir1
77900 46570 45 cir1
73100 46570 45 cir1
77900 41770 45 cir1
73100 41770 45 cir1
75500 47370 45 cir1
87900 46570 45 cir1
83100 46570 45 cir1
87900 41770 45 cir1
83100 41770 45 cir1
85500 47370 45 cir1
97900 46570 45 cir1
93100 46570 45 cir1
97900 41770 45 cir1
93100 41770 45 cir1
95500 47370 45 cir1
20500 53170 45 cir1
21500 53170 45 cir1
90500 53170 45 cir1
91500 53170 45 cir1
30500 53170 45 cir1
31500 53170 45 cir1
80500 53170 45 cir1
81500 53170 45 cir1
40500 53170 45 cir1
41500 53170 45 cir1
70500 53170 45 cir1
71500 53170 45 cir1
50500 53170 45 cir1
51500 53170 45 cir1
60500 53170 45 cir1
61500 53170 45 cir1
76500 57670 45 cir1
76500 54670 45 cir1
81000 56170 45 cir1
84000 56170 45 cir1
87000 49170 45 cir1
84000 49170 45 cir1
77000 15670 45 cir1
74000 15670 45 cir1
87000 15670 45 cir1
84000 15670 45 cir1
87000 57670 45 cir1
87000 54670 45 cir1
91000 56170 45 cir1
94000 56170 45 cir1
77000 49170 45 cir1
74000 49170 45 cir1
97000 49170 45 cir1
94000 49170 45 cir1
97000 15670 45 cir1
94000 15670 45 cir1
97000 57670 45 cir1
97000 54670 45 cir1
37000 15670 45 cir1
34000 15670 45 cir1
37000 49170 45 cir1
34000 49170 45 cir1
31000 56170 45 cir1
34000 56170 45 cir1
26500 57670 45 cir1
26500 54670 45 cir1
27000 15670 45 cir1
24000 15670 45 cir1
27000 49170 45 cir1
24000 49170 45 cir1
21000 56170 45 cir1
24000 56170 45 cir1
17500 60670 45 cir1
20500 60670 45 cir1
20500 59170 45 cir1
17500 59170 45 cir1
37000 57670 45 cir1
37000 54670 45 cir1
41000 56170 45 cir1
44000 56170 45 cir1
67000 57670 45 cir1
67000 54670 45 cir1
67000 15670 45 cir1
64000 15670 45 cir1
67000 49170 45 cir1
64000 49170 45 cir1
61000 56170 45 cir1
64000 56170 45 cir1
57000 57670 45 cir1
57000 54670 45 cir1
57000 15670 45 cir1
54000 15670 45 cir1
57000 49170 45 cir1
54000 49170 45 cir1
51000 56170 45 cir1
54000 56170 45 cir1
47000 57670 45 cir1
47000 54670 45 cir1
47000 15670 45 cir1
44000 15670 45 cir1
71000 56170 45 cir1
74000 56170 45 cir1
47000 49170 45 cir1
44000 49170 45 cir1
94500 53170 45 cir1
94000 53670 45 cir1
94000 52670 45 cir1
84500 53170 45 cir1
84000 53670 45 cir1
84000 52670 45 cir1
74500 53170 45 cir1
74000 53670 45 cir1
74000 52670 45 cir1
64500 53170 45 cir1
64000 53670 45 cir1
64000 52670 45 cir1
54500 53170 45 cir1
54000 53670 45 cir1
54000 52670 45 cir1
44500 53170 45 cir1
44000 53670 45 cir1
44000 52670 45 cir1
34500 53170 45 cir1
34000 53670 45 cir1
34000 52670 45 cir1
24500 53170 45 cir1
24000 53670 45 cir1
24000 52670 45 cir1
27900 46570 45 cir1
23100 46570 45 cir1
27900 41770 45 cir1
23100 41770 45 cir1
25500 47370 45 cir1
0 0 0 setrgbcolor
showpage
grestore
%%EOF
