EESchema Schematic File Version 2  date lun. 17 oct. 2011 18:30:02 CEST
LIBS:power
LIBS:device
LIBS:transistors
LIBS:conn
LIBS:linear
LIBS:regul
LIBS:74xx
LIBS:cmos4000
LIBS:adc-dac
LIBS:memory
LIBS:xilinx
LIBS:special
LIBS:microcontrollers
LIBS:dsp
LIBS:microchip
LIBS:analog_switches
LIBS:motorola
LIBS:texas
LIBS:intel
LIBS:audio
LIBS:interface
LIBS:digital-audio
LIBS:philips
LIBS:display
LIBS:cypress
LIBS:siliconi
LIBS:opto
LIBS:atmel
LIBS:contrib
LIBS:valves
LIBS:ac1005
LIBS:g5la-1
LIBS:duinoplug-cache
EELAYER 25  0
EELAYER END
$Descr A4 11700 8267
encoding utf-8
Sheet 1 1
Title ""
Date "17 oct 2011"
Rev ""
Comp ""
Comment1 ""
Comment2 ""
Comment3 ""
Comment4 ""
$EndDescr
Wire Wire Line
	4400 1750 4400 1850
Wire Wire Line
	4600 1750 4600 2650
Wire Wire Line
	4800 1750 4800 2150
Wire Wire Line
	5000 1750 5000 1950
Wire Wire Line
	6050 1750 6050 1800
Wire Wire Line
	6050 1800 11000 1800
Wire Wire Line
	11000 1800 11000 4800
Wire Wire Line
	8500 2000 8500 4800
Wire Wire Line
	8500 2000 5850 2000
Wire Wire Line
	5850 2000 5850 1750
Wire Wire Line
	6000 2200 6000 4800
Wire Wire Line
	6000 2200 5650 2200
Wire Wire Line
	5650 2200 5650 1750
Wire Wire Line
	5450 1750 5450 2000
Wire Wire Line
	5450 2000 3500 2000
Wire Wire Line
	3500 2000 3500 4800
Wire Wire Line
	5850 2250 4700 2250
Wire Wire Line
	5850 2250 5850 2650
Wire Wire Line
	8350 2050 4900 2050
Wire Wire Line
	8350 2050 8350 2650
Wire Wire Line
	10850 2650 10850 1850
Wire Wire Line
	10850 1850 5100 1850
Wire Wire Line
	4400 1850 2100 1850
Wire Wire Line
	2100 1850 2100 2650
Wire Wire Line
	600  2950 600  3750
Wire Wire Line
	600  3750 550  3750
Wire Wire Line
	550  3750 550  7050
Connection ~ 10100 2900
Connection ~ 10100 2500
Wire Wire Line
	10100 2900 10100 2500
Connection ~ 7600 2900
Connection ~ 7600 2500
Wire Wire Line
	7600 2900 7600 2500
Connection ~ 5100 2900
Connection ~ 5100 2500
Wire Wire Line
	5100 2900 5100 2500
Connection ~ 2600 2900
Connection ~ 2600 2500
Wire Wire Line
	2600 2900 2600 2500
Wire Wire Line
	1150 6400 10250 6400
Wire Wire Line
	1150 6200 10150 6200
Wire Wire Line
	9850 6050 1100 6050
Connection ~ 3600 6050
Wire Wire Line
	3600 6050 3600 4750
Connection ~ 6100 6050
Wire Wire Line
	6100 6050 6100 4750
Connection ~ 7350 6050
Wire Wire Line
	7350 6050 7350 4750
Connection ~ 9850 6050
Wire Wire Line
	9850 6050 9850 4750
Connection ~ 8650 6100
Wire Wire Line
	8650 6100 8650 3950
Connection ~ 6150 6100
Wire Wire Line
	6150 6100 6150 3950
Connection ~ 7750 6400
Connection ~ 9000 6400
Connection ~ 8900 6200
Connection ~ 10250 6400
Connection ~ 6500 6400
Connection ~ 6400 6200
Connection ~ 5300 6300
Connection ~ 3900 6200
Connection ~ 4000 6400
Connection ~ 2800 6300
Connection ~ 4900 6100
Wire Wire Line
	4900 6100 4900 3950
Connection ~ 2400 6100
Wire Wire Line
	2400 6100 2400 3950
Connection ~ 6450 3850
Wire Wire Line
	6450 3850 6350 3850
Wire Wire Line
	6350 3850 6350 3950
Wire Wire Line
	6350 3950 6150 3950
Wire Wire Line
	6100 4750 6550 4750
Wire Wire Line
	6500 6400 6500 5400
Wire Wire Line
	6400 6200 6400 3950
Wire Wire Line
	6550 4750 6550 4950
Wire Wire Line
	7200 5500 7200 4450
Wire Wire Line
	6800 5550 6800 5450
Wire Wire Line
	7200 5500 6700 5500
Wire Wire Line
	6400 3950 6850 3950
Wire Wire Line
	6300 2950 6300 2900
Wire Wire Line
	6300 2900 6700 2900
Wire Wire Line
	6700 2900 6700 2950
Wire Wire Line
	7000 3150 7100 3150
Connection ~ 6450 3700
Wire Wire Line
	6550 3700 6450 3700
Wire Wire Line
	7000 4050 7150 4050
Wire Wire Line
	7150 4050 7150 3500
Wire Wire Line
	7150 3500 7000 3500
Wire Wire Line
	6600 4050 6450 4050
Wire Wire Line
	6450 4050 6450 3500
Wire Wire Line
	6450 3500 6600 3500
Wire Wire Line
	7050 3700 7150 3700
Connection ~ 7150 3700
Wire Wire Line
	6700 3350 6550 3350
Wire Wire Line
	6550 3350 6550 3500
Connection ~ 6550 3500
Wire Wire Line
	6300 3450 6300 3550
Wire Wire Line
	7200 4450 7000 4450
Wire Wire Line
	6700 5500 6700 5550
Wire Wire Line
	6800 5450 6550 5450
Wire Wire Line
	6900 5550 6900 5400
Wire Wire Line
	6900 5400 6500 5400
Wire Wire Line
	7050 4750 7050 4950
Wire Wire Line
	7050 4800 7250 4800
Connection ~ 7050 4800
Wire Wire Line
	6550 5450 6550 6300
Connection ~ 6300 3950
Wire Wire Line
	6300 3950 6300 3950
Wire Wire Line
	7550 3950 7550 3950
Connection ~ 7550 3950
Wire Wire Line
	7800 6300 7800 5450
Connection ~ 8300 4800
Wire Wire Line
	8500 4800 8300 4800
Wire Wire Line
	8300 4750 8300 4950
Wire Wire Line
	8150 5400 7750 5400
Wire Wire Line
	8150 5400 8150 5550
Wire Wire Line
	7800 5450 8050 5450
Wire Wire Line
	7950 5550 7950 5500
Wire Wire Line
	8250 4450 8450 4450
Wire Wire Line
	7550 3450 7550 3550
Connection ~ 7800 3500
Wire Wire Line
	7800 3500 7800 3350
Wire Wire Line
	7800 3350 7950 3350
Connection ~ 8400 3700
Wire Wire Line
	8300 3700 8400 3700
Wire Wire Line
	7850 3500 7700 3500
Wire Wire Line
	7700 3500 7700 4050
Wire Wire Line
	7700 4050 7850 4050
Wire Wire Line
	8250 3500 8400 3500
Wire Wire Line
	8400 3500 8400 4050
Wire Wire Line
	8400 4050 8250 4050
Wire Wire Line
	7800 3700 7700 3700
Connection ~ 7700 3700
Wire Wire Line
	8250 3150 8350 3150
Wire Wire Line
	7950 2950 7950 2900
Wire Wire Line
	7950 2900 7550 2900
Wire Wire Line
	7550 2900 7550 2950
Wire Wire Line
	8100 3950 7650 3950
Wire Wire Line
	7950 5500 8450 5500
Wire Wire Line
	8050 5450 8050 5550
Wire Wire Line
	8450 5500 8450 4450
Wire Wire Line
	7800 4950 7800 4750
Wire Wire Line
	7650 3950 7650 6200
Wire Wire Line
	7750 5400 7750 6400
Wire Wire Line
	7800 4750 7350 4750
Wire Wire Line
	7600 3950 7400 3950
Wire Wire Line
	7600 3950 7600 3850
Wire Wire Line
	7600 3850 7700 3850
Connection ~ 7700 3850
Wire Wire Line
	8800 3950 8800 3950
Connection ~ 8800 3950
Wire Wire Line
	9050 6300 9050 5450
Connection ~ 9550 4800
Wire Wire Line
	9550 4800 9750 4800
Wire Wire Line
	9550 4750 9550 4950
Wire Wire Line
	9400 5400 9000 5400
Wire Wire Line
	9400 5400 9400 5550
Wire Wire Line
	9050 5450 9300 5450
Wire Wire Line
	9200 5550 9200 5500
Wire Wire Line
	9500 4450 9700 4450
Wire Wire Line
	8800 3450 8800 3550
Connection ~ 9050 3500
Wire Wire Line
	9050 3500 9050 3350
Wire Wire Line
	9050 3350 9200 3350
Connection ~ 9650 3700
Wire Wire Line
	9550 3700 9650 3700
Wire Wire Line
	9100 3500 8950 3500
Wire Wire Line
	8950 3500 8950 4050
Wire Wire Line
	8950 4050 9100 4050
Wire Wire Line
	9500 3500 9650 3500
Wire Wire Line
	9650 3500 9650 4050
Wire Wire Line
	9650 4050 9500 4050
Wire Wire Line
	9050 3700 8950 3700
Connection ~ 8950 3700
Wire Wire Line
	9500 3150 9600 3150
Wire Wire Line
	9200 2950 9200 2900
Wire Wire Line
	9200 2900 8800 2900
Wire Wire Line
	8800 2900 8800 2950
Wire Wire Line
	9350 3950 8900 3950
Wire Wire Line
	9200 5500 9700 5500
Wire Wire Line
	9300 5450 9300 5550
Wire Wire Line
	9700 5500 9700 4450
Wire Wire Line
	9050 4950 9050 4750
Wire Wire Line
	8900 3950 8900 6200
Wire Wire Line
	9000 5400 9000 6400
Wire Wire Line
	9050 4750 8600 4750
Wire Wire Line
	8650 3950 8850 3950
Wire Wire Line
	8850 3950 8850 3850
Wire Wire Line
	8850 3850 8950 3850
Connection ~ 8950 3850
Wire Wire Line
	10050 3950 10050 3950
Connection ~ 10050 3950
Wire Wire Line
	10300 5450 10300 6300
Connection ~ 10800 4800
Wire Wire Line
	11000 4800 10800 4800
Wire Wire Line
	10800 4750 10800 4950
Wire Wire Line
	10650 5400 10250 5400
Wire Wire Line
	10650 5400 10650 5550
Wire Wire Line
	10300 5450 10550 5450
Wire Wire Line
	10450 5550 10450 5500
Wire Wire Line
	10750 4450 10950 4450
Wire Wire Line
	10050 3450 10050 3550
Connection ~ 10300 3500
Wire Wire Line
	10300 3500 10300 3350
Wire Wire Line
	10300 3350 10450 3350
Connection ~ 10900 3700
Wire Wire Line
	10800 3700 10900 3700
Wire Wire Line
	10350 3500 10200 3500
Wire Wire Line
	10200 3500 10200 4050
Wire Wire Line
	10200 4050 10350 4050
Wire Wire Line
	10750 3500 10900 3500
Wire Wire Line
	10900 3500 10900 4050
Wire Wire Line
	10900 4050 10750 4050
Wire Wire Line
	10300 3700 10200 3700
Connection ~ 10200 3700
Wire Wire Line
	10750 3150 10850 3150
Wire Wire Line
	10450 2950 10450 2900
Wire Wire Line
	10450 2900 10050 2900
Wire Wire Line
	10050 2900 10050 2950
Wire Wire Line
	10600 3950 10150 3950
Wire Wire Line
	10450 5500 10950 5500
Wire Wire Line
	10550 5450 10550 5550
Wire Wire Line
	10950 5500 10950 4450
Wire Wire Line
	10300 4950 10300 4750
Wire Wire Line
	10150 3950 10150 6200
Wire Wire Line
	10250 5400 10250 6400
Wire Wire Line
	10300 4750 9850 4750
Wire Wire Line
	10100 3950 9900 3950
Wire Wire Line
	10100 3950 10100 3850
Wire Wire Line
	10100 3850 10200 3850
Connection ~ 10200 3850
Connection ~ 5200 3850
Wire Wire Line
	5200 3850 5100 3850
Wire Wire Line
	5100 3850 5100 3950
Wire Wire Line
	5100 3950 4900 3950
Wire Wire Line
	5300 4750 4850 4750
Wire Wire Line
	5250 6400 5250 5400
Wire Wire Line
	5150 6200 5150 3950
Wire Wire Line
	5300 4750 5300 4950
Wire Wire Line
	5950 5500 5950 4450
Wire Wire Line
	5550 5550 5550 5450
Wire Wire Line
	5950 5500 5450 5500
Wire Wire Line
	5150 3950 5600 3950
Wire Wire Line
	5050 2950 5050 2900
Wire Wire Line
	5050 2900 5450 2900
Wire Wire Line
	5450 2900 5450 2950
Wire Wire Line
	5750 3150 5850 3150
Connection ~ 5200 3700
Wire Wire Line
	5300 3700 5200 3700
Wire Wire Line
	5750 4050 5900 4050
Wire Wire Line
	5900 4050 5900 3500
Wire Wire Line
	5900 3500 5750 3500
Wire Wire Line
	5350 4050 5200 4050
Wire Wire Line
	5200 4050 5200 3500
Wire Wire Line
	5200 3500 5350 3500
Wire Wire Line
	5800 3700 5900 3700
Connection ~ 5900 3700
Wire Wire Line
	5450 3350 5300 3350
Wire Wire Line
	5300 3350 5300 3500
Connection ~ 5300 3500
Wire Wire Line
	5050 3450 5050 3550
Wire Wire Line
	5950 4450 5750 4450
Wire Wire Line
	5450 5500 5450 5550
Wire Wire Line
	5550 5450 5300 5450
Wire Wire Line
	5650 5550 5650 5400
Wire Wire Line
	5650 5400 5250 5400
Wire Wire Line
	5800 4750 5800 4950
Wire Wire Line
	6000 4800 5800 4800
Connection ~ 5800 4800
Wire Wire Line
	5300 5450 5300 6300
Connection ~ 5050 3950
Wire Wire Line
	5050 3950 5050 3950
Connection ~ 3950 3850
Wire Wire Line
	3950 3850 3850 3850
Wire Wire Line
	3850 3850 3850 3950
Wire Wire Line
	3850 3950 3650 3950
Wire Wire Line
	3600 4750 4050 4750
Wire Wire Line
	4000 6400 4000 5400
Wire Wire Line
	3900 6200 3900 3950
Wire Wire Line
	4050 4750 4050 4950
Wire Wire Line
	4700 5500 4700 4450
Wire Wire Line
	4300 5550 4300 5450
Wire Wire Line
	4700 5500 4200 5500
Wire Wire Line
	3900 3950 4350 3950
Wire Wire Line
	3800 2950 3800 2900
Wire Wire Line
	3800 2900 4200 2900
Wire Wire Line
	4200 2900 4200 2950
Wire Wire Line
	4500 3150 4600 3150
Connection ~ 3950 3700
Wire Wire Line
	4050 3700 3950 3700
Wire Wire Line
	4500 4050 4650 4050
Wire Wire Line
	4650 4050 4650 3500
Wire Wire Line
	4650 3500 4500 3500
Wire Wire Line
	4100 4050 3950 4050
Wire Wire Line
	3950 4050 3950 3500
Wire Wire Line
	3950 3500 4100 3500
Wire Wire Line
	4550 3700 4650 3700
Connection ~ 4650 3700
Wire Wire Line
	4200 3350 4050 3350
Wire Wire Line
	4050 3350 4050 3500
Connection ~ 4050 3500
Wire Wire Line
	3800 3450 3800 3550
Wire Wire Line
	4700 4450 4500 4450
Wire Wire Line
	4200 5500 4200 5550
Wire Wire Line
	4300 5450 4050 5450
Wire Wire Line
	4400 5550 4400 5400
Wire Wire Line
	4400 5400 4000 5400
Wire Wire Line
	4550 4750 4550 4950
Wire Wire Line
	4550 4800 4750 4800
Connection ~ 4550 4800
Wire Wire Line
	4050 5450 4050 6300
Connection ~ 3800 3950
Wire Wire Line
	3800 3950 3800 3950
Connection ~ 2700 3850
Wire Wire Line
	2700 3850 2600 3850
Wire Wire Line
	2600 3850 2600 3950
Wire Wire Line
	2600 3950 2400 3950
Wire Wire Line
	2800 4750 2350 4750
Wire Wire Line
	2750 6400 2750 5400
Wire Wire Line
	2650 6200 2650 3950
Wire Wire Line
	2800 4750 2800 4950
Wire Wire Line
	3450 5500 3450 4450
Wire Wire Line
	3050 5550 3050 5450
Wire Wire Line
	3450 5500 2950 5500
Wire Wire Line
	2650 3950 3100 3950
Wire Wire Line
	2550 2950 2550 2900
Wire Wire Line
	2550 2900 2950 2900
Wire Wire Line
	2950 2900 2950 2950
Wire Wire Line
	3250 3150 3350 3150
Connection ~ 2700 3700
Wire Wire Line
	2800 3700 2700 3700
Wire Wire Line
	3250 4050 3400 4050
Wire Wire Line
	3400 4050 3400 3500
Wire Wire Line
	3400 3500 3250 3500
Wire Wire Line
	2850 4050 2700 4050
Wire Wire Line
	2700 4050 2700 3500
Wire Wire Line
	2700 3500 2850 3500
Wire Wire Line
	3300 3700 3400 3700
Connection ~ 3400 3700
Wire Wire Line
	2950 3350 2800 3350
Wire Wire Line
	2800 3350 2800 3500
Connection ~ 2800 3500
Wire Wire Line
	2550 3450 2550 3550
Wire Wire Line
	3450 4450 3250 4450
Wire Wire Line
	2950 5500 2950 5550
Wire Wire Line
	3050 5450 2800 5450
Wire Wire Line
	3150 5550 3150 5400
Wire Wire Line
	3150 5400 2750 5400
Wire Wire Line
	3300 4750 3300 4950
Wire Wire Line
	3500 4800 3300 4800
Connection ~ 3300 4800
Wire Wire Line
	2800 5450 2800 6300
Connection ~ 2550 3950
Wire Wire Line
	2550 3950 2550 3950
Connection ~ 1150 3950
Wire Wire Line
	1150 3100 1150 6100
Wire Wire Line
	1300 3950 1300 3950
Connection ~ 1300 3950
Wire Wire Line
	700  3750 1100 3750
Connection ~ 950  3750
Wire Wire Line
	700  3750 700  3800
Wire Wire Line
	950  4300 550  4300
Wire Wire Line
	1550 6300 1550 5450
Connection ~ 2050 4800
Wire Wire Line
	2050 4800 2250 4800
Wire Wire Line
	2050 4750 2050 4950
Wire Wire Line
	1900 5400 1500 5400
Wire Wire Line
	1900 5400 1900 5550
Wire Wire Line
	1550 5450 1800 5450
Wire Wire Line
	1700 5550 1700 5500
Wire Wire Line
	2000 4450 2200 4450
Connection ~ 1550 6300
Connection ~ 1400 6200
Wire Wire Line
	1300 3450 1300 3550
Connection ~ 1550 3500
Wire Wire Line
	1550 3500 1550 3350
Wire Wire Line
	1550 3350 1700 3350
Connection ~ 2150 3700
Wire Wire Line
	2050 3700 2150 3700
Wire Wire Line
	1600 3500 1450 3500
Wire Wire Line
	1450 3500 1450 4050
Wire Wire Line
	1450 4050 1600 4050
Wire Wire Line
	2000 3500 2150 3500
Wire Wire Line
	2150 3500 2150 4050
Wire Wire Line
	2150 4050 2000 4050
Wire Wire Line
	1550 3700 1450 3700
Connection ~ 1450 3700
Wire Wire Line
	2000 3150 2100 3150
Wire Wire Line
	1700 2950 1700 2900
Wire Wire Line
	1700 2900 1300 2900
Wire Wire Line
	1300 2900 1300 2950
Wire Wire Line
	1850 3950 1400 3950
Connection ~ 1500 6400
Wire Wire Line
	1150 3100 800  3100
Connection ~ 800  3100
Wire Wire Line
	1700 5500 2200 5500
Wire Wire Line
	1800 5450 1800 5550
Wire Wire Line
	2200 5500 2200 4450
Wire Wire Line
	1550 4950 1550 4750
Wire Wire Line
	1400 3950 1400 6200
Wire Wire Line
	1500 5400 1500 6400
Connection ~ 550  4300
Wire Wire Line
	950  3700 950  3800
Wire Wire Line
	700  4200 700  4300
Connection ~ 700  4300
Wire Wire Line
	950  3200 800  3200
Wire Wire Line
	1100 3750 1100 6050
Wire Wire Line
	1550 4750 1100 4750
Connection ~ 1100 4750
Wire Wire Line
	1150 3950 1350 3950
Wire Wire Line
	1350 3950 1350 3850
Wire Wire Line
	1350 3850 1450 3850
Connection ~ 1450 3850
Wire Wire Line
	3650 3950 3650 6100
Connection ~ 3650 6100
Connection ~ 2650 6200
Connection ~ 2750 6400
Connection ~ 4050 6300
Connection ~ 5150 6200
Connection ~ 5250 6400
Connection ~ 6550 6300
Connection ~ 10300 6300
Connection ~ 10150 6200
Connection ~ 9050 6300
Connection ~ 7800 6300
Connection ~ 7650 6200
Wire Wire Line
	7400 3950 7400 6100
Connection ~ 7400 6100
Wire Wire Line
	9900 3950 9900 6100
Connection ~ 9900 6100
Wire Wire Line
	8600 4750 8600 6050
Connection ~ 8600 6050
Wire Wire Line
	4850 4750 4850 6050
Connection ~ 4850 6050
Wire Wire Line
	2350 4750 2350 6050
Connection ~ 2350 6050
Wire Wire Line
	9900 6100 1150 6100
Wire Wire Line
	10300 6300 1150 6300
Wire Wire Line
	550  7050 11100 7050
Wire Wire Line
	11100 7050 11100 2500
Wire Wire Line
	11100 2500 1350 2500
Wire Wire Line
	1350 2500 1350 2900
Connection ~ 1350 2900
Wire Wire Line
	3850 2900 3850 2500
Connection ~ 3850 2500
Connection ~ 3850 2900
Wire Wire Line
	6350 2900 6350 2500
Connection ~ 6350 2500
Connection ~ 6350 2900
Wire Wire Line
	8850 2900 8850 2500
Connection ~ 8850 2500
Connection ~ 8850 2900
Wire Wire Line
	800  3200 800  2950
Wire Wire Line
	3350 1950 4500 1950
Wire Wire Line
	3350 1950 3350 2650
Wire Wire Line
	5000 1950 9600 1950
Wire Wire Line
	9600 1950 9600 2650
Wire Wire Line
	7100 2650 7100 2150
Wire Wire Line
	7100 2150 4800 2150
Wire Wire Line
	2250 4800 2250 1900
Wire Wire Line
	2250 1900 5350 1900
Wire Wire Line
	5350 1900 5350 1750
Wire Wire Line
	4750 4800 4750 2100
Wire Wire Line
	4750 2100 5550 2100
Wire Wire Line
	5550 2100 5550 1750
Wire Wire Line
	5750 1750 5750 2100
Wire Wire Line
	5750 2100 7250 2100
Wire Wire Line
	7250 2100 7250 4800
Wire Wire Line
	5950 1750 5950 1900
Wire Wire Line
	5950 1900 9750 1900
Wire Wire Line
	9750 1900 9750 4800
Wire Wire Line
	5100 1850 5100 1750
Wire Wire Line
	4900 2050 4900 1750
Wire Wire Line
	4700 2250 4700 1750
Wire Wire Line
	4500 1950 4500 1750
$Comp
L CONN_8 P3
U 1 1 4E2D1F80
P 5700 1400
F 0 "P3" V 5650 1400 60  0000 C CNN
F 1 "CONN_8" V 5750 1400 60  0000 C CNN
	1    5700 1400
	0    -1   -1   0   
$EndComp
$Comp
L CONN_8 P2
U 1 1 4E2D1F69
P 4750 1400
F 0 "P2" V 4700 1400 60  0000 C CNN
F 1 "CONN_8" V 4800 1400 60  0000 C CNN
	1    4750 1400
	0    -1   -1   0   
$EndComp
$Comp
L CONN_2 P1
U 1 1 4E2D1DED
P 700 2600
F 0 "P1" V 650 2600 40  0000 C CNN
F 1 "CONN_2" V 750 2600 40  0000 C CNN
	1    700  2600
	0    -1   -1   0   
$EndComp
$Comp
L G5LA-1 K10
U 1 1 4E2C7156
P 6800 4250
F 0 "K10" H 6800 4350 60  0000 C CNN
F 1 "G5LA-1" H 6900 4150 60  0000 C CNN
	1    6800 4250
	0    1    1    0   
$EndComp
$Comp
L AC1005 CC5
U 1 1 4E2C7155
P 6800 5200
F 0 "CC5" H 6800 5300 60  0000 C CNN
F 1 "AC1005" H 6800 5450 60  0000 C CNN
	1    6800 5200
	1    0    0    -1  
$EndComp
$Comp
L R R20
U 1 1 4E2C7154
P 6800 3700
F 0 "R20" V 6880 3700 50  0000 C CNN
F 1 "1k" V 6800 3700 50  0000 C CNN
	1    6800 3700
	0    1    1    0   
$EndComp
$Comp
L DIODE D10
U 1 1 4E2C7153
P 6800 3500
F 0 "D10" H 6800 3600 40  0000 C CNN
F 1 "1N4444" H 6800 3400 40  0000 C CNN
	1    6800 3500
	-1   0    0    1   
$EndComp
$Comp
L NPN Q5
U 1 1 4E2C7152
P 6800 3150
F 0 "Q5" H 6800 3000 50  0000 R CNN
F 1 "NPN" H 6800 3300 50  0000 R CNN
	1    6800 3150
	-1   0    0    1   
$EndComp
$Comp
L R R22
U 1 1 4E2C7151
P 7100 2900
F 0 "R22" V 7180 2900 50  0000 C CNN
F 1 "1k" V 7100 2900 50  0000 C CNN
	1    7100 2900
	1    0    0    -1  
$EndComp
$Comp
L R R19
U 1 1 4E2C714F
P 6300 3200
F 0 "R19" V 6380 3200 50  0000 C CNN
F 1 "1k" V 6300 3200 50  0000 C CNN
	1    6300 3200
	-1   0    0    1   
$EndComp
$Comp
L LED D9
U 1 1 4E2C714E
P 6300 3750
F 0 "D9" H 6300 3850 50  0000 C CNN
F 1 "LED" H 6300 3650 50  0000 C CNN
	1    6300 3750
	0    -1   -1   0   
$EndComp
$Comp
L CONN_3 K11
U 1 1 4E2C714D
P 6800 5900
F 0 "K11" V 6750 5900 50  0000 C CNN
F 1 "CONN_3" V 6850 5900 40  0000 C CNN
	1    6800 5900
	0    1    1    0   
$EndComp
$Comp
L R R21
U 1 1 4E2C714C
P 6800 4750
F 0 "R21" V 6880 4750 50  0000 C CNN
F 1 "100" V 6800 4750 50  0000 C CNN
	1    6800 4750
	0    1    1    0   
$EndComp
NoConn ~ 6600 4450
NoConn ~ 7850 4450
$Comp
L R R25
U 1 1 4E2C714B
P 8050 4750
F 0 "R25" V 8130 4750 50  0000 C CNN
F 1 "100" V 8050 4750 50  0000 C CNN
	1    8050 4750
	0    1    1    0   
$EndComp
$Comp
L CONN_3 K13
U 1 1 4E2C714A
P 8050 5900
F 0 "K13" V 8000 5900 50  0000 C CNN
F 1 "CONN_3" V 8100 5900 40  0000 C CNN
	1    8050 5900
	0    1    1    0   
$EndComp
$Comp
L LED D11
U 1 1 4E2C7149
P 7550 3750
F 0 "D11" H 7550 3850 50  0000 C CNN
F 1 "LED" H 7550 3650 50  0000 C CNN
	1    7550 3750
	0    -1   -1   0   
$EndComp
$Comp
L R R23
U 1 1 4E2C7148
P 7550 3200
F 0 "R23" V 7630 3200 50  0000 C CNN
F 1 "1k" V 7550 3200 50  0000 C CNN
	1    7550 3200
	-1   0    0    1   
$EndComp
$Comp
L R R26
U 1 1 4E2C7146
P 8350 2900
F 0 "R26" V 8430 2900 50  0000 C CNN
F 1 "1k" V 8350 2900 50  0000 C CNN
	1    8350 2900
	1    0    0    -1  
$EndComp
$Comp
L NPN Q6
U 1 1 4E2C7145
P 8050 3150
F 0 "Q6" H 8050 3000 50  0000 R CNN
F 1 "NPN" H 8050 3300 50  0000 R CNN
	1    8050 3150
	-1   0    0    1   
$EndComp
$Comp
L DIODE D12
U 1 1 4E2C7144
P 8050 3500
F 0 "D12" H 8050 3600 40  0000 C CNN
F 1 "1N4444" H 8050 3400 40  0000 C CNN
	1    8050 3500
	-1   0    0    1   
$EndComp
$Comp
L R R24
U 1 1 4E2C7143
P 8050 3700
F 0 "R24" V 8130 3700 50  0000 C CNN
F 1 "1k" V 8050 3700 50  0000 C CNN
	1    8050 3700
	0    1    1    0   
$EndComp
$Comp
L AC1005 CC6
U 1 1 4E2C7142
P 8050 5200
F 0 "CC6" H 8050 5300 60  0000 C CNN
F 1 "AC1005" H 8050 5450 60  0000 C CNN
	1    8050 5200
	1    0    0    -1  
$EndComp
$Comp
L G5LA-1 K12
U 1 1 4E2C7141
P 8050 4250
F 0 "K12" H 8050 4350 60  0000 C CNN
F 1 "G5LA-1" H 8150 4150 60  0000 C CNN
	1    8050 4250
	0    1    1    0   
$EndComp
NoConn ~ 9100 4450
$Comp
L R R29
U 1 1 4E2C7140
P 9300 4750
F 0 "R29" V 9380 4750 50  0000 C CNN
F 1 "100" V 9300 4750 50  0000 C CNN
	1    9300 4750
	0    1    1    0   
$EndComp
$Comp
L CONN_3 K15
U 1 1 4E2C713F
P 9300 5900
F 0 "K15" V 9250 5900 50  0000 C CNN
F 1 "CONN_3" V 9350 5900 40  0000 C CNN
	1    9300 5900
	0    1    1    0   
$EndComp
$Comp
L LED D13
U 1 1 4E2C713E
P 8800 3750
F 0 "D13" H 8800 3850 50  0000 C CNN
F 1 "LED" H 8800 3650 50  0000 C CNN
	1    8800 3750
	0    -1   -1   0   
$EndComp
$Comp
L R R27
U 1 1 4E2C713D
P 8800 3200
F 0 "R27" V 8880 3200 50  0000 C CNN
F 1 "1k" V 8800 3200 50  0000 C CNN
	1    8800 3200
	-1   0    0    1   
$EndComp
$Comp
L R R30
U 1 1 4E2C713B
P 9600 2900
F 0 "R30" V 9680 2900 50  0000 C CNN
F 1 "1k" V 9600 2900 50  0000 C CNN
	1    9600 2900
	1    0    0    -1  
$EndComp
$Comp
L NPN Q7
U 1 1 4E2C713A
P 9300 3150
F 0 "Q7" H 9300 3000 50  0000 R CNN
F 1 "NPN" H 9300 3300 50  0000 R CNN
	1    9300 3150
	-1   0    0    1   
$EndComp
$Comp
L DIODE D14
U 1 1 4E2C7139
P 9300 3500
F 0 "D14" H 9300 3600 40  0000 C CNN
F 1 "1N4444" H 9300 3400 40  0000 C CNN
	1    9300 3500
	-1   0    0    1   
$EndComp
$Comp
L R R28
U 1 1 4E2C7138
P 9300 3700
F 0 "R28" V 9380 3700 50  0000 C CNN
F 1 "1k" V 9300 3700 50  0000 C CNN
	1    9300 3700
	0    1    1    0   
$EndComp
$Comp
L AC1005 CC7
U 1 1 4E2C7137
P 9300 5200
F 0 "CC7" H 9300 5300 60  0000 C CNN
F 1 "AC1005" H 9300 5450 60  0000 C CNN
	1    9300 5200
	1    0    0    -1  
$EndComp
$Comp
L G5LA-1 K14
U 1 1 4E2C7136
P 9300 4250
F 0 "K14" H 9300 4350 60  0000 C CNN
F 1 "G5LA-1" H 9400 4150 60  0000 C CNN
	1    9300 4250
	0    1    1    0   
$EndComp
NoConn ~ 10350 4450
$Comp
L R R33
U 1 1 4E2C7135
P 10550 4750
F 0 "R33" V 10630 4750 50  0000 C CNN
F 1 "100" V 10550 4750 50  0000 C CNN
	1    10550 4750
	0    1    1    0   
$EndComp
$Comp
L CONN_3 K17
U 1 1 4E2C7134
P 10550 5900
F 0 "K17" V 10500 5900 50  0000 C CNN
F 1 "CONN_3" V 10600 5900 40  0000 C CNN
	1    10550 5900
	0    1    1    0   
$EndComp
$Comp
L LED D15
U 1 1 4E2C7133
P 10050 3750
F 0 "D15" H 10050 3850 50  0000 C CNN
F 1 "LED" H 10050 3650 50  0000 C CNN
	1    10050 3750
	0    -1   -1   0   
$EndComp
$Comp
L R R31
U 1 1 4E2C7132
P 10050 3200
F 0 "R31" V 10130 3200 50  0000 C CNN
F 1 "1k" V 10050 3200 50  0000 C CNN
	1    10050 3200
	-1   0    0    1   
$EndComp
$Comp
L R R34
U 1 1 4E2C7130
P 10850 2900
F 0 "R34" V 10930 2900 50  0000 C CNN
F 1 "1k" V 10850 2900 50  0000 C CNN
	1    10850 2900
	1    0    0    -1  
$EndComp
$Comp
L NPN Q8
U 1 1 4E2C712F
P 10550 3150
F 0 "Q8" H 10550 3000 50  0000 R CNN
F 1 "NPN" H 10550 3300 50  0000 R CNN
	1    10550 3150
	-1   0    0    1   
$EndComp
$Comp
L DIODE D16
U 1 1 4E2C712E
P 10550 3500
F 0 "D16" H 10550 3600 40  0000 C CNN
F 1 "1N4444" H 10550 3400 40  0000 C CNN
	1    10550 3500
	-1   0    0    1   
$EndComp
$Comp
L R R32
U 1 1 4E2C712D
P 10550 3700
F 0 "R32" V 10630 3700 50  0000 C CNN
F 1 "1k" V 10550 3700 50  0000 C CNN
	1    10550 3700
	0    1    1    0   
$EndComp
$Comp
L AC1005 CC8
U 1 1 4E2C712C
P 10550 5200
F 0 "CC8" H 10550 5300 60  0000 C CNN
F 1 "AC1005" H 10550 5450 60  0000 C CNN
	1    10550 5200
	1    0    0    -1  
$EndComp
$Comp
L G5LA-1 K16
U 1 1 4E2C712B
P 10550 4250
F 0 "K16" H 10550 4350 60  0000 C CNN
F 1 "G5LA-1" H 10650 4150 60  0000 C CNN
	1    10550 4250
	0    1    1    0   
$EndComp
$Comp
L G5LA-1 K8
U 1 1 4E2C7116
P 5550 4250
F 0 "K8" H 5550 4350 60  0000 C CNN
F 1 "G5LA-1" H 5650 4150 60  0000 C CNN
	1    5550 4250
	0    1    1    0   
$EndComp
$Comp
L AC1005 CC4
U 1 1 4E2C7115
P 5550 5200
F 0 "CC4" H 5550 5300 60  0000 C CNN
F 1 "AC1005" H 5550 5450 60  0000 C CNN
	1    5550 5200
	1    0    0    -1  
$EndComp
$Comp
L R R16
U 1 1 4E2C7114
P 5550 3700
F 0 "R16" V 5630 3700 50  0000 C CNN
F 1 "1k" V 5550 3700 50  0000 C CNN
	1    5550 3700
	0    1    1    0   
$EndComp
$Comp
L DIODE D8
U 1 1 4E2C7113
P 5550 3500
F 0 "D8" H 5550 3600 40  0000 C CNN
F 1 "1N4444" H 5550 3400 40  0000 C CNN
	1    5550 3500
	-1   0    0    1   
$EndComp
$Comp
L NPN Q4
U 1 1 4E2C7112
P 5550 3150
F 0 "Q4" H 5550 3000 50  0000 R CNN
F 1 "NPN" H 5550 3300 50  0000 R CNN
	1    5550 3150
	-1   0    0    1   
$EndComp
$Comp
L R R18
U 1 1 4E2C7111
P 5850 2900
F 0 "R18" V 5930 2900 50  0000 C CNN
F 1 "1k" V 5850 2900 50  0000 C CNN
	1    5850 2900
	1    0    0    -1  
$EndComp
$Comp
L R R15
U 1 1 4E2C710F
P 5050 3200
F 0 "R15" V 5130 3200 50  0000 C CNN
F 1 "1k" V 5050 3200 50  0000 C CNN
	1    5050 3200
	-1   0    0    1   
$EndComp
$Comp
L LED D7
U 1 1 4E2C710E
P 5050 3750
F 0 "D7" H 5050 3850 50  0000 C CNN
F 1 "LED" H 5050 3650 50  0000 C CNN
	1    5050 3750
	0    -1   -1   0   
$EndComp
$Comp
L CONN_3 K9
U 1 1 4E2C710D
P 5550 5900
F 0 "K9" V 5500 5900 50  0000 C CNN
F 1 "CONN_3" V 5600 5900 40  0000 C CNN
	1    5550 5900
	0    1    1    0   
$EndComp
$Comp
L R R17
U 1 1 4E2C710C
P 5550 4750
F 0 "R17" V 5630 4750 50  0000 C CNN
F 1 "100" V 5550 4750 50  0000 C CNN
	1    5550 4750
	0    1    1    0   
$EndComp
NoConn ~ 5350 4450
$Comp
L G5LA-1 K6
U 1 1 4E2C70E4
P 4300 4250
F 0 "K6" H 4300 4350 60  0000 C CNN
F 1 "G5LA-1" H 4400 4150 60  0000 C CNN
	1    4300 4250
	0    1    1    0   
$EndComp
$Comp
L AC1005 CC3
U 1 1 4E2C70E3
P 4300 5200
F 0 "CC3" H 4300 5300 60  0000 C CNN
F 1 "AC1005" H 4300 5450 60  0000 C CNN
	1    4300 5200
	1    0    0    -1  
$EndComp
$Comp
L R R12
U 1 1 4E2C70E2
P 4300 3700
F 0 "R12" V 4380 3700 50  0000 C CNN
F 1 "1k" V 4300 3700 50  0000 C CNN
	1    4300 3700
	0    1    1    0   
$EndComp
$Comp
L DIODE D6
U 1 1 4E2C70E1
P 4300 3500
F 0 "D6" H 4300 3600 40  0000 C CNN
F 1 "1N4444" H 4300 3400 40  0000 C CNN
	1    4300 3500
	-1   0    0    1   
$EndComp
$Comp
L NPN Q3
U 1 1 4E2C70E0
P 4300 3150
F 0 "Q3" H 4300 3000 50  0000 R CNN
F 1 "NPN" H 4300 3300 50  0000 R CNN
	1    4300 3150
	-1   0    0    1   
$EndComp
$Comp
L R R14
U 1 1 4E2C70DF
P 4600 2900
F 0 "R14" V 4680 2900 50  0000 C CNN
F 1 "1k" V 4600 2900 50  0000 C CNN
	1    4600 2900
	1    0    0    -1  
$EndComp
$Comp
L R R11
U 1 1 4E2C70DD
P 3800 3200
F 0 "R11" V 3880 3200 50  0000 C CNN
F 1 "1k" V 3800 3200 50  0000 C CNN
	1    3800 3200
	-1   0    0    1   
$EndComp
$Comp
L LED D5
U 1 1 4E2C70DC
P 3800 3750
F 0 "D5" H 3800 3850 50  0000 C CNN
F 1 "LED" H 3800 3650 50  0000 C CNN
	1    3800 3750
	0    -1   -1   0   
$EndComp
$Comp
L CONN_3 K7
U 1 1 4E2C70DB
P 4300 5900
F 0 "K7" V 4250 5900 50  0000 C CNN
F 1 "CONN_3" V 4350 5900 40  0000 C CNN
	1    4300 5900
	0    1    1    0   
$EndComp
$Comp
L R R13
U 1 1 4E2C70DA
P 4300 4750
F 0 "R13" V 4380 4750 50  0000 C CNN
F 1 "100" V 4300 4750 50  0000 C CNN
	1    4300 4750
	0    1    1    0   
$EndComp
NoConn ~ 4100 4450
$Comp
L G5LA-1 K4
U 1 1 4E2C70D6
P 3050 4250
F 0 "K4" H 3050 4350 60  0000 C CNN
F 1 "G5LA-1" H 3150 4150 60  0000 C CNN
	1    3050 4250
	0    1    1    0   
$EndComp
$Comp
L AC1005 CC2
U 1 1 4E2C70D5
P 3050 5200
F 0 "CC2" H 3050 5300 60  0000 C CNN
F 1 "AC1005" H 3050 5450 60  0000 C CNN
	1    3050 5200
	1    0    0    -1  
$EndComp
$Comp
L R R8
U 1 1 4E2C70D4
P 3050 3700
F 0 "R8" V 3130 3700 50  0000 C CNN
F 1 "1k" V 3050 3700 50  0000 C CNN
	1    3050 3700
	0    1    1    0   
$EndComp
$Comp
L DIODE D4
U 1 1 4E2C70D3
P 3050 3500
F 0 "D4" H 3050 3600 40  0000 C CNN
F 1 "1N4444" H 3050 3400 40  0000 C CNN
	1    3050 3500
	-1   0    0    1   
$EndComp
$Comp
L NPN Q2
U 1 1 4E2C70D2
P 3050 3150
F 0 "Q2" H 3050 3000 50  0000 R CNN
F 1 "NPN" H 3050 3300 50  0000 R CNN
	1    3050 3150
	-1   0    0    1   
$EndComp
$Comp
L R R10
U 1 1 4E2C70D1
P 3350 2900
F 0 "R10" V 3430 2900 50  0000 C CNN
F 1 "1k" V 3350 2900 50  0000 C CNN
	1    3350 2900
	1    0    0    -1  
$EndComp
$Comp
L R R7
U 1 1 4E2C70CF
P 2550 3200
F 0 "R7" V 2630 3200 50  0000 C CNN
F 1 "1k" V 2550 3200 50  0000 C CNN
	1    2550 3200
	-1   0    0    1   
$EndComp
$Comp
L LED D3
U 1 1 4E2C70CE
P 2550 3750
F 0 "D3" H 2550 3850 50  0000 C CNN
F 1 "LED" H 2550 3650 50  0000 C CNN
	1    2550 3750
	0    -1   -1   0   
$EndComp
$Comp
L CONN_3 K5
U 1 1 4E2C70CD
P 3050 5900
F 0 "K5" V 3000 5900 50  0000 C CNN
F 1 "CONN_3" V 3100 5900 40  0000 C CNN
	1    3050 5900
	0    1    1    0   
$EndComp
$Comp
L R R9
U 1 1 4E2C70CC
P 3050 4750
F 0 "R9" V 3130 4750 50  0000 C CNN
F 1 "100" V 3050 4750 50  0000 C CNN
	1    3050 4750
	0    1    1    0   
$EndComp
NoConn ~ 2850 4450
Text Label 2000 6200 0    60   ~ 0
Neutre
Text Label 1800 6300 0    60   ~ 0
Terre
Text Label 1550 6400 0    60   ~ 0
Phase
NoConn ~ 1600 4450
Text GLabel 1150 5000 0    60   Input ~ 0
+5v
Text GLabel 1100 4600 0    60   Input ~ 0
+2.5v
$Comp
L CP1 C1
U 1 1 4E2C5FBD
P 700 4000
F 0 "C1" H 750 4100 50  0000 L CNN
F 1 "40µ" H 750 3900 50  0000 L CNN
	1    700  4000
	1    0    0    -1  
$EndComp
$Comp
L R R5
U 1 1 4E2C5EB0
P 1800 4750
F 0 "R5" V 1880 4750 50  0000 C CNN
F 1 "100" V 1800 4750 50  0000 C CNN
	1    1800 4750
	0    1    1    0   
$EndComp
$Comp
L R R2
U 1 1 4E2C5DFF
P 950 4050
F 0 "R2" V 1030 4050 50  0000 C CNN
F 1 "10k" V 950 4050 50  0000 C CNN
	1    950  4050
	1    0    0    -1  
$EndComp
$Comp
L R R1
U 1 1 4E2C5DFC
P 950 3450
F 0 "R1" V 1030 3450 50  0000 C CNN
F 1 "10k" V 950 3450 50  0000 C CNN
	1    950  3450
	1    0    0    -1  
$EndComp
$Comp
L CONN_3 K3
U 1 1 4E2C5C8D
P 1800 5900
F 0 "K3" V 1750 5900 50  0000 C CNN
F 1 "CONN_3" V 1850 5900 40  0000 C CNN
	1    1800 5900
	0    1    1    0   
$EndComp
$Comp
L CONN_3 K1
U 1 1 4E2C5C38
P 800 6300
F 0 "K1" V 750 6300 50  0000 C CNN
F 1 "CONN_3" V 850 6300 40  0000 C CNN
F 2 "230v" H 800 6550 60  0000 C CNN
F 3 "1: Phase; 2: Terre; 3: Neutre" V 1000 6350 60  0000 C CNN
	1    800  6300
	-1   0    0    1   
$EndComp
$Comp
L LED D1
U 1 1 4E2C5C00
P 1300 3750
F 0 "D1" H 1300 3850 50  0000 C CNN
F 1 "LED" H 1300 3650 50  0000 C CNN
	1    1300 3750
	0    -1   -1   0   
$EndComp
$Comp
L R R3
U 1 1 4E2C5BD9
P 1300 3200
F 0 "R3" V 1380 3200 50  0000 C CNN
F 1 "1k" V 1300 3200 50  0000 C CNN
	1    1300 3200
	-1   0    0    1   
$EndComp
$Comp
L R R6
U 1 1 4E2C5B16
P 2100 2900
F 0 "R6" V 2180 2900 50  0000 C CNN
F 1 "1k" V 2100 2900 50  0000 C CNN
	1    2100 2900
	1    0    0    -1  
$EndComp
$Comp
L NPN Q1
U 1 1 4E2C5AB3
P 1800 3150
F 0 "Q1" H 1800 3000 50  0000 R CNN
F 1 "NPN" H 1800 3300 50  0000 R CNN
	1    1800 3150
	-1   0    0    1   
$EndComp
$Comp
L DIODE D2
U 1 1 4E2C5A8D
P 1800 3500
F 0 "D2" H 1800 3600 40  0000 C CNN
F 1 "1N4444" H 1800 3400 40  0000 C CNN
	1    1800 3500
	-1   0    0    1   
$EndComp
$Comp
L R R4
U 1 1 4E2C5A5A
P 1800 3700
F 0 "R4" V 1880 3700 50  0000 C CNN
F 1 "1k" V 1800 3700 50  0000 C CNN
	1    1800 3700
	0    1    1    0   
$EndComp
$Comp
L AC1005 CC1
U 1 1 4E2C5A35
P 1800 5200
F 0 "CC1" H 1800 5300 60  0000 C CNN
F 1 "AC1005" H 1800 5450 60  0000 C CNN
	1    1800 5200
	1    0    0    -1  
$EndComp
$Comp
L G5LA-1 K2
U 1 1 4E2C5A16
P 1800 4250
F 0 "K2" H 1800 4350 60  0000 C CNN
F 1 "G5LA-1" H 1900 4150 60  0000 C CNN
	1    1800 4250
	0    1    1    0   
$EndComp
$EndSCHEMATC
