PCBNEW-LibModule-V1  mer. 27 juil. 2011 13:33:33 CEST
# encoding utf-8
$INDEX
G5LA-1
$EndINDEX
$MODULE G5LA-1
Po 0 0 0 15 4E2FF747 4E2FF6EB ~~
Li G5LA-1
Sc 4E2FF6EB
AR /4E2C5A16
Op 0 0 0
T0 0 -1200 600 600 0 120 N V 21 N "K2"
T1 0 1100 600 600 0 120 N V 21 N "G5LA-1"
DS -3800 0 -3800 -3100 150 21
DS -3800 -3100 4000 -3100 150 21
DS 4000 -3100 4000 3100 150 21
DS 4000 3100 -3800 3100 150 21
DS -3800 3100 -3800 0 150 21
$PAD
Sh "2" C 600 600 0 0 0
Dr 197 0 0
At STD N 00E0FFFF
Ne 4 "N-000024"
Po -2400 -2400
$EndPAD
$PAD
Sh "5" C 600 600 0 0 0
Dr 197 0 0
At STD N 00E0FFFF
Ne 1 "+5v"
Po -2400 2400
$EndPAD
$PAD
Sh "3" C 1102 1102 0 0 0
Dr 669 0 0
At STD N 00E0FFFF
Ne 3 "N-000020"
Po 2400 -2400
$EndPAD
$PAD
Sh "4" C 1102 1102 0 0 0
Dr 670 0 0
At STD N 00E0FFFF
Ne 0 ""
Po 2400 2400
$EndPAD
$PAD
Sh "1" C 1102 1102 0 0 0
Dr 669 0 0
At STD N 00E0FFFF
Ne 2 "/Neutre"
Po -3200 0
$EndPAD
$EndMODULE  G5LA-1
$EndLIBRARY
